
 HC AEROSOL PARAMETERS

    Z        AERSOL     RPAR      WFALL     TAUSED    TAUEDD    TAUC      CONVER
  2.500E+04 2.791E-02 5.798E-05 2.352E-03 3.619E+08 6.731E+06 1.116E+11 1.376E+10
  1.250E+05 3.069E-02 5.798E-05 2.415E-03 3.437E+08 6.399E+06 1.014E+11 1.376E+10
  2.250E+05 4.022E-02 5.798E-05 2.488E-03 3.244E+08 6.053E+06 7.719E+10 1.376E+10
  3.250E+05 5.445E-02 5.798E-05 2.573E-03 3.043E+08 5.693E+06 5.685E+10 1.376E+10
  4.250E+05 7.204E-02 5.798E-05 2.672E-03 2.833E+08 5.323E+06 4.279E+10 1.376E+10
  5.250E+05 9.249E-02 5.798E-05 2.789E-03 2.616E+08 4.944E+06 3.314E+10 1.376E+10
  6.250E+05 1.156E-01 5.798E-05 2.927E-03 2.394E+08 4.559E+06 2.632E+10 1.376E+10
  7.250E+05 1.411E-01 5.798E-05 3.092E-03 2.167E+08 4.170E+06 2.135E+10 1.376E+10
  8.250E+05 1.688E-01 5.798E-05 3.292E-03 1.939E+08 3.780E+06 1.761E+10 1.376E+10
  9.250E+05 1.979E-01 5.798E-05 3.536E-03 1.710E+08 3.392E+06 1.476E+10 1.376E+10
  1.025E+06 2.337E-01 5.798E-05 3.839E-03 1.483E+08 3.761E+06 1.223E+10 1.376E+10
  1.125E+06 3.124E-01 5.798E-05 4.089E-03 1.348E+08 9.401E+06 8.875E+09 1.376E+10
  1.225E+06 5.326E-01 5.798E-05 4.249E-03 1.298E+08 1.659E+07 5.012E+09 1.376E+10
  1.325E+06 9.797E-01 5.798E-05 4.444E-03 1.241E+08 3.525E+07 2.606E+09 1.376E+10
  1.425E+06 1.836E+00 5.798E-05 4.683E-03 1.178E+08 4.862E+07 1.321E+09 1.376E+10
  1.525E+06 3.024E+00 5.798E-05 4.977E-03 1.109E+08 6.131E+07 7.546E+08 1.376E+10
  1.625E+06 4.676E+00 5.798E-05 5.340E-03 1.034E+08 7.050E+07 4.551E+08 1.376E+10
  1.725E+06 6.768E+00 5.798E-05 5.790E-03 9.543E+07 7.231E+07 2.903E+08 1.376E+10
  1.825E+06 9.236E+00 5.798E-05 6.347E-03 8.709E+07 7.231E+07 1.942E+08 1.376E+10
  1.925E+06 1.199E+01 5.798E-05 7.036E-03 7.860E+07 6.878E+07 1.351E+08 1.376E+10
  2.025E+06 1.470E+01 5.798E-05 7.885E-03 7.016E+07 6.131E+07 9.848E+07 1.376E+10
  2.125E+06 1.716E+01 5.798E-05 8.927E-03 6.200E+07 5.530E+07 7.470E+07 1.376E+10
  2.225E+06 1.920E+01 5.798E-05 1.020E-02 5.427E+07 4.862E+07 5.854E+07 1.376E+10
  2.325E+06 2.068E+01 5.798E-05 1.176E-02 4.711E+07 4.273E+07 4.731E+07 1.376E+10
  2.425E+06 2.155E+01 5.798E-05 1.365E-02 4.059E+07 3.760E+07 3.924E+07 1.376E+10
  2.525E+06 2.184E+01 5.798E-05 1.594E-02 3.477E+07 3.318E+07 3.330E+07 1.376E+10
  2.625E+06 2.160E+01 5.798E-05 1.883E-02 3.003E+07 2.969E+07 2.834E+07 1.376E+10
  2.725E+06 2.114E+01 5.780E-05 2.233E-02 2.617E+07 2.661E+07 2.399E+07 1.363E+10
  2.825E+06 2.149E+01 5.656E-05 2.476E-02 2.145E+07 2.350E+07 2.145E+07 1.277E+10
  2.925E+06 2.102E+01 5.580E-05 2.874E-02 1.848E+07 2.169E+07 1.848E+07 1.226E+10
  3.025E+06 2.048E+01 5.493E-05 3.327E-02 1.596E+07 1.972E+07 1.596E+07 1.170E+10
  3.125E+06 1.987E+01 5.395E-05 3.838E-02 1.384E+07 1.763E+07 1.384E+07 1.108E+10
  3.225E+06 1.922E+01 5.289E-05 4.412E-02 1.204E+07 1.621E+07 1.204E+07 1.045E+10
  3.325E+06 1.855E+01 5.179E-05 5.053E-02 1.051E+07 1.484E+07 1.051E+07 9.809E+09
  3.425E+06 1.789E+01 5.066E-05 5.765E-02 9.212E+06 1.343E+07 9.212E+06 9.179E+09
  3.525E+06 1.723E+01 4.951E-05 6.551E-02 8.106E+06 1.226E+07 8.106E+06 8.567E+09
  3.625E+06 1.659E+01 4.834E-05 7.415E-02 7.162E+06 1.085E+07 7.162E+06 7.977E+09
  3.725E+06 1.597E+01 4.717E-05 8.359E-02 6.353E+06 9.725E+06 6.353E+06 7.412E+09
  3.825E+06 1.539E+01 4.602E-05 9.394E-02 5.653E+06 8.813E+06 5.653E+06 6.879E+09
  3.925E+06 1.485E+01 4.487E-05 1.052E-01 5.046E+06 7.834E+06 5.046E+06 6.376E+09
  4.025E+06 1.436E+01 4.373E-05 1.176E-01 4.517E+06 7.050E+06 4.517E+06 5.903E+09
  4.125E+06 1.392E+01 4.261E-05 1.310E-01 4.054E+06 6.410E+06 4.054E+06 5.460E+09
  4.225E+06 1.353E+01 4.150E-05 1.457E-01 3.646E+06 5.755E+06 3.646E+06 5.044E+09
  4.325E+06 1.319E+01 4.039E-05 1.615E-01 3.288E+06 5.128E+06 3.288E+06 4.652E+09
  4.425E+06 1.289E+01 3.928E-05 1.787E-01 2.972E+06 4.549E+06 2.972E+06 4.280E+09
  4.525E+06 1.265E+01 3.818E-05 1.974E-01 2.691E+06 4.209E+06 2.691E+06 3.930E+09
  4.625E+06 1.248E+01 3.708E-05 2.176E-01 2.440E+06 3.711E+06 2.440E+06 3.600E+09
  4.725E+06 1.236E+01 3.597E-05 2.395E-01 2.217E+06 3.357E+06 2.217E+06 3.285E+09
  4.825E+06 1.231E+01 3.485E-05 2.633E-01 2.017E+06 3.065E+06 2.017E+06 2.987E+09
  4.925E+06 1.233E+01 3.371E-05 2.891E-01 1.837E+06 2.765E+06 1.837E+06 2.704E+09
  5.025E+06 1.245E+01 3.254E-05 3.171E-01 1.675E+06 2.518E+06 1.675E+06 2.434E+09
  5.125E+06 1.267E+01 3.135E-05 3.477E-01 1.527E+06 2.312E+06 1.527E+06 2.175E+09
  5.225E+06 1.302E+01 3.011E-05 3.813E-01 1.393E+06 2.124E+06 1.393E+06 1.928E+09
  5.325E+06 1.355E+01 2.882E-05 4.184E-01 1.269E+06 1.942E+06 1.269E+06 1.690E+09
  5.425E+06 1.430E+01 2.744E-05 4.597E-01 1.155E+06 1.763E+06 1.155E+06 1.459E+09
  5.525E+06 1.540E+01 2.595E-05 5.062E-01 1.049E+06 1.584E+06 1.049E+06 1.234E+09
  5.625E+06 1.707E+01 2.428E-05 5.600E-01 9.484E+05 1.410E+06 9.484E+05 1.011E+09
  5.725E+06 1.985E+01 2.234E-05 6.250E-01 8.497E+05 1.243E+06 8.497E+05 7.868E+08
  5.825E+06 1.511E+03 4.914E-06 1.932E+00 2.749E+05 1.088E+06 2.749E+05 8.375E+06
  5.925E+06 1.662E+03 4.121E-06 1.947E+00 2.727E+05 9.464E+05 2.727E+05 4.941E+06
  6.025E+06 1.874E+03 3.628E-06 2.060E+00 2.578E+05 8.198E+05 2.578E+05 3.372E+06
  6.125E+06 2.138E+03 3.271E-06 2.231E+00 2.380E+05 7.086E+05 2.380E+05 2.470E+06
  6.225E+06 2.452E+03 2.979E-06 2.442E+00 2.174E+05 6.120E+05 2.174E+05 1.867E+06
  6.325E+06 2.818E+03 2.725E-06 2.684E+00 1.979E+05 5.289E+05 1.979E+05 1.429E+06
  6.425E+06 3.240E+03 2.497E-06 2.954E+00 1.798E+05 4.578E+05 1.798E+05 1.099E+06
  6.525E+06 3.726E+03 2.288E-06 3.252E+00 1.633E+05 3.972E+05 1.633E+05 8.458E+05
  6.625E+06 4.284E+03 2.097E-06 3.580E+00 1.484E+05 3.456E+05 1.484E+05 6.508E+05
  6.725E+06 4.925E+03 1.921E-06 3.938E+00 1.348E+05 3.017E+05 1.348E+05 5.002E+05
  6.825E+06 5.661E+03 1.759E-06 4.332E+00 1.226E+05 2.820E+05 1.226E+05 3.842E+05
  6.925E+06 6.509E+03 1.612E-06 4.769E+00 1.113E+05 2.820E+05 1.113E+05 2.959E+05
  7.025E+06 7.486E+03 1.478E-06 5.252E+00 1.011E+05 2.820E+05 1.011E+05 2.281E+05
  7.125E+06 8.606E+03 1.355E-06 5.780E+00 9.187E+04 2.820E+05 9.187E+04 1.756E+05
  7.225E+06 9.889E+03 1.241E-06 6.355E+00 8.356E+04 2.820E+05 8.356E+04 1.348E+05
  7.325E+06 1.135E+04 1.134E-06 6.978E+00 7.611E+04 2.820E+05 7.611E+04 1.031E+05
  7.425E+06 1.302E+04 1.035E-06 7.648E+00 6.944E+04 2.820E+05 6.944E+04 7.839E+04
  7.525E+06 1.493E+04 9.434E-07 8.365E+00 6.349E+04 2.820E+05 6.349E+04 5.927E+04
  7.625E+06 1.708E+04 8.575E-07 9.128E+00 5.818E+04 2.820E+05 5.818E+04 4.451E+04
  7.725E+06 1.953E+04 7.775E-07 9.935E+00 5.345E+04 2.820E+05 5.345E+04 3.318E+04
  7.825E+06 2.229E+04 7.029E-07 1.078E+01 4.925E+04 2.820E+05 4.925E+04 2.452E+04
  7.925E+06 2.540E+04 6.334E-07 1.166E+01 4.553E+04 2.820E+05 4.553E+04 1.794E+04
  8.025E+06 2.889E+04 5.688E-07 1.257E+01 4.225E+04 2.820E+05 4.225E+04 1.299E+04
  8.125E+06 3.279E+04 5.087E-07 1.349E+01 3.936E+04 2.820E+05 3.936E+04 9.295E+03
  8.225E+06 3.714E+04 4.531E-07 1.442E+01 3.682E+04 2.820E+05 3.682E+04 6.567E+03
  8.325E+06 4.196E+04 4.018E-07 1.535E+01 3.460E+04 2.820E+05 3.460E+04 4.578E+03
  8.425E+06 4.731E+04 3.546E-07 1.626E+01 3.267E+04 2.820E+05 3.267E+04 3.148E+03
  8.525E+06 5.320E+04 3.115E-07 1.713E+01 3.100E+04 2.820E+05 3.100E+04 2.133E+03
  8.625E+06 5.967E+04 2.722E-07 1.796E+01 2.956E+04 2.820E+05 2.956E+04 1.424E+03
  8.725E+06 6.676E+04 2.366E-07 1.874E+01 2.834E+04 2.820E+05 2.834E+04 9.355E+02
  8.825E+06 7.448E+04 2.046E-07 1.944E+01 2.732E+04 2.820E+05 2.732E+04 6.050E+02
  8.925E+06 8.287E+04 1.760E-07 2.006E+01 2.647E+04 2.820E+05 2.647E+04 3.851E+02
  9.025E+06 9.195E+04 1.506E-07 2.059E+01 2.579E+04 2.820E+05 2.579E+04 2.412E+02
  9.125E+06 9.716E+04 1.300E-07 2.132E+01 2.491E+04 2.820E+05 2.627E+04 1.551E+02
  9.225E+06 5.810E+04 1.300E-07 2.557E+01 2.077E+04 2.820E+05 4.393E+04 1.551E+02
  9.325E+06 3.149E+04 1.300E-07 3.067E+01 1.732E+04 2.820E+05 8.107E+04 1.551E+02
  9.425E+06 1.660E+04 1.300E-07 3.678E+01 1.444E+04 2.820E+05 1.538E+05 1.551E+02
  9.525E+06 8.583E+03 1.300E-07 4.411E+01 1.204E+04 2.820E+05 2.974E+05 1.551E+02
  9.625E+06 4.336E+03 1.300E-07 5.290E+01 1.004E+04 2.820E+05 5.886E+05 1.551E+02
  9.725E+06 2.113E+03 1.300E-07 6.343E+01 8.372E+03 2.820E+05 1.208E+06 1.551E+02
  9.825E+06 9.547E+02 1.300E-07 7.606E+01 6.982E+03 2.820E+05 2.674E+06 1.551E+02
  9.925E+06 3.509E+02 1.300E-07 9.119E+01 5.824E+03 2.820E+05 7.275E+06 1.551E+02
