
 HC AEROSOL PARAMETERS

    Z        AERSOL     RPAR      WFALL     TAUSED    TAUEDD    TAUC      CONVER
  2.500E+04 1.245E-01 5.069E-07 6.860E-06 1.196E+11 6.731E+06 8.635E+09 9.194E+03
  1.250E+05 1.357E-01 5.069E-07 7.692E-06 1.040E+11 6.399E+06 7.978E+09 9.194E+03
  2.250E+05 1.756E-01 5.069E-07 8.656E-06 8.988E+10 6.053E+06 6.223E+09 9.194E+03
  3.250E+05 2.346E-01 5.069E-07 9.781E-06 7.714E+10 5.693E+06 4.710E+09 9.194E+03
  4.250E+05 3.062E-01 5.069E-07 1.110E-05 6.570E+10 5.323E+06 3.657E+09 9.194E+03
  5.250E+05 3.875E-01 5.069E-07 1.268E-05 5.547E+10 4.944E+06 2.935E+09 9.194E+03
  6.250E+05 4.768E-01 5.069E-07 1.456E-05 4.636E+10 4.559E+06 2.428E+09 9.194E+03
  7.250E+05 5.726E-01 5.069E-07 1.686E-05 3.831E+10 4.170E+06 2.063E+09 9.194E+03
  8.250E+05 6.732E-01 5.069E-07 1.969E-05 3.123E+10 3.780E+06 1.795E+09 9.194E+03
  9.250E+05 7.748E-01 5.069E-07 2.323E-05 2.507E+10 3.392E+06 1.600E+09 9.194E+03
  1.025E+06 8.952E-01 5.069E-07 2.776E-05 1.976E+10 3.761E+06 1.426E+09 9.194E+03
  1.125E+06 1.155E+00 5.069E-07 3.346E-05 1.587E+10 9.401E+06 1.121E+09 9.194E+03
  1.225E+06 1.869E+00 5.069E-07 4.026E-05 1.319E+10 1.659E+07 6.928E+08 9.194E+03
  1.325E+06 3.241E+00 5.069E-07 4.846E-05 1.096E+10 3.525E+07 3.993E+08 9.194E+03
  1.425E+06 5.639E+00 5.069E-07 5.833E-05 9.105E+09 4.862E+07 2.294E+08 9.194E+03
  1.525E+06 8.443E+00 5.069E-07 7.021E-05 7.564E+09 6.131E+07 1.532E+08 9.194E+03
  1.625E+06 1.152E+01 5.069E-07 8.453E-05 6.283E+09 7.050E+07 1.122E+08 9.194E+03
  1.725E+06 1.444E+01 5.069E-07 1.018E-04 5.218E+09 7.231E+07 8.957E+07 9.194E+03
  1.825E+06 1.689E+01 5.069E-07 1.225E-04 4.334E+09 7.231E+07 7.655E+07 9.194E+03
  1.925E+06 1.880E+01 5.069E-07 1.475E-04 3.600E+09 6.878E+07 6.878E+07 9.194E+03
  2.025E+06 2.132E+01 4.960E-07 1.738E-04 3.056E+09 6.131E+07 6.131E+07 8.614E+03
  2.125E+06 2.400E+01 4.808E-07 2.028E-04 2.618E+09 5.530E+07 5.530E+07 7.845E+03
  2.225E+06 2.801E+01 4.566E-07 2.319E-04 2.290E+09 4.862E+07 4.862E+07 6.718E+03
  2.325E+06 3.285E+01 4.298E-07 2.628E-04 2.020E+09 4.273E+07 4.273E+07 5.606E+03
  2.425E+06 3.859E+01 4.023E-07 2.962E-04 1.793E+09 3.760E+07 3.760E+07 4.598E+03
  2.525E+06 4.529E+01 3.752E-07 3.325E-04 1.597E+09 3.318E+07 3.318E+07 3.728E+03
  2.625E+06 5.236E+01 3.506E-07 3.741E-04 1.420E+09 2.969E+07 2.969E+07 3.043E+03
  2.725E+06 6.049E+01 3.271E-07 4.201E-04 1.264E+09 2.661E+07 2.661E+07 2.470E+03
  2.825E+06 7.119E+01 3.026E-07 4.678E-04 1.135E+09 2.350E+07 2.350E+07 1.956E+03
  2.925E+06 7.954E+01 2.845E-07 5.295E-04 1.003E+09 2.169E+07 2.169E+07 1.626E+03
  3.025E+06 9.053E+01 2.657E-07 5.953E-04 8.920E+08 1.972E+07 1.972E+07 1.325E+03
  3.125E+06 1.052E+02 2.462E-07 6.639E-04 7.999E+08 1.763E+07 1.763E+07 1.054E+03
  3.225E+06 1.183E+02 2.305E-07 7.482E-04 7.098E+08 1.621E+07 1.621E+07 8.651E+02
  3.325E+06 1.336E+02 2.155E-07 8.416E-04 6.310E+08 1.484E+07 1.484E+07 7.063E+02
  3.425E+06 1.531E+02 2.003E-07 9.414E-04 5.641E+08 1.343E+07 1.343E+07 5.674E+02
  3.525E+06 1.737E+02 1.868E-07 1.056E-03 5.027E+08 1.226E+07 1.226E+07 4.601E+02
  3.625E+06 2.047E+02 1.718E-07 1.169E-03 4.541E+08 1.085E+07 1.085E+07 3.582E+02
  3.725E+06 2.375E+02 1.587E-07 1.300E-03 4.086E+08 9.725E+06 9.725E+06 2.824E+02
  3.825E+06 2.722E+02 1.472E-07 1.450E-03 3.662E+08 8.813E+06 8.813E+06 2.252E+02
  3.925E+06 3.193E+02 1.354E-07 1.604E-03 3.310E+08 7.834E+06 7.834E+06 1.751E+02
  4.025E+06 3.283E+02 1.300E-07 1.854E-03 2.865E+08 7.050E+06 7.775E+06 1.551E+02
  4.125E+06 2.987E+02 1.300E-07 2.230E-03 2.382E+08 6.410E+06 8.546E+06 1.551E+02
  4.225E+06 2.715E+02 1.300E-07 2.682E-03 1.980E+08 5.755E+06 9.401E+06 1.551E+02
  4.325E+06 2.464E+02 1.300E-07 3.226E-03 1.646E+08 5.128E+06 1.036E+07 1.551E+02
  4.425E+06 2.230E+02 1.300E-07 3.880E-03 1.369E+08 4.549E+06 1.144E+07 1.551E+02
  4.525E+06 2.019E+02 1.300E-07 4.666E-03 1.138E+08 4.209E+06 1.264E+07 1.551E+02
  4.625E+06 1.826E+02 1.300E-07 5.612E-03 9.463E+07 3.711E+06 1.398E+07 1.551E+02
  4.725E+06 1.649E+02 1.300E-07 6.748E-03 7.870E+07 3.357E+06 1.548E+07 1.551E+02
  4.825E+06 1.489E+02 1.300E-07 8.114E-03 6.545E+07 3.065E+06 1.714E+07 1.551E+02
  4.925E+06 1.344E+02 1.300E-07 9.757E-03 5.443E+07 2.765E+06 1.899E+07 1.551E+02
  5.025E+06 1.213E+02 1.300E-07 1.173E-02 4.527E+07 2.518E+06 2.105E+07 1.551E+02
  5.125E+06 1.095E+02 1.300E-07 1.410E-02 3.766E+07 2.312E+06 2.332E+07 1.551E+02
  5.225E+06 9.887E+01 1.300E-07 1.695E-02 3.132E+07 2.124E+06 2.582E+07 1.551E+02
  5.325E+06 8.931E+01 1.300E-07 2.038E-02 2.606E+07 1.942E+06 2.858E+07 1.551E+02
  5.425E+06 8.064E+01 1.300E-07 2.450E-02 2.168E+07 1.763E+06 3.165E+07 1.551E+02
  5.525E+06 7.272E+01 1.300E-07 2.945E-02 1.803E+07 1.584E+06 3.510E+07 1.551E+02
  5.625E+06 6.542E+01 1.300E-07 3.539E-02 1.500E+07 1.410E+06 3.902E+07 1.551E+02
  5.725E+06 5.858E+01 1.300E-07 4.254E-02 1.248E+07 1.243E+06 4.358E+07 1.551E+02
  5.825E+06 5.200E+01 1.300E-07 5.112E-02 1.039E+07 1.088E+06 4.909E+07 1.551E+02
  5.925E+06 4.546E+01 1.300E-07 6.143E-02 8.645E+06 9.464E+05 5.616E+07 1.551E+02
  6.025E+06 3.882E+01 1.300E-07 7.381E-02 7.194E+06 8.198E+05 6.575E+07 1.551E+02
  6.125E+06 3.234E+01 1.300E-07 8.869E-02 5.988E+06 7.086E+05 7.892E+07 1.551E+02
  6.225E+06 2.650E+01 1.300E-07 1.066E-01 4.983E+06 6.120E+05 9.632E+07 1.551E+02
  6.325E+06 2.158E+01 1.300E-07 1.280E-01 4.148E+06 5.289E+05 1.183E+08 1.551E+02
  6.425E+06 1.753E+01 1.300E-07 1.538E-01 3.453E+06 4.578E+05 1.456E+08 1.551E+02
  6.525E+06 1.423E+01 1.300E-07 1.848E-01 2.874E+06 3.972E+05 1.794E+08 1.551E+02
  6.625E+06 1.153E+01 1.300E-07 2.219E-01 2.393E+06 3.456E+05 2.213E+08 1.551E+02
  6.725E+06 9.337E+00 1.300E-07 2.666E-01 1.992E+06 3.017E+05 2.734E+08 1.551E+02
  6.825E+06 7.546E+00 1.300E-07 3.202E-01 1.659E+06 2.820E+05 3.383E+08 1.551E+02
  6.925E+06 6.066E+00 1.300E-07 3.846E-01 1.381E+06 2.820E+05 4.208E+08 1.551E+02
  7.025E+06 4.843E+00 1.300E-07 4.618E-01 1.150E+06 2.820E+05 5.271E+08 1.551E+02
  7.125E+06 3.833E+00 1.300E-07 5.546E-01 9.575E+05 2.820E+05 6.659E+08 1.551E+02
  7.225E+06 3.004E+00 1.300E-07 6.660E-01 7.974E+05 2.820E+05 8.497E+08 1.551E+02
  7.325E+06 2.325E+00 1.300E-07 7.996E-01 6.641E+05 2.820E+05 1.098E+09 1.551E+02
  7.425E+06 1.774E+00 1.300E-07 9.601E-01 5.531E+05 2.820E+05 1.439E+09 1.551E+02
  7.525E+06 1.330E+00 1.300E-07 1.153E+00 4.607E+05 2.820E+05 1.919E+09 1.551E+02
  7.625E+06 9.762E-01 1.300E-07 1.384E+00 3.837E+05 2.820E+05 2.615E+09 1.551E+02
  7.725E+06 6.986E-01 1.300E-07 1.661E+00 3.197E+05 2.820E+05 3.654E+09 1.551E+02
  7.825E+06 4.850E-01 1.300E-07 1.994E+00 2.663E+05 2.820E+05 5.263E+09 1.551E+02
  7.925E+06 3.246E-01 1.300E-07 2.394E+00 2.219E+05 2.820E+05 7.864E+09 1.551E+02
  8.025E+06 2.079E-01 1.300E-07 2.873E+00 1.848E+05 2.820E+05 1.228E+10 1.551E+02
  8.125E+06 1.263E-01 1.300E-07 3.448E+00 1.540E+05 2.820E+05 2.020E+10 1.551E+02
  8.225E+06 7.204E-02 1.300E-07 4.138E+00 1.283E+05 2.820E+05 3.543E+10 1.551E+02
  8.325E+06 3.806E-02 1.300E-07 4.966E+00 1.069E+05 2.820E+05 6.707E+10 1.551E+02
  8.425E+06 1.833E-02 1.300E-07 5.960E+00 8.911E+04 2.820E+05 1.392E+11 1.551E+02
  8.525E+06 7.902E-03 1.300E-07 7.151E+00 7.426E+04 2.820E+05 3.230E+11 1.551E+02
  8.625E+06 2.976E-03 1.300E-07 8.580E+00 6.189E+04 2.820E+05 8.578E+11 1.551E+02
  8.725E+06 9.508E-04 1.300E-07 1.029E+01 5.159E+04 2.820E+05 2.685E+12 1.551E+02
  8.825E+06 2.484E-04 1.300E-07 1.235E+01 4.300E+04 2.820E+05 1.027E+13 1.551E+02
  8.925E+06 5.062E-05 1.300E-07 1.482E+01 3.584E+04 2.820E+05 5.042E+13 1.551E+02
  9.025E+06 7.571E-06 1.300E-07 1.777E+01 2.988E+04 2.820E+05 3.371E+14 1.551E+02
  9.125E+06 7.843E-07 1.300E-07 2.132E+01 2.491E+04 2.820E+05 3.255E+15 1.551E+02
  9.225E+06 6.929E-08 1.300E-07 2.557E+01 2.077E+04 2.820E+05 3.684E+16 1.551E+02
  9.325E+06 1.852E-08 1.300E-07 3.067E+01 1.732E+04 2.820E+05 1.378E+17 1.551E+02
  9.425E+06 1.125E-08 1.300E-07 3.678E+01 1.444E+04 2.820E+05 2.268E+17 1.551E+02
  9.525E+06 7.117E-09 1.300E-07 4.411E+01 1.204E+04 2.820E+05 3.587E+17 1.551E+02
  9.625E+06 4.355E-09 1.300E-07 5.290E+01 1.004E+04 2.820E+05 5.861E+17 1.551E+02
  9.725E+06 2.513E-09 1.300E-07 6.343E+01 8.372E+03 2.820E+05 1.016E+18 1.551E+02
  9.825E+06 1.301E-09 1.300E-07 7.606E+01 6.982E+03 2.820E+05 1.962E+18 1.551E+02
  9.925E+06 5.221E-10 1.300E-07 9.119E+01 5.824E+03 2.820E+05 4.889E+18 1.551E+02
