%!PS-Adobe-3.0 EPSF-3.0
%%BoundingBox: 0 0 850 623
%%Title: Graphics produced by IDL
%%For: giada@acidrain.astro.washington.edu, /astro/users/giada
%%Creator: IDL Version 7.0 (linux x86_64 m64)
%%CreationDate: Wed Feb 26 12:54:35 2014
%%DocumentData: Clean7bit
%%Requirements: color
%%LanguageLevel: 1
%%PageOrder: Ascend
%%Pages: (atend)
%%DocumentNeededResources: (atend)
%%EndComments
%%BeginProlog
%+ prolog.ps -- Prolog for IDL generated PostScript files
%+ Copyright (c) 1988-2007 ITT Visual Information Solutions. All Rights Reserved.
%v 5
/$IDL_DICT 40 dict def $IDL_DICT begin /bdef { bind def } bind def /C
{currentpoint newpath moveto} bdef /CP {currentpoint} bdef /D {currentpoint
stroke moveto} bdef /F {closepath fill} bdef /K { setgray } bdef /M {moveto}
bdef /N {rmoveto} bdef /P {lineto} bdef /R {rlineto} bdef /S {gsave show
grestore} bdef /X {currentpoint pop} bdef /Z {gsave currentpoint lineto 20
setlinewidth 1 setlinecap stroke grestore} bdef /L0 {[] 0 setdash} bdef /L1
{[40 100] 0 setdash} bdef /L2 {[200 200] 0 setdash} bdef /L3 {[200 100 50
100] 0 setdash} bdef /L4 {[300 100 50 100 50 100 50 100] 0 setdash} bdef /L5
{[400 200] 0 setdash} bdef /STDFONT { findfont exch scalefont setfont } bdef
/ISOFONT { findfont dup length dict begin { 1 index /FID ne {def} {pop pop}
ifelse } forall /Encoding ISOLatin1Encoding def currentdict end /idltmpfont
exch definefont exch scalefont setfont } bdef /ISOBULLET { gsave /Helvetica
findfont exch scalefont setfont (\267) show currentpoint grestore moveto}
bdef /MITERLIMIT { 2.5 setmiterlimit } bdef end
%%EndProlog
%%Page: 0 1
%%PageRequirements: color
%%PageResources: (atend)
%%PageOrientation: Portrait
%%PageBoundingBox: 0 0 850 623
%%BeginPageSetup
$IDL_DICT begin 0.0283465 dup scale MITERLIMIT
%%IncludeResource: font Helvetica
423.333 /Helvetica STDFONT
%%EndPageSetup
10 setlinewidth L0 0.000 0.000 0.000 setrgbcolor 5422 21712 M 0 -322 R D
5422 21668 M 29 29 R 29 15 R 44 0 R 29 -15 R 29 -29 R 15 -44 R 0 -29 R
-15 -44 R -29 -29 R -29 -15 R -44 0 R -29 15 R -29 29 R D 5699 21814 M
0 -307 R D 5699 21653 M 44 44 R 29 15 R 44 0 R 29 -15 R 15 -44 R 0 -146 R D
6035 21712 M -29 -15 R -29 -29 R -15 -44 R 0 -29 R 15 -44 R 29 -29 R
29 -15 R 44 0 R 29 15 R 29 29 R 15 44 R 0 29 R -15 44 R -29 29 R -29 15 R
-44 0 R D 6269 21814 M 0 -248 R 15 -44 R 29 -15 R 29 0 R D 6225 21712 M
102 0 R D 6488 21712 M -29 -15 R -29 -29 R -15 -44 R 0 -29 R 15 -44 R
29 -29 R 29 -15 R 44 0 R 29 15 R 29 29 R 15 44 R 0 29 R -15 44 R -29 29 R
-29 15 R -44 0 R D 6868 21668 M -29 29 R -30 15 R -43 0 R -30 -15 R
-29 -29 R -15 -44 R 0 -29 R 15 -44 R 29 -29 R 30 -15 R 43 0 R 30 15 R
29 29 R D 6970 21814 M 0 -307 R D 6970 21653 M 44 44 R 29 15 R 44 0 R
29 -15 R 15 -44 R 0 -146 R D 7233 21624 M 175 0 R 0 29 R -14 30 R -15 14 R
-29 15 R -44 0 R -29 -15 R -30 -29 R -14 -44 R 0 -29 R 14 -44 R 30 -29 R
29 -15 R 44 0 R 29 15 R 29 29 R D 7510 21712 M 0 -205 R D 7510 21653 M
44 44 R 29 15 R 44 0 R 29 -15 R 15 -44 R 0 -146 R D 7671 21653 M 44 44 R
29 15 R 44 0 R 29 -15 R 15 -44 R 0 -146 R D 8182 21712 M 0 -205 R D
8182 21653 M 44 44 R 29 15 R 44 0 R 29 -15 R 15 -44 R 0 -146 R D
8343 21653 M 44 44 R 29 15 R 44 0 R 29 -15 R 15 -44 R 0 -146 R D
8781 21712 M 0 -205 R D 8781 21668 M -29 29 R -29 15 R -44 0 R -29 -15 R
-30 -29 R -14 -44 R 0 -29 R 14 -44 R 30 -29 R 29 -15 R 44 0 R 29 15 R
29 29 R D 9044 21668 M -15 29 R -43 15 R -44 0 R -44 -15 R -15 -29 R
15 -29 R 29 -15 R 73 -14 R 29 -15 R 15 -29 R 0 -15 R -15 -29 R -43 -15 R
-44 0 R -44 15 R -15 29 R D 9292 21668 M -14 29 R -44 15 R -44 0 R -44 -15 R
-14 -29 R 14 -29 R 29 -15 R 73 -14 R 30 -15 R 14 -29 R 0 -15 R -14 -29 R
-44 -15 R -44 0 R -44 15 R -14 29 R D 9789 21814 M 0 -307 R D 9789 21668 M
-29 29 R -30 15 R -43 0 R -30 -15 R -29 -29 R -14 -44 R 0 -29 R 14 -44 R
29 -29 R 30 -15 R 43 0 R 30 15 R 29 29 R D 9891 21624 M 175 0 R 0 29 R
-14 30 R -15 14 R -29 15 R -44 0 R -29 -15 R -29 -29 R -15 -44 R 0 -29 R
15 -44 R 29 -29 R 29 -15 R 44 0 R 29 15 R 29 29 R D 10169 21712 M 0 -205 R D
10169 21653 M 43 44 R 30 15 R 43 0 R 30 -15 R 14 -44 R 0 -146 R D
10592 21668 M -15 29 R -43 15 R -44 0 R -44 -15 R -15 -29 R 15 -29 R
29 -15 R 73 -14 R 29 -15 R 15 -29 R 0 -15 R -15 -29 R -43 -15 R -44 0 R
-44 15 R -15 29 R D 10680 21814 M 14 -15 R 15 15 R -15 15 R -14 -15 R D
10694 21712 M 0 -205 R D 10826 21814 M 0 -248 R 14 -44 R 30 -15 R 29 0 R D
10782 21712 M 102 0 R D 10957 21712 M 88 -205 R 87 205 R D 11045 21507 M
-29 -73 R -30 -29 R -29 -15 R -14 0 R D 2220 1408 M 12114 0 R D 2220 1408 M
0 398 R D 2197 1125 M -35 -11 R -24 -35 R -11 -59 R 0 -35 R 11 -58 R
24 -35 R 35 -12 R 23 0 R 35 12 R 24 35 R 11 58 R 0 35 R -11 59 R -24 35 R
-35 11 R -23 0 R D 4643 1408 M 0 398 R D 4444 1067 M 0 12 R 12 23 R 12 12 R
23 11 R 47 0 R 23 -11 R 12 -12 R 12 -23 R 0 -24 R -12 -23 R -24 -35 R
-116 -117 R 163 0 R D 4736 1125 M -35 -11 R -23 -35 R -12 -59 R 0 -35 R
12 -58 R 23 -35 R 35 -12 R 24 0 R 35 12 R 23 35 R 12 58 R 0 35 R -12 59 R
-23 35 R -35 11 R -24 0 R D 7066 1408 M 0 398 R D 6972 1125 M -117 -163 R
176 0 R D 6972 1125 M 0 -245 R D 7159 1125 M -35 -11 R -23 -35 R -12 -59 R
0 -35 R 12 -58 R 23 -35 R 35 -12 R 24 0 R 35 12 R 23 35 R 12 58 R 0 35 R
-12 59 R -23 35 R -35 11 R -24 0 R D 9489 1408 M 0 398 R D 9430 1090 M
-12 24 R -35 11 R -23 0 R -35 -11 R -23 -35 R -12 -59 R 0 -58 R 12 -47 R
23 -23 R 35 -12 R 12 0 R 35 12 R 23 23 R 12 35 R 0 12 R -12 35 R -23 23 R
-35 12 R -12 0 R -35 -12 R -23 -23 R -12 -35 R D 9582 1125 M -35 -11 R
-23 -35 R -12 -59 R 0 -35 R 12 -58 R 23 -35 R 35 -12 R 23 0 R 35 12 R
24 35 R 11 58 R 0 35 R -11 59 R -24 35 R -35 11 R -23 0 R D 11911 1408 M
0 398 R D 11759 1125 M -35 -11 R -11 -24 R 0 -23 R 11 -23 R 24 -12 R
47 -12 R 35 -11 R 23 -24 R 12 -23 R 0 -35 R -12 -24 R -12 -11 R -35 -12 R
-47 0 R -35 12 R -11 11 R -12 24 R 0 35 R 12 23 R 23 24 R 35 11 R 47 12 R
23 12 R 12 23 R 0 23 R -12 24 R -35 11 R -47 0 R D 12005 1125 M -35 -11 R
-24 -35 R -11 -59 R 0 -35 R 11 -58 R 24 -35 R 35 -12 R 23 0 R 35 12 R
24 35 R 11 58 R 0 35 R -11 59 R -24 35 R -35 11 R -23 0 R D 14334 1408 M
0 398 R D 14042 1079 M 23 11 R 35 35 R 0 -245 R D 14311 1125 M -35 -11 R
-24 -35 R -11 -59 R 0 -35 R 11 -58 R 24 -35 R 35 -12 R 23 0 R 35 12 R
24 35 R 11 58 R 0 35 R -11 59 R -24 35 R -35 11 R -23 0 R D 14544 1125 M
-35 -11 R -23 -35 R -12 -59 R 0 -35 R 12 -58 R 23 -35 R 35 -12 R 24 0 R
35 12 R 23 35 R 12 58 R 0 35 R -12 59 R -23 35 R -35 11 R -24 0 R D
2826 1408 M 0 199 R D 3432 1408 M 0 199 R D 4037 1408 M 0 199 R D
5249 1408 M 0 199 R D 5854 1408 M 0 199 R D 6460 1408 M 0 199 R D
7671 1408 M 0 199 R D 8277 1408 M 0 199 R D 8883 1408 M 0 199 R D
10094 1408 M 0 199 R D 10700 1408 M 0 199 R D 11306 1408 M 0 199 R D
12517 1408 M 0 199 R D 13123 1408 M 0 199 R D 13728 1408 M 0 199 R D
7226 668 M 0 -245 R D 7226 539 M 35 35 R 23 12 R 35 0 R 23 -12 R 12 -35 R
0 -116 R D 7436 516 M 140 0 R 0 23 R -12 24 R -11 11 R -24 12 R -35 0 R
-23 -12 R -23 -23 R -12 -35 R 0 -23 R 12 -35 R 23 -24 R 23 -11 R 35 0 R
24 11 R 23 24 R D 7646 668 M 12 -12 R 12 12 R -12 12 R -12 -12 R D
7658 586 M 0 -163 R D 7880 586 M 0 -199 R -12 -35 R -11 -11 R -24 -12 R
-35 0 R -23 12 R D 7880 551 M -23 23 R -24 12 R -35 0 R -23 -12 R -24 -23 R
-11 -35 R 0 -23 R 11 -35 R 24 -24 R 23 -11 R 35 0 R 24 11 R 23 24 R D
7973 668 M 0 -245 R D 7973 539 M 35 35 R 24 12 R 35 0 R 23 -12 R 12 -35 R
0 -116 R D 8207 668 M 0 -199 R 12 -35 R 23 -11 R 23 0 R D 8172 586 M 82 0 R
D 8523 715 M 0 -386 R D 8534 715 M 0 -386 R D 8523 715 M 81 0 R D 8523 329 M
81 0 R D 8686 668 M 0 -245 R D 8803 586 M -117 -117 R D 8733 516 M 82 -93 R
D 8885 586 M 0 -163 R D 8885 539 M 35 35 R 23 12 R 35 0 R 24 -12 R 11 -35 R
0 -116 R D 9013 539 M 35 35 R 24 12 R 35 0 R 23 -12 R 12 -35 R 0 -116 R D
9294 715 M 0 -386 R D 9305 715 M 0 -386 R D 9224 715 M 81 0 R D 9224 329 M
81 0 R D 2220 21296 M 12114 0 R D 2220 21296 M 0 -398 R D 4643 21296 M
0 -398 R D 7066 21296 M 0 -398 R D 9489 21296 M 0 -398 R D 11911 21296 M
0 -398 R D 14334 21296 M 0 -398 R D 2826 21296 M 0 -199 R D 3432 21296 M
0 -199 R D 4037 21296 M 0 -199 R D 5249 21296 M 0 -199 R D 5854 21296 M
0 -199 R D 6460 21296 M 0 -199 R D 7671 21296 M 0 -199 R D 8277 21296 M
0 -199 R D 8883 21296 M 0 -199 R D 10094 21296 M 0 -199 R D 10700 21296 M
0 -199 R D 11306 21296 M 0 -199 R D 12517 21296 M 0 -199 R D 13123 21296 M
0 -199 R D 13728 21296 M 0 -199 R D 2220 1408 M 0 19888 R D 2220 1408 M
242 0 R D 1223 1607 M 23 11 R 35 35 R 0 -245 R D 1492 1653 M -35 -11 R
-24 -35 R -12 -59 R 0 -35 R 12 -58 R 24 -35 R 35 -12 R 23 0 R 35 12 R
23 35 R 12 58 R 0 35 R -12 59 R -23 35 R -35 11 R -23 0 R D 1654 1651 M
130 0 R D 1856 1709 M 14 7 R 22 22 R 0 -152 R D 2015 1738 M -22 -8 R
-7 -14 R 0 -15 R 7 -14 R 15 -7 R 29 -7 R 22 -8 R 14 -14 R 7 -15 R 0 -21 R
-7 -15 R -7 -7 R -22 -7 R -29 0 R -22 7 R -7 7 R -7 15 R 0 21 R 7 15 R
15 14 R 21 8 R 29 7 R 15 7 R 7 14 R 0 15 R -7 14 R -22 8 R -29 0 R D
2220 6380 M 242 0 R D 1223 6438 M 23 12 R 35 35 R 0 -246 R D 1492 6485 M
-35 -12 R -24 -35 R -12 -58 R 0 -36 R 12 -58 R 24 -35 R 35 -12 R 23 0 R
35 12 R 23 35 R 12 58 R 0 36 R -12 58 R -23 35 R -35 12 R -23 0 R D
1654 6482 M 130 0 R D 1856 6540 M 14 7 R 22 22 R 0 -152 R D 2073 6547 M
-7 15 R -22 7 R -14 0 R -22 -7 R -15 -22 R -7 -36 R 0 -36 R 7 -29 R 15 -15 R
22 -7 R 7 0 R 22 7 R 14 15 R 7 21 R 0 8 R -7 21 R -14 15 R -22 7 R -7 0 R
-22 -7 R -15 -15 R -7 -21 R D 2220 11352 M 242 0 R D 1223 11410 M 23 12 R
35 35 R 0 -246 R D 1492 11457 M -35 -12 R -24 -35 R -12 -58 R 0 -36 R
12 -58 R 24 -35 R 35 -12 R 23 0 R 35 12 R 23 35 R 12 58 R 0 36 R -12 58 R
-23 35 R -35 12 R -23 0 R D 1654 11454 M 130 0 R D 1856 11512 M 14 7 R
22 22 R 0 -152 R D 2051 11541 M -72 -101 R 108 0 R D 2051 11541 M 0 -152 R D
2220 16324 M 242 0 R D 1223 16382 M 23 12 R 35 35 R 0 -246 R D 1492 16429 M
-35 -12 R -24 -35 R -12 -58 R 0 -36 R 12 -58 R 24 -35 R 35 -12 R 23 0 R
35 12 R 23 35 R 12 58 R 0 36 R -12 58 R -23 35 R -35 12 R -23 0 R D
1654 16426 M 130 0 R D 1856 16484 M 14 7 R 22 22 R 0 -152 R D 1986 16477 M
0 7 R 7 14 R 8 8 R 14 7 R 29 0 R 15 -7 R 7 -8 R 7 -14 R 0 -15 R -7 -14 R
-15 -22 R -72 -72 R 101 0 R D 2220 21296 M 242 0 R D 1223 21248 M 23 12 R
35 35 R 0 -245 R D 1492 21295 M -35 -12 R -24 -35 R -12 -58 R 0 -35 R
12 -59 R 24 -35 R 35 -11 R 23 0 R 35 11 R 23 35 R 12 59 R 0 35 R -12 58 R
-23 35 R -35 12 R -23 0 R D 1654 21292 M 130 0 R D 1856 21350 M 14 7 R
22 22 R 0 -152 R D 2022 21379 M -21 -7 R -15 -22 R -7 -36 R 0 -22 R 7 -36 R
15 -21 R 21 -8 R 15 0 R 22 8 R 14 21 R 7 36 R 0 22 R -7 36 R -14 22 R
-22 7 R -15 0 R D 2220 3894 M 121 0 R D 2220 8866 M 121 0 R D 2220 13838 M
121 0 R D 2220 18810 M 121 0 R D 668 10692 M 198 0 R 36 -12 R 11 -11 R
12 -24 R 0 -35 R -12 -23 R D 703 10692 M -23 -23 R -12 -24 R 0 -35 R
12 -23 R 23 -24 R 35 -11 R 23 0 R 35 11 R 24 24 R 11 23 R 0 35 R -11 24 R
-24 23 R D 539 10972 M 386 -210 R D 703 11171 M -23 -23 R -12 -24 R 0 -35 R
12 -23 R 23 -24 R 35 -11 R 23 0 R 35 11 R 24 24 R 11 23 R 0 35 R -11 24 R
-24 23 R D 668 11253 M 163 0 R D 715 11253 M -35 35 R -12 23 R 0 35 R
12 24 R 35 11 R 116 0 R D 715 11381 M -35 35 R -12 24 R 0 35 R 12 23 R
35 12 R 116 0 R D 656 11650 M 140 0 R D 691 11592 M 70 116 R D 691 11708 M
70 -116 R D 656 11837 M 140 0 R D 691 11779 M 70 116 R D 691 11895 M
70 -116 R D 586 11989 M 0 128 R 94 -70 R 0 35 R 11 24 R 12 11 R 35 12 R
23 0 R 35 -12 R 24 -23 R 11 -35 R 0 -35 R -11 -35 R -12 -12 R -23 -11 R D
14334 1408 M 0 19888 R D 14334 1408 M -242 0 R D 14334 6380 M -242 0 R D
14334 11352 M -242 0 R D 14334 16324 M -242 0 R D 14334 21296 M -242 0 R D
14334 3894 M -121 0 R D 14334 8866 M -121 0 R D 14334 13838 M -121 0 R D
14334 18810 M -121 0 R D 2250 12053 M 122 103 R 121 292 R 121 327 R
121 302 R 121 270 R 121 240 R 121 216 R 122 193 R 121 172 R 121 179 R
121 314 R 121 576 R 121 658 R 121 678 R 122 539 R 121 470 R 121 399 R
121 336 R 121 282 R 121 220 R 121 167 R 122 121 R 121 80 R 121 45 R 121 14 R
121 -12 R 121 -33 R 121 -52 R 121 -68 R 122 -79 R 121 -91 R 121 -100 R
121 -107 R 121 -110 R 121 -115 R 121 -119 R 122 -120 R 121 -120 R 121 -120 R
121 -120 R 121 -118 R 121 -116 R 121 -115 R 122 -115 R 121 -112 R 121 -110 R
121 -109 R 121 -106 R 121 -106 R 121 -104 R 122 -102 R 121 -101 R 121 -99 R
121 -101 R 121 -101 R 121 -104 R 121 -107 R 122 -227 R 121 -467 R 121 -284 R
121 -193 R 121 -155 R 121 -138 R 121 -132 R 122 -133 R 121 -131 R 121 -134 R
121 -135 R 121 -132 R 121 -130 R 121 -131 R 122 -134 R 121 -144 R 121 -147 R
121 -153 R 121 -164 R 121 -172 R 121 -184 R 121 -196 R 122 -210 R 121 -225 R
121 -240 R 121 -258 R 121 -275 R 121 -293 R 121 -313 R 122 -332 R 121 -353 R
121 -372 R 121 -393 R 121 -417 R 121 -555 R 121 -661 R 122 -692 R 121 -712 R
121 -737 R 121 -776 R 121 -858 R 121 -1081 R D 21875 21712 M 0 -322 R D
21875 21668 M 29 29 R 29 15 R 44 0 R 29 -15 R 30 -29 R 14 -44 R 0 -29 R
-14 -44 R -30 -29 R -29 -15 R -44 0 R -29 15 R -29 29 R D 22313 21712 M
0 -205 R D 22313 21668 M -29 29 R -29 15 R -44 0 R -29 -15 R -29 -29 R
-15 -44 R 0 -29 R 15 -44 R 29 -29 R 29 -15 R 44 0 R 29 15 R 29 29 R D
22430 21712 M 0 -205 R D 22430 21624 M 15 44 R 29 29 R 29 15 R 44 0 R D
22635 21814 M 0 -248 R 14 -44 R 29 -15 R 30 0 R D 22591 21712 M 102 0 R D
22781 21814 M 14 -15 R 15 15 R -15 15 R -14 -15 R D 22795 21712 M 0 -205 R D
23073 21668 M -30 29 R -29 15 R -44 0 R -29 -15 R -29 -29 R -15 -44 R
0 -29 R 15 -44 R 29 -29 R 29 -15 R 44 0 R 29 15 R 30 29 R D 23175 21814 M
0 -307 R D 23277 21624 M 175 0 R 0 29 R -14 30 R -15 14 R -29 15 R -44 0 R
-29 -15 R -29 -29 R -15 -44 R 0 -29 R 15 -44 R 29 -29 R 29 -15 R 44 0 R
29 15 R 29 29 R D 23788 21712 M 0 -205 R D 23788 21624 M 15 44 R 29 29 R
29 15 R 44 0 R D 24139 21712 M 0 -205 R D 24139 21668 M -29 29 R -30 15 R
-43 0 R -30 -15 R -29 -29 R -14 -44 R 0 -29 R 14 -44 R 29 -29 R 30 -15 R
43 0 R 30 15 R 29 29 R D 24416 21814 M 0 -307 R D 24416 21668 M -29 29 R
-29 15 R -44 0 R -29 -15 R -29 -29 R -15 -44 R 0 -29 R 15 -44 R 29 -29 R
29 -15 R 44 0 R 29 15 R 29 29 R D 24519 21814 M 14 -15 R 15 15 R -15 15 R
-14 -15 R D 24533 21712 M 0 -205 R D 24635 21814 M 15 -15 R 15 15 R -15 15 R
-15 -15 R D 24650 21712 M 0 -205 R D 17220 1408 M 12114 0 R D 17220 1408 M
0 398 R D 17197 1125 M -35 -11 R -24 -35 R -11 -59 R 0 -35 R 11 -58 R
24 -35 R 35 -12 R 23 0 R 35 12 R 24 35 R 11 58 R 0 35 R -11 59 R -24 35 R
-35 11 R -23 0 R D 19643 1408 M 0 398 R D 19444 1067 M 0 12 R 12 23 R
12 12 R 23 11 R 47 0 R 23 -11 R 12 -12 R 12 -23 R 0 -24 R -12 -23 R
-24 -35 R -116 -117 R 163 0 R D 19736 1125 M -35 -11 R -23 -35 R -12 -59 R
0 -35 R 12 -58 R 23 -35 R 35 -12 R 24 0 R 35 12 R 23 35 R 12 58 R 0 35 R
-12 59 R -23 35 R -35 11 R -24 0 R D 22066 1408 M 0 398 R D 21972 1125 M
-117 -163 R 176 0 R D 21972 1125 M 0 -245 R D 22159 1125 M -35 -11 R
-23 -35 R -12 -59 R 0 -35 R 12 -58 R 23 -35 R 35 -12 R 24 0 R 35 12 R
23 35 R 12 58 R 0 35 R -12 59 R -23 35 R -35 11 R -24 0 R D 24489 1408 M
0 398 R D 24430 1090 M -12 24 R -35 11 R -23 0 R -35 -11 R -23 -35 R
-12 -59 R 0 -58 R 12 -47 R 23 -23 R 35 -12 R 12 0 R 35 12 R 23 23 R 12 35 R
0 12 R -12 35 R -23 23 R -35 12 R -12 0 R -35 -12 R -23 -23 R -12 -35 R D
24582 1125 M -35 -11 R -23 -35 R -12 -59 R 0 -35 R 12 -58 R 23 -35 R
35 -12 R 23 0 R 35 12 R 24 35 R 11 58 R 0 35 R -11 59 R -24 35 R -35 11 R
-23 0 R D 26911 1408 M 0 398 R D 26759 1125 M -35 -11 R -11 -24 R 0 -23 R
11 -23 R 24 -12 R 47 -12 R 35 -11 R 23 -24 R 12 -23 R 0 -35 R -12 -24 R
-12 -11 R -35 -12 R -47 0 R -35 12 R -11 11 R -12 24 R 0 35 R 12 23 R
23 24 R 35 11 R 47 12 R 23 12 R 12 23 R 0 23 R -12 24 R -35 11 R -47 0 R D
27005 1125 M -35 -11 R -24 -35 R -11 -59 R 0 -35 R 11 -58 R 24 -35 R
35 -12 R 23 0 R 35 12 R 24 35 R 11 58 R 0 35 R -11 59 R -24 35 R -35 11 R
-23 0 R D 29334 1408 M 0 398 R D 29042 1079 M 23 11 R 35 35 R 0 -245 R D
29311 1125 M -35 -11 R -24 -35 R -11 -59 R 0 -35 R 11 -58 R 24 -35 R
35 -12 R 23 0 R 35 12 R 24 35 R 11 58 R 0 35 R -11 59 R -24 35 R -35 11 R
-23 0 R D 29544 1125 M -35 -11 R -23 -35 R -12 -59 R 0 -35 R 12 -58 R
23 -35 R 35 -12 R 24 0 R 35 12 R 23 35 R 12 58 R 0 35 R -12 59 R -23 35 R
-35 11 R -24 0 R D 17826 1408 M 0 199 R D 18432 1408 M 0 199 R D
19037 1408 M 0 199 R D 20249 1408 M 0 199 R D 20854 1408 M 0 199 R D
21460 1408 M 0 199 R D 22671 1408 M 0 199 R D 23277 1408 M 0 199 R D
23883 1408 M 0 199 R D 25094 1408 M 0 199 R D 25700 1408 M 0 199 R D
26306 1408 M 0 199 R D 27517 1408 M 0 199 R D 28123 1408 M 0 199 R D
28728 1408 M 0 199 R D 22226 668 M 0 -245 R D 22226 539 M 35 35 R 23 12 R
35 0 R 23 -12 R 12 -35 R 0 -116 R D 22436 516 M 140 0 R 0 23 R -12 24 R
-11 11 R -24 12 R -35 0 R -23 -12 R -23 -23 R -12 -35 R 0 -23 R 12 -35 R
23 -24 R 23 -11 R 35 0 R 24 11 R 23 24 R D 22646 668 M 12 -12 R 12 12 R
-12 12 R -12 -12 R D 22658 586 M 0 -163 R D 22880 586 M 0 -199 R -12 -35 R
-11 -11 R -24 -12 R -35 0 R -23 12 R D 22880 551 M -23 23 R -24 12 R -35 0 R
-23 -12 R -24 -23 R -11 -35 R 0 -23 R 11 -35 R 24 -24 R 23 -11 R 35 0 R
24 11 R 23 24 R D 22973 668 M 0 -245 R D 22973 539 M 35 35 R 24 12 R 35 0 R
23 -12 R 12 -35 R 0 -116 R D 23207 668 M 0 -199 R 12 -35 R 23 -11 R 23 0 R D
23172 586 M 82 0 R D 23523 715 M 0 -386 R D 23534 715 M 0 -386 R D
23523 715 M 81 0 R D 23523 329 M 81 0 R D 23686 668 M 0 -245 R D 23803 586 M
-117 -117 R D 23733 516 M 82 -93 R D 23885 586 M 0 -163 R D 23885 539 M
35 35 R 23 12 R 35 0 R 24 -12 R 11 -35 R 0 -116 R D 24013 539 M 35 35 R
24 12 R 35 0 R 23 -12 R 12 -35 R 0 -116 R D 24294 715 M 0 -386 R D
24305 715 M 0 -386 R D 24224 715 M 81 0 R D 24224 329 M 81 0 R D
17220 21296 M 12114 0 R D 17220 21296 M 0 -398 R D 19643 21296 M 0 -398 R D
22066 21296 M 0 -398 R D 24489 21296 M 0 -398 R D 26911 21296 M 0 -398 R D
29334 21296 M 0 -398 R D 17826 21296 M 0 -199 R D 18432 21296 M 0 -199 R D
19037 21296 M 0 -199 R D 20249 21296 M 0 -199 R D 20854 21296 M 0 -199 R D
21460 21296 M 0 -199 R D 22671 21296 M 0 -199 R D 23277 21296 M 0 -199 R D
23883 21296 M 0 -199 R D 25094 21296 M 0 -199 R D 25700 21296 M 0 -199 R D
26306 21296 M 0 -199 R D 27517 21296 M 0 -199 R D 28123 21296 M 0 -199 R D
28728 21296 M 0 -199 R D 17220 1408 M 0 19888 R D 17220 1408 M 242 0 R D
16151 1653 M -35 -11 R -23 -35 R -12 -59 R 0 -35 R 12 -58 R 23 -35 R
35 -12 R 23 0 R 35 12 R 24 35 R 12 58 R 0 35 R -12 59 R -24 35 R -35 11 R
-23 0 R D 16338 1431 M -12 -11 R 12 -12 R 12 12 R -12 11 R D 16502 1653 M
-35 -11 R -24 -35 R -12 -59 R 0 -35 R 12 -58 R 24 -35 R 35 -12 R 23 0 R
35 12 R 23 35 R 12 58 R 0 35 R -12 59 R -23 35 R -35 11 R -23 0 R D
16735 1653 M -35 -11 R -23 -35 R -12 -59 R 0 -35 R 12 -58 R 23 -35 R
35 -12 R 24 0 R 35 12 R 23 35 R 12 58 R 0 35 R -12 59 R -23 35 R -35 11 R
-24 0 R D 16934 1607 M 23 11 R 35 35 R 0 -245 R D 17220 8037 M 242 0 R D
16151 8142 M -35 -12 R -23 -35 R -12 -58 R 0 -35 R 12 -59 R 23 -35 R
35 -11 R 23 0 R 35 11 R 24 35 R 12 59 R 0 35 R -12 58 R -24 35 R -35 12 R
-23 0 R D 16338 7920 M -12 -12 R 12 -11 R 12 11 R -12 12 R D 16502 8142 M
-35 -12 R -24 -35 R -12 -58 R 0 -35 R 12 -59 R 24 -35 R 35 -11 R 23 0 R
35 11 R 23 35 R 12 59 R 0 35 R -12 58 R -23 35 R -35 12 R -23 0 R D
16700 8095 M 24 12 R 35 35 R 0 -245 R D 16969 8142 M -35 -12 R -23 -35 R
-12 -58 R 0 -35 R 12 -59 R 23 -35 R 35 -11 R 23 0 R 35 11 R 24 35 R 11 59 R
0 35 R -11 58 R -24 35 R -35 12 R -23 0 R D 17220 14667 M 242 0 R D
16151 14771 M -35 -11 R -23 -35 R -12 -59 R 0 -35 R 12 -58 R 23 -35 R
35 -12 R 23 0 R 35 12 R 24 35 R 12 58 R 0 35 R -12 59 R -24 35 R -35 11 R
-23 0 R D 16338 14549 M -12 -11 R 12 -12 R 12 12 R -12 11 R D 16467 14725 M
23 11 R 35 35 R 0 -245 R D 16735 14771 M -35 -11 R -23 -35 R -12 -59 R
0 -35 R 12 -58 R 23 -35 R 35 -12 R 24 0 R 35 12 R 23 35 R 12 58 R 0 35 R
-12 59 R -23 35 R -35 11 R -24 0 R D 16969 14771 M -35 -11 R -23 -35 R
-12 -59 R 0 -35 R 12 -58 R 23 -35 R 35 -12 R 23 0 R 35 12 R 24 35 R 11 58 R
0 35 R -11 59 R -24 35 R -35 11 R -23 0 R D 17220 21296 M 242 0 R D
16116 21248 M 23 12 R 35 35 R 0 -245 R D 16338 21073 M -12 -12 R 12 -11 R
12 11 R -12 12 R D 16502 21295 M -35 -12 R -24 -35 R -12 -58 R 0 -35 R
12 -59 R 24 -35 R 35 -11 R 23 0 R 35 11 R 23 35 R 12 59 R 0 35 R -12 58 R
-23 35 R -35 12 R -23 0 R D 16735 21295 M -35 -12 R -23 -35 R -12 -58 R
0 -35 R 12 -59 R 23 -35 R 35 -11 R 24 0 R 35 11 R 23 35 R 12 59 R 0 35 R
-12 58 R -23 35 R -35 12 R -24 0 R D 16969 21295 M -35 -12 R -23 -35 R
-12 -58 R 0 -35 R 12 -59 R 23 -35 R 35 -11 R 23 0 R 35 11 R 24 35 R 11 59 R
0 35 R -11 58 R -24 35 R -35 12 R -23 0 R D 17220 3404 M 121 0 R D
17220 4571 M 121 0 R D 17220 5399 M 121 0 R D 17220 6042 M 121 0 R D
17220 6567 M 121 0 R D 17220 7011 M 121 0 R D 17220 7395 M 121 0 R D
17220 7734 M 121 0 R D 17220 10033 M 121 0 R D 17220 11200 M 121 0 R D
17220 12029 M 121 0 R D 17220 12671 M 121 0 R D 17220 13196 M 121 0 R D
17220 13640 M 121 0 R D 17220 14024 M 121 0 R D 17220 14363 M 121 0 R D
17220 16662 M 121 0 R D 17220 17830 M 121 0 R D 17220 18658 M 121 0 R D
17220 19300 M 121 0 R D 17220 19825 M 121 0 R D 17220 20269 M 121 0 R D
17220 20654 M 121 0 R D 17220 20993 M 121 0 R D 15561 10289 M 164 0 R D
15631 10289 M -35 12 R -23 23 R -12 23 R 0 35 R D 15561 10569 M 164 0 R D
15596 10569 M -23 -23 R -12 -23 R 0 -36 R 12 -23 R 23 -23 R 35 -12 R 23 0 R
36 12 R 23 23 R 12 23 R 0 36 R -12 23 R -23 23 R D 15479 10791 M 246 0 R D
15596 10791 M -23 -23 R -12 -23 R 0 -36 R 12 -23 R 23 -23 R 35 -12 R 23 0 R
36 12 R 23 23 R 12 23 R 0 36 R -12 23 R -23 23 R D 15479 10873 M 12 12 R
-12 11 R -11 -11 R 11 -12 R D 15561 10885 M 164 0 R D 15561 10978 M 117 0 R
35 12 R 12 23 R 0 35 R -12 24 R -35 35 R D 15561 11107 M 164 0 R D
15596 11317 M -23 -12 R -12 -35 R 0 -35 R 12 -35 R 23 -11 R 23 11 R 12 24 R
12 58 R 11 23 R 24 12 R 12 0 R 23 -12 R 12 -35 R 0 -35 R -12 -35 R -23 -11 R
D 15432 11586 M 386 0 R D 15432 11597 M 386 0 R D 15432 11586 M 0 82 R D
15818 11586 M 0 82 R D 15561 11749 M 117 0 R 35 12 R 12 23 R 0 35 R -12 24 R
-35 35 R D 15561 11878 M 164 0 R D 15561 11971 M 164 0 R D 15608 11971 M
-35 35 R -12 24 R 0 35 R 12 23 R 35 12 R 117 0 R D 15608 12100 M -35 35 R
-12 23 R 0 35 R 12 24 R 35 11 R 117 0 R D 15432 12380 M 386 0 R D
15432 12392 M 386 0 R D 15432 12310 M 0 82 R D 15818 12310 M 0 82 R D
29334 1408 M 0 19888 R D 29334 1408 M -242 0 R D 29334 8037 M -242 0 R D
29334 14667 M -242 0 R D 29334 21296 M -242 0 R D 29334 3404 M -121 0 R D
29334 4571 M -121 0 R D 29334 5399 M -121 0 R D 29334 6042 M -121 0 R D
29334 6567 M -121 0 R D 29334 7011 M -121 0 R D 29334 7395 M -121 0 R D
29334 7734 M -121 0 R D 29334 10033 M -121 0 R D 29334 11200 M -121 0 R D
29334 12029 M -121 0 R D 29334 12671 M -121 0 R D 29334 13196 M -121 0 R D
29334 13640 M -121 0 R D 29334 14024 M -121 0 R D 29334 14363 M -121 0 R D
29334 16662 M -121 0 R D 29334 17830 M -121 0 R D 29334 18658 M -121 0 R D
29334 19300 M -121 0 R D 29334 19825 M -121 0 R D 29334 20269 M -121 0 R D
29334 20654 M -121 0 R D 29334 20993 M -121 0 R D 17250 19727 M 122 0 R
121 0 R 121 0 R 121 0 R 121 0 R 121 0 R 121 0 R 122 0 R 121 0 R 121 0 R
121 0 R 121 0 R 121 0 R 121 0 R 122 0 R 121 0 R 121 0 R 121 0 R 121 0 R
121 0 R 121 0 R 122 0 R 121 0 R 121 0 R 121 0 R 121 0 R 121 -9 R 121 -63 R
121 -39 R 122 -45 R 121 -52 R 121 -57 R 121 -60 R 121 -64 R 121 -66 R
121 -69 R 122 -70 R 121 -71 R 121 -73 R 121 -74 R 121 -75 R 121 -76 R
121 -78 R 122 -80 R 121 -82 R 121 -84 R 121 -88 R 121 -91 R 121 -96 R
121 -101 R 122 -107 R 121 -117 R 121 -126 R 121 -141 R 121 -161 R 121 -191 R
121 -240 R 122 -4360 R 121 -506 R 121 -367 R 121 -299 R 121 -269 R
121 -256 R 121 -252 R 122 -252 R 121 -251 R 121 -252 R 121 -254 R 121 -251 R
121 -250 R 121 -250 R 122 -253 R 121 -260 R 121 -263 R 121 -266 R 121 -275 R
121 -282 R 121 -291 R 121 -299 R 122 -310 R 121 -322 R 121 -333 R 121 -346 R
121 -359 R 121 -374 R 121 -388 R 122 -403 R 121 -419 R 121 -433 R 121 -449 R
121 -424 R 121 0 R 121 0 R 122 0 R 121 0 R 121 0 R 121 0 R 121 0 R 121 0 R D
%%PageTrailer
end
%%PageResources: font Helvetica
%%Trailer
%%Pages: 1
%%DocumentNeededResources: font Helvetica
%%EOF
