%!PS-Adobe-3.0 EPSF-3.0
%%BoundingBox: 0 0 850 623
%%Title: Graphics produced by IDL
%%For: giada@acidrain.astro.washington.edu, /astro/users/giada
%%Creator: IDL Version 7.0 (linux x86_64 m64)
%%CreationDate: Wed Feb 26 12:54:35 2014
%%DocumentData: Clean7bit
%%Requirements: color
%%LanguageLevel: 1
%%PageOrder: Ascend
%%Pages: (atend)
%%DocumentNeededResources: (atend)
%%EndComments
%%BeginProlog
%+ prolog.ps -- Prolog for IDL generated PostScript files
%+ Copyright (c) 1988-2007 ITT Visual Information Solutions. All Rights Reserved.
%v 5
/$IDL_DICT 40 dict def $IDL_DICT begin /bdef { bind def } bind def /C
{currentpoint newpath moveto} bdef /CP {currentpoint} bdef /D {currentpoint
stroke moveto} bdef /F {closepath fill} bdef /K { setgray } bdef /M {moveto}
bdef /N {rmoveto} bdef /P {lineto} bdef /R {rlineto} bdef /S {gsave show
grestore} bdef /X {currentpoint pop} bdef /Z {gsave currentpoint lineto 20
setlinewidth 1 setlinecap stroke grestore} bdef /L0 {[] 0 setdash} bdef /L1
{[40 100] 0 setdash} bdef /L2 {[200 200] 0 setdash} bdef /L3 {[200 100 50
100] 0 setdash} bdef /L4 {[300 100 50 100 50 100 50 100] 0 setdash} bdef /L5
{[400 200] 0 setdash} bdef /STDFONT { findfont exch scalefont setfont } bdef
/ISOFONT { findfont dup length dict begin { 1 index /FID ne {def} {pop pop}
ifelse } forall /Encoding ISOLatin1Encoding def currentdict end /idltmpfont
exch definefont exch scalefont setfont } bdef /ISOBULLET { gsave /Helvetica
findfont exch scalefont setfont (\267) show currentpoint grestore moveto}
bdef /MITERLIMIT { 2.5 setmiterlimit } bdef end
%%EndProlog
%%Page: 0 1
%%PageRequirements: color
%%PageResources: (atend)
%%PageOrientation: Portrait
%%PageBoundingBox: 0 0 850 623
%%BeginPageSetup
$IDL_DICT begin 0.0283465 dup scale MITERLIMIT
%%IncludeResource: font Helvetica
423.333 /Helvetica STDFONT
%%EndPageSetup
10 setlinewidth L0 0.000 0.000 0.000 setrgbcolor 12739 21668 M -29 29 R
-29 15 R -44 0 R -29 -15 R -29 -29 R -15 -44 R 0 -29 R 15 -44 R 29 -29 R
29 -15 R 44 0 R 29 15 R 29 29 R D 13002 21712 M 0 -205 R D 13002 21668 M
-29 29 R -29 15 R -44 0 R -29 -15 R -30 -29 R -14 -44 R 0 -29 R 14 -44 R
30 -29 R 29 -15 R 44 0 R 29 15 R 29 29 R D 13119 21814 M 0 -307 R D
13396 21668 M -29 29 R -29 15 R -44 0 R -29 -15 R -29 -29 R -15 -44 R
0 -29 R 15 -44 R 29 -29 R 29 -15 R 44 0 R 29 15 R 29 29 R D 13499 21712 M
0 -146 R 14 -44 R 30 -15 R 43 0 R 30 15 R 43 44 R D 13659 21712 M 0 -205 R D
13776 21814 M 0 -307 R D 14054 21712 M 0 -205 R D 14054 21668 M -29 29 R
-30 15 R -44 0 R -29 -15 R -29 -29 R -15 -44 R 0 -29 R 15 -44 R 29 -29 R
29 -15 R 44 0 R 30 15 R 29 29 R D 14185 21814 M 0 -248 R 15 -44 R 29 -15 R
29 0 R D 14141 21712 M 103 0 R D 14331 21624 M 175 0 R 0 29 R -14 30 R
-15 14 R -29 15 R -44 0 R -29 -15 R -29 -29 R -15 -44 R 0 -29 R 15 -44 R
29 -29 R 29 -15 R 44 0 R 29 15 R 29 29 R D 14769 21814 M 0 -307 R D
14769 21668 M -29 29 R -29 15 R -44 0 R -29 -15 R -29 -29 R -15 -44 R
0 -29 R 15 -44 R 29 -29 R 29 -15 R 44 0 R 29 15 R 29 29 R D 15120 21712 M
0 -205 R D 15120 21653 M 44 44 R 29 15 R 44 0 R 29 -15 R 15 -44 R 0 -146 R D
15397 21712 M 0 -146 R 15 -44 R 29 -15 R 44 0 R 29 15 R 44 44 R D
15558 21712 M 0 -205 R D 15675 21712 M 0 -205 R D 15675 21653 M 44 44 R
29 15 R 44 0 R 29 -15 R 15 -44 R 0 -146 R D 15836 21653 M 43 44 R 30 15 R
43 0 R 30 -15 R 14 -44 R 0 -146 R D 16113 21814 M 0 -307 R D 16113 21668 M
29 29 R 29 15 R 44 0 R 30 -15 R 29 -29 R 14 -44 R 0 -29 R -14 -44 R
-29 -29 R -30 -15 R -44 0 R -29 15 R -29 29 R D 16376 21624 M 175 0 R 0 29 R
-14 30 R -15 14 R -29 15 R -44 0 R -29 -15 R -29 -29 R -15 -44 R 0 -29 R
15 -44 R 29 -29 R 29 -15 R 44 0 R 29 15 R 29 29 R D 16653 21712 M 0 -205 R D
16653 21624 M 15 44 R 29 29 R 29 15 R 44 0 R D 17238 21814 M 0 -307 R D
17238 21668 M -30 29 R -29 15 R -44 0 R -29 -15 R -29 -29 R -15 -44 R
0 -29 R 15 -44 R 29 -29 R 29 -15 R 44 0 R 29 15 R 30 29 R D 17340 21624 M
175 0 R 0 29 R -14 30 R -15 14 R -29 15 R -44 0 R -29 -15 R -29 -29 R
-15 -44 R 0 -29 R 15 -44 R 29 -29 R 29 -15 R 44 0 R 29 15 R 29 29 R D
17617 21712 M 0 -205 R D 17617 21653 M 44 44 R 29 15 R 44 0 R 29 -15 R
15 -44 R 0 -146 R D 18041 21668 M -15 29 R -43 15 R -44 0 R -44 -15 R
-15 -29 R 15 -29 R 29 -15 R 73 -14 R 29 -15 R 15 -29 R 0 -15 R -15 -29 R
-43 -15 R -44 0 R -44 15 R -15 29 R D 18129 21814 M 14 -15 R 15 15 R
-15 15 R -14 -15 R D 18143 21712 M 0 -205 R D 18275 21814 M 0 -248 R
14 -44 R 29 -15 R 30 0 R D 18231 21712 M 102 0 R D 18421 21814 M 14 -15 R
15 15 R -15 15 R -14 -15 R D 18435 21712 M 0 -205 R D 18538 21624 M 175 0 R
0 29 R -15 30 R -14 14 R -30 15 R -43 0 R -30 -15 R -29 -29 R -14 -44 R
0 -29 R 14 -44 R 29 -29 R 30 -15 R 43 0 R 30 15 R 29 29 R D 18961 21668 M
-15 29 R -43 15 R -44 0 R -44 -15 R -15 -29 R 15 -29 R 29 -15 R 73 -14 R
29 -15 R 15 -29 R 0 -15 R -15 -29 R -43 -15 R -44 0 R -44 15 R -15 29 R D
2220 1408 M 27114 0 R D 2220 1408 M 0 398 R D 2197 1125 M -35 -11 R
-24 -35 R -11 -59 R 0 -35 R 11 -58 R 24 -35 R 35 -12 R 23 0 R 35 12 R
24 35 R 11 58 R 0 35 R -11 59 R -24 35 R -35 11 R -23 0 R D 7643 1408 M
0 398 R D 7444 1067 M 0 12 R 12 23 R 12 12 R 23 11 R 47 0 R 23 -11 R
12 -12 R 12 -23 R 0 -24 R -12 -23 R -24 -35 R -116 -117 R 163 0 R D
7736 1125 M -35 -11 R -23 -35 R -12 -59 R 0 -35 R 12 -58 R 23 -35 R 35 -12 R
24 0 R 35 12 R 23 35 R 12 58 R 0 35 R -12 59 R -23 35 R -35 11 R -24 0 R D
13066 1408 M 0 398 R D 12972 1125 M -117 -163 R 176 0 R D 12972 1125 M
0 -245 R D 13159 1125 M -35 -11 R -23 -35 R -12 -59 R 0 -35 R 12 -58 R
23 -35 R 35 -12 R 24 0 R 35 12 R 23 35 R 12 58 R 0 35 R -12 59 R -23 35 R
-35 11 R -24 0 R D 18489 1408 M 0 398 R D 18430 1090 M -12 24 R -35 11 R
-23 0 R -35 -11 R -23 -35 R -12 -59 R 0 -58 R 12 -47 R 23 -23 R 35 -12 R
12 0 R 35 12 R 23 23 R 12 35 R 0 12 R -12 35 R -23 23 R -35 12 R -12 0 R
-35 -12 R -23 -23 R -12 -35 R D 18582 1125 M -35 -11 R -23 -35 R -12 -59 R
0 -35 R 12 -58 R 23 -35 R 35 -12 R 23 0 R 35 12 R 24 35 R 11 58 R 0 35 R
-11 59 R -24 35 R -35 11 R -23 0 R D 23911 1408 M 0 398 R D 23759 1125 M
-35 -11 R -11 -24 R 0 -23 R 11 -23 R 24 -12 R 47 -12 R 35 -11 R 23 -24 R
12 -23 R 0 -35 R -12 -24 R -12 -11 R -35 -12 R -47 0 R -35 12 R -11 11 R
-12 24 R 0 35 R 12 23 R 23 24 R 35 11 R 47 12 R 23 12 R 12 23 R 0 23 R
-12 24 R -35 11 R -47 0 R D 24005 1125 M -35 -11 R -24 -35 R -11 -59 R
0 -35 R 11 -58 R 24 -35 R 35 -12 R 23 0 R 35 12 R 24 35 R 11 58 R 0 35 R
-11 59 R -24 35 R -35 11 R -23 0 R D 29334 1408 M 0 398 R D 29042 1079 M
23 11 R 35 35 R 0 -245 R D 29311 1125 M -35 -11 R -24 -35 R -11 -59 R
0 -35 R 11 -58 R 24 -35 R 35 -12 R 23 0 R 35 12 R 24 35 R 11 58 R 0 35 R
-11 59 R -24 35 R -35 11 R -23 0 R D 29544 1125 M -35 -11 R -23 -35 R
-12 -59 R 0 -35 R 12 -58 R 23 -35 R 35 -12 R 24 0 R 35 12 R 23 35 R 12 58 R
0 35 R -12 59 R -23 35 R -35 11 R -24 0 R D 3576 1408 M 0 199 R D
4932 1408 M 0 199 R D 6287 1408 M 0 199 R D 8999 1408 M 0 199 R D
10354 1408 M 0 199 R D 11710 1408 M 0 199 R D 14421 1408 M 0 199 R D
15777 1408 M 0 199 R D 17133 1408 M 0 199 R D 19844 1408 M 0 199 R D
21200 1408 M 0 199 R D 22556 1408 M 0 199 R D 25267 1408 M 0 199 R D
26623 1408 M 0 199 R D 27978 1408 M 0 199 R D 14726 668 M 0 -245 R D
14726 539 M 35 35 R 23 12 R 35 0 R 23 -12 R 12 -35 R 0 -116 R D 14936 516 M
140 0 R 0 23 R -12 24 R -11 11 R -24 12 R -35 0 R -23 -12 R -23 -23 R
-12 -35 R 0 -23 R 12 -35 R 23 -24 R 23 -11 R 35 0 R 24 11 R 23 24 R D
15146 668 M 12 -12 R 12 12 R -12 12 R -12 -12 R D 15158 586 M 0 -163 R D
15380 586 M 0 -199 R -12 -35 R -11 -11 R -24 -12 R -35 0 R -23 12 R D
15380 551 M -23 23 R -24 12 R -35 0 R -23 -12 R -24 -23 R -11 -35 R 0 -23 R
11 -35 R 24 -24 R 23 -11 R 35 0 R 24 11 R 23 24 R D 15473 668 M 0 -245 R D
15473 539 M 35 35 R 24 12 R 35 0 R 23 -12 R 12 -35 R 0 -116 R D 15707 668 M
0 -199 R 12 -35 R 23 -11 R 23 0 R D 15672 586 M 82 0 R D 16023 715 M
0 -386 R D 16034 715 M 0 -386 R D 16023 715 M 81 0 R D 16023 329 M 81 0 R D
16186 668 M 0 -245 R D 16303 586 M -117 -117 R D 16233 516 M 82 -93 R D
16385 586 M 0 -163 R D 16385 539 M 35 35 R 23 12 R 35 0 R 24 -12 R 11 -35 R
0 -116 R D 16513 539 M 35 35 R 24 12 R 35 0 R 23 -12 R 12 -35 R 0 -116 R D
16794 715 M 0 -386 R D 16805 715 M 0 -386 R D 16724 715 M 81 0 R D
16724 329 M 81 0 R D 2220 21296 M 27114 0 R D 2220 21296 M 0 -398 R D
7643 21296 M 0 -398 R D 13066 21296 M 0 -398 R D 18489 21296 M 0 -398 R D
23911 21296 M 0 -398 R D 29334 21296 M 0 -398 R D 3576 21296 M 0 -199 R D
4932 21296 M 0 -199 R D 6287 21296 M 0 -199 R D 8999 21296 M 0 -199 R D
10354 21296 M 0 -199 R D 11710 21296 M 0 -199 R D 14421 21296 M 0 -199 R D
15777 21296 M 0 -199 R D 17133 21296 M 0 -199 R D 19844 21296 M 0 -199 R D
21200 21296 M 0 -199 R D 22556 21296 M 0 -199 R D 25267 21296 M 0 -199 R D
26623 21296 M 0 -199 R D 27978 21296 M 0 -199 R D 2220 1408 M 0 19888 R D
2220 1408 M 542 0 R D 1368 1607 M 23 11 R 35 35 R 0 -245 R D 1636 1653 M
-35 -11 R -23 -35 R -12 -59 R 0 -35 R 12 -58 R 23 -35 R 35 -12 R 24 0 R
35 12 R 23 35 R 12 58 R 0 35 R -12 59 R -23 35 R -35 11 R -24 0 R D
1798 1651 M 130 0 R D 2066 1738 M -73 0 R -7 -65 R 7 7 R 22 7 R 22 0 R
22 -7 R 14 -15 R 7 -21 R 0 -15 R -7 -22 R -14 -14 R -22 -7 R -22 0 R -22 7 R
-7 7 R -7 15 R D 2220 6380 M 542 0 R D 1556 6438 M 23 12 R 35 35 R 0 -246 R
D 1824 6485 M -35 -12 R -23 -35 R -12 -58 R 0 -36 R 12 -58 R 23 -35 R
35 -12 R 24 0 R 35 12 R 23 35 R 12 58 R 0 36 R -12 58 R -23 35 R -35 12 R
-24 0 R D 2022 6569 M -21 -7 R -15 -22 R -7 -36 R 0 -22 R 7 -36 R 15 -22 R
21 -7 R 15 0 R 22 7 R 14 22 R 7 36 R 0 22 R -7 36 R -14 22 R -22 7 R -15 0 R
D 2220 11352 M 542 0 R D 1556 11410 M 23 12 R 35 35 R 0 -246 R D
1824 11457 M -35 -12 R -23 -35 R -12 -58 R 0 -36 R 12 -58 R 23 -35 R
35 -12 R 24 0 R 35 12 R 23 35 R 12 58 R 0 36 R -12 58 R -23 35 R -35 12 R
-24 0 R D 2066 11541 M -73 0 R -7 -65 R 7 7 R 22 7 R 22 0 R 22 -7 R 14 -15 R
7 -21 R 0 -15 R -7 -21 R -14 -15 R -22 -7 R -22 0 R -22 7 R -7 7 R -7 15 R D
2220 16324 M 542 0 R D 1411 16382 M 23 12 R 35 35 R 0 -246 R D 1680 16429 M
-35 -12 R -24 -35 R -11 -58 R 0 -36 R 11 -58 R 24 -35 R 35 -12 R 23 0 R
35 12 R 23 35 R 12 58 R 0 36 R -12 58 R -23 35 R -35 12 R -23 0 R D
1856 16484 M 14 7 R 22 22 R 0 -152 R D 2022 16513 M -21 -7 R -15 -22 R
-7 -36 R 0 -22 R 7 -36 R 15 -22 R 21 -7 R 15 0 R 22 7 R 14 22 R 7 36 R
0 22 R -7 36 R -14 22 R -22 7 R -15 0 R D 2220 21296 M 542 0 R D
1411 21248 M 23 12 R 35 35 R 0 -245 R D 1680 21295 M -35 -12 R -24 -35 R
-11 -58 R 0 -35 R 11 -59 R 24 -35 R 35 -11 R 23 0 R 35 11 R 23 35 R 12 59 R
0 35 R -12 58 R -23 35 R -35 12 R -23 0 R D 1856 21350 M 14 7 R 22 22 R
0 -152 R D 2066 21379 M -73 0 R -7 -65 R 7 7 R 22 8 R 22 0 R 22 -8 R
14 -14 R 7 -22 R 0 -14 R -7 -22 R -14 -14 R -22 -8 R -22 0 R -22 8 R -7 7 R
-7 14 R D 2220 2403 M 271 0 R D 2220 3397 M 271 0 R D 2220 4391 M 271 0 R D
2220 5386 M 271 0 R D 2220 7375 M 271 0 R D 2220 8369 M 271 0 R D
2220 9363 M 271 0 R D 2220 10358 M 271 0 R D 2220 12347 M 271 0 R D
2220 13341 M 271 0 R D 2220 14335 M 271 0 R D 2220 15330 M 271 0 R D
2220 17319 M 271 0 R D 2220 18313 M 271 0 R D 2220 19307 M 271 0 R D
2220 20302 M 271 0 R D 813 9903 M 257 0 R D 848 9903 M -24 24 R -11 23 R
0 35 R 11 23 R 24 24 R 35 11 R 23 0 R 35 -11 R 23 -24 R 12 -23 R 0 -35 R
-12 -23 R -23 -24 R D 813 10254 M 163 0 R D 848 10254 M -24 -24 R -11 -23 R
0 -35 R 11 -23 R 24 -24 R 35 -11 R 23 0 R 35 11 R 23 24 R 12 23 R 0 35 R
-12 23 R -23 24 R D 813 10347 M 163 0 R D 883 10347 M -35 12 R -24 23 R
-11 24 R 0 35 R D 731 10511 M 198 0 R 35 12 R 12 23 R 0 23 R D 813 10476 M
0 82 R D 731 10628 M 11 11 R -11 12 R -12 -12 R 12 -11 R D 813 10639 M
163 0 R D 848 10861 M -24 -23 R -11 -23 R 0 -35 R 11 -24 R 24 -23 R 35 -12 R
23 0 R 35 12 R 23 23 R 12 24 R 0 35 R -12 23 R -23 23 R D 731 10943 M
245 0 R D 883 11025 M 0 140 R -24 0 R -23 -12 R -12 -11 R -11 -24 R 0 -35 R
11 -23 R 24 -23 R 35 -12 R 23 0 R 35 12 R 23 23 R 12 23 R 0 35 R -12 24 R
-23 23 R D 848 11364 M -24 -12 R -11 -35 R 0 -35 R 11 -35 R 24 -12 R 23 12 R
12 23 R 11 59 R 12 23 R 23 12 R 12 0 R 23 -12 R 12 -35 R 0 -35 R -12 -35 R
-23 -12 R D 684 11633 M 386 -211 R D 848 11831 M -24 -23 R -11 -24 R 0 -35 R
11 -23 R 24 -23 R 35 -12 R 23 0 R 35 12 R 23 23 R 12 23 R 0 35 R -12 24 R
-23 23 R D 813 11913 M 163 0 R D 859 11913 M -35 35 R -11 23 R 0 35 R
11 24 R 35 11 R 117 0 R D 859 12041 M -35 36 R -11 23 R 0 35 R 11 23 R
35 12 R 117 0 R D 801 12310 M 140 0 R D 836 12252 M 70 117 R D 836 12369 M
70 -117 R D 801 12497 M 140 0 R D 836 12439 M 70 117 R D 836 12556 M
70 -117 R D 731 12649 M 0 129 R 93 -71 R 0 36 R 12 23 R 12 12 R 35 11 R
23 0 R 35 -11 R 23 -24 R 12 -35 R 0 -35 R -12 -35 R -11 -12 R -24 -11 R D
29334 1408 M 0 19888 R D 29334 1408 M -542 0 R D 29334 6380 M -542 0 R D
29334 11352 M -542 0 R D 29334 16324 M -542 0 R D 29334 21296 M -542 0 R D
29334 2403 M -271 0 R D 29334 3397 M -271 0 R D 29334 4391 M -271 0 R D
29334 5386 M -271 0 R D 29334 7375 M -271 0 R D 29334 8369 M -271 0 R D
29334 9363 M -271 0 R D 29334 10358 M -271 0 R D 29334 12347 M -271 0 R D
29334 13341 M -271 0 R D 29334 14335 M -271 0 R D 29334 15330 M -271 0 R D
29334 17319 M -271 0 R D 29334 18313 M -271 0 R D 29334 19307 M -271 0 R D
29334 20302 M -271 0 R D 22623 8559 M 272 372 R 271 164 R 271 94 R 271 57 R
271 33 R 271 17 R 271 4 R 272 -6 R 271 -14 R 271 -20 R 271 -24 R 271 -24 R
271 -20 R 271 -8 R 272 19 R 271 56 R 271 -222 R 271 -264 R 271 -277 R
271 -285 R 271 -295 R 272 -310 R 271 -343 R 271 -432 R D
0.310 0.000 0.373 setrgbcolor 18014 7953 M 271 -41 R 271 -14 R 271 0 R
272 9 R 271 12 R 271 14 R 271 17 R 271 20 R 271 24 R 271 31 R 272 41 R
271 54 R 271 75 R 271 110 R 271 192 R 271 498 R 271 1141 R 272 -66 R
271 -69 R 271 -73 R 271 -79 R 271 -84 R 271 -90 R 271 -96 R 272 -103 R
271 -110 R 271 -117 R 271 -126 R 271 -133 R 271 -141 R 271 -150 R 272 -157 R
271 -168 R 271 -223 R 271 -264 R 271 -277 R 271 -284 R 271 -295 R 272 -311 R
271 -343 R 271 -432 R D 0.141 0.000 0.961 setrgbcolor 18014 8301 M
271 -187 R 271 -113 R 271 -77 R 272 -62 R 271 -56 R 271 -53 R 271 -53 R
271 -53 R 271 -53 R 271 -54 R 272 -53 R 271 -53 R 271 -53 R 271 -55 R
271 -61 R 271 -79 R D 0.000 0.447 1.000 setrgbcolor 14218 5578 M 271 378 R
271 184 R 272 121 R 271 90 R 271 74 R 271 64 R 271 60 R 271 58 R 271 62 R
271 68 R 272 82 R 271 108 R 271 168 R D 0.000 0.847 1.000 setrgbcolor
2288 3430 M 271 41 R 271 117 R 271 130 R 271 121 R 272 108 R 271 97 R
271 86 R 271 77 R 271 69 R 271 72 R 271 125 R 272 230 R 271 264 R 271 271 R
271 215 R 271 189 R 271 159 R 271 134 R 272 113 R 271 88 R 271 67 R 271 48 R
271 33 R 271 17 R 271 6 R 272 -5 R 271 27 R 271 194 R 271 74 R 271 67 R
271 60 R 271 52 R 272 45 R 271 39 R 271 34 R 271 31 R 271 28 R 271 28 R
271 28 R 272 29 R 271 33 R 271 37 R 271 45 R 271 -13 R 271 -48 R 271 -46 R
272 -47 R 271 -46 R 271 -47 R 271 -46 R 271 -47 R 271 -48 R 271 -49 R
271 -55 R 272 -62 R 271 -80 R 271 -141 R D 0.000 1.000 0.447 setrgbcolor
2288 4459 M 271 41 R 271 117 R 271 131 R 271 121 R 272 107 R 271 97 R
271 86 R 271 77 R 271 69 R 271 72 R 271 125 R 272 231 R 271 263 R 271 271 R
271 215 R 271 189 R 271 159 R 271 135 R 272 112 R 271 88 R 271 67 R 271 49 R
271 32 R 271 18 R 271 5 R 272 -4 R 271 -15 R 271 -29 R 271 -33 R 271 -39 R
271 -45 R 271 -51 R 272 -56 R 271 -60 R 271 -65 R 271 -71 R 271 -78 R
271 -85 R 271 -97 R 272 -117 R 271 -150 R 271 -228 R 271 -562 R D
0.000 0.000 0.000 setrgbcolor 2886 20557 M 1599 0 R D 4844 20697 M -35 -12 R
-23 -35 R -12 -58 R 0 -36 R 12 -58 R 23 -35 R 35 -12 R 24 0 R 35 12 R
23 35 R 12 58 R 0 36 R -12 58 R -23 35 R -35 12 R -24 0 R D 5031 20475 M
-11 -12 R 11 -12 R 12 12 R -12 12 R D 5195 20697 M -35 -12 R -23 -35 R
-12 -58 R 0 -36 R 12 -58 R 23 -35 R 35 -12 R 23 0 R 35 12 R 24 35 R 11 58 R
0 36 R -11 58 R -24 35 R -35 12 R -23 0 R D 5429 20697 M -35 -12 R -24 -35 R
-11 -58 R 0 -36 R 11 -58 R 24 -35 R 35 -12 R 23 0 R 35 12 R 23 35 R 12 58 R
0 36 R -12 58 R -23 35 R -35 12 R -23 0 R D 5627 20650 M 24 12 R 35 35 R
0 -246 R D 0.310 0.000 0.373 setrgbcolor 2886 20135 M 1599 0 R D
0.000 0.000 0.000 setrgbcolor 4844 20274 M -35 -11 R -23 -35 R -12 -59 R
0 -35 R 12 -58 R 23 -35 R 35 -12 R 24 0 R 35 12 R 23 35 R 12 58 R 0 35 R
-12 59 R -23 35 R -35 11 R -24 0 R D 5031 20052 M -11 -11 R 11 -12 R 12 12 R
-12 11 R D 5195 20274 M -35 -11 R -23 -35 R -12 -59 R 0 -35 R 12 -58 R
23 -35 R 35 -12 R 23 0 R 35 12 R 24 35 R 11 58 R 0 35 R -11 59 R -24 35 R
-35 11 R -23 0 R D 5394 20228 M 23 11 R 35 35 R 0 -245 R D
0.141 0.000 0.961 setrgbcolor 2886 19712 M 1599 0 R D
0.000 0.000 0.000 setrgbcolor 4844 19852 M -35 -12 R -23 -35 R -12 -58 R
0 -35 R 12 -59 R 23 -35 R 35 -11 R 24 0 R 35 11 R 23 35 R 12 59 R 0 35 R
-12 58 R -23 35 R -35 12 R -24 0 R D 5031 19630 M -11 -12 R 11 -11 R 12 11 R
-12 12 R D 5160 19805 M 23 12 R 35 35 R 0 -245 R D
0.000 0.447 1.000 setrgbcolor 2886 19290 M 1599 0 R D
0.000 0.000 0.000 setrgbcolor 4844 19429 M -35 -11 R -23 -35 R -12 -59 R
0 -35 R 12 -58 R 23 -35 R 35 -12 R 24 0 R 35 12 R 23 35 R 12 58 R 0 35 R
-12 59 R -23 35 R -35 11 R -24 0 R D 5031 19207 M -11 -11 R 11 -12 R 12 12 R
-12 11 R D 5137 19371 M 0 12 R 11 23 R 12 12 R 23 11 R 47 0 R 23 -11 R
12 -12 R 12 -23 R 0 -24 R -12 -23 R -23 -35 R -117 -117 R 163 0 R D
0.000 0.847 1.000 setrgbcolor 2886 18867 M 1599 0 R D
0.000 0.000 0.000 setrgbcolor 4844 19007 M -35 -12 R -23 -35 R -12 -58 R
0 -35 R 12 -59 R 23 -35 R 35 -11 R 24 0 R 35 11 R 23 35 R 12 59 R 0 35 R
-12 58 R -23 35 R -35 12 R -24 0 R D 5031 18785 M -11 -12 R 11 -11 R 12 11 R
-12 12 R D 5242 19007 M -117 -164 R 175 0 R D 5242 19007 M 0 -245 R D
0.000 1.000 0.447 setrgbcolor 2886 18445 M 1599 0 R D
0.000 0.000 0.000 setrgbcolor 4844 18585 M -35 -12 R -23 -35 R -12 -58 R
0 -36 R 12 -58 R 23 -35 R 35 -12 R 24 0 R 35 12 R 23 35 R 12 58 R 0 36 R
-12 58 R -23 35 R -35 12 R -24 0 R D 5031 18363 M -11 -12 R 11 -12 R 12 12 R
-12 12 R D 5277 18550 M -12 23 R -35 12 R -23 0 R -35 -12 R -24 -35 R
-11 -58 R 0 -59 R 11 -47 R 24 -23 R 35 -12 R 11 0 R 35 12 R 24 23 R 11 35 R
0 12 R -11 35 R -24 24 R -35 11 R -11 0 R -35 -11 R -24 -24 R -11 -35 R D
0.431 1.000 0.000 setrgbcolor 2886 18023 M 1599 0 R D
0.000 0.000 0.000 setrgbcolor 4844 18162 M -35 -11 R -23 -35 R -12 -59 R
0 -35 R 12 -58 R 23 -35 R 35 -12 R 24 0 R 35 12 R 23 35 R 12 58 R 0 35 R
-12 59 R -23 35 R -35 11 R -24 0 R D 5031 17940 M -11 -11 R 11 -12 R 12 12 R
-12 11 R D 5183 18162 M -35 -11 R -11 -24 R 0 -23 R 11 -24 R 24 -11 R
46 -12 R 35 -12 R 24 -23 R 11 -23 R 0 -35 R -11 -24 R -12 -11 R -35 -12 R
-47 0 R -35 12 R -11 11 R -12 24 R 0 35 R 12 23 R 23 23 R 35 12 R 47 12 R
23 11 R 12 24 R 0 23 R -12 24 R -35 11 R -47 0 R D
1.000 0.431 0.000 setrgbcolor 2886 17600 M 1599 0 R D
0.000 0.000 0.000 setrgbcolor 4809 17693 M 24 12 R 35 35 R 0 -245 R D
5031 17518 M -11 -12 R 11 -11 R 12 11 R -12 12 R D 5195 17740 M -35 -12 R
-23 -35 R -12 -58 R 0 -35 R 12 -59 R 23 -35 R 35 -11 R 23 0 R 35 11 R
24 35 R 11 59 R 0 35 R -11 58 R -24 35 R -35 12 R -23 0 R D
1.000 0.000 0.000 setrgbcolor 2886 17178 M 1599 0 R D
0.000 0.000 0.000 setrgbcolor 4809 17271 M 24 11 R 35 35 R 0 -245 R D
5078 17317 M -35 -11 R -23 -35 R -12 -59 R 0 -35 R 12 -58 R 23 -35 R
35 -12 R 23 0 R 36 12 R 23 35 R 12 58 R 0 35 R -12 59 R -23 35 R -36 11 R
-23 0 R D 5265 17095 M -12 -11 R 12 -12 R 12 12 R -12 11 R D 5429 17317 M
-35 -11 R -24 -35 R -11 -59 R 0 -35 R 11 -58 R 24 -35 R 35 -12 R 23 0 R
35 12 R 23 35 R 12 58 R 0 35 R -12 59 R -23 35 R -35 11 R -23 0 R D
2487 20874 M 3449 0 R 0 -4013 R -3449 0 R 0 4013 R D
%%PageTrailer
end
%%PageResources: font Helvetica
%%Trailer
%%Pages: 1
%%DocumentNeededResources: font Helvetica
%%EOF
