%!PS-Adobe-3.0 EPSF-3.0
%%BoundingBox: 0 0 566 340
%%Title: Graphics produced by IDL
%%For: giada@acidrain.astro.washington.edu, /astro/users/giada/fractal
%%Creator: IDL Version 7.0 (linux x86_64 m64)
%%CreationDate: Tue Feb 25 16:43:53 2014
%%DocumentData: Clean7bit
%%Requirements: color
%%LanguageLevel: 1
%%PageOrder: Ascend
%%Pages: (atend)
%%DocumentNeededResources: (atend)
%%EndComments
%%BeginProlog
%+ prolog.ps -- Prolog for IDL generated PostScript files
%+ Copyright (c) 1988-2007 ITT Visual Information Solutions. All Rights Reserved.
%v 5
/$IDL_DICT 40 dict def $IDL_DICT begin /bdef { bind def } bind def /C
{currentpoint newpath moveto} bdef /CP {currentpoint} bdef /D {currentpoint
stroke moveto} bdef /F {closepath fill} bdef /K { setgray } bdef /M {moveto}
bdef /N {rmoveto} bdef /P {lineto} bdef /R {rlineto} bdef /S {gsave show
grestore} bdef /X {currentpoint pop} bdef /Z {gsave currentpoint lineto 20
setlinewidth 1 setlinecap stroke grestore} bdef /L0 {[] 0 setdash} bdef /L1
{[40 100] 0 setdash} bdef /L2 {[200 200] 0 setdash} bdef /L3 {[200 100 50
100] 0 setdash} bdef /L4 {[300 100 50 100 50 100 50 100] 0 setdash} bdef /L5
{[400 200] 0 setdash} bdef /STDFONT { findfont exch scalefont setfont } bdef
/ISOFONT { findfont dup length dict begin { 1 index /FID ne {def} {pop pop}
ifelse } forall /Encoding ISOLatin1Encoding def currentdict end /idltmpfont
exch definefont exch scalefont setfont } bdef /ISOBULLET { gsave /Helvetica
findfont exch scalefont setfont (\267) show currentpoint grestore moveto}
bdef /MITERLIMIT { 2.5 setmiterlimit } bdef end
%%EndProlog
%%Page: 0 1
%%PageRequirements: color
%%PageResources: (atend)
%%PageOrientation: Portrait
%%PageBoundingBox: 0 0 566 340
%%BeginPageSetup
$IDL_DICT begin 0.0283465 dup scale MITERLIMIT
%%IncludeResource: font Helvetica
423.333 /Helvetica STDFONT
%%EndPageSetup
0.000 0.000 0.000 setrgbcolor gsave 5999 10099 translate 0 0 M
1.25 dup scale -2341.03 0 N
(photochem mass density) show grestore 19 setlinewidth L0 2664 2112 M
6670 0 R D 2664 2112 M 0 389 R D gsave 2664 1584 translate 0 0 M
-117.687 0 N
(0) show grestore 3998 2112 M 0 389 R D gsave 3998 1584 translate 0 0 M
-235.373 0 N
(20) show grestore 5332 2112 M 0 389 R D gsave 5332 1584 translate 0 0 M
-235.373 0 N
(40) show grestore 6666 2112 M 0 389 R D gsave 6666 1584 translate 0 0 M
-235.373 0 N
(60) show grestore 8000 2112 M 0 389 R D gsave 8000 1584 translate 0 0 M
-235.373 0 N
(80) show grestore 9334 2112 M 0 389 R D gsave 9334 1584 translate 0 0 M
-353.06 0 N
(100) show grestore gsave 5999 1126 translate 0 0 M -1035.26 0 N
(height [km]) show grestore 2664 9888 M 6670 0 R D 2664 9888 M 0 -389 R D
3998 9888 M 0 -389 R D 5332 9888 M 0 -389 R D 6666 9888 M 0 -389 R D
8000 9888 M 0 -389 R D 9334 9888 M 0 -389 R D 2664 2112 M 0 7776 R D
2664 2112 M 134 0 R D gsave 2553 2112 translate 0 0 M -850.011 0 N
(10) show X 192.937 M
%%IncludeResource: font Helvetica
262.467 /Helvetica STDFONT
(-22) show grestore
%%IncludeResource: font Helvetica
423.333 /Helvetica STDFONT 2664 3408 M 134 0 R D
gsave 2553 3267 translate 0 0 M -850.011 0 N
(10) show X 192.937 M
%%IncludeResource: font Helvetica
262.467 /Helvetica STDFONT
(-20) show grestore
%%IncludeResource: font Helvetica
423.333 /Helvetica STDFONT 2664 4704 M 134 0 R D
gsave 2553 4563 translate 0 0 M -850.011 0 N
(10) show X 192.937 M
%%IncludeResource: font Helvetica
262.467 /Helvetica STDFONT
(-18) show grestore
%%IncludeResource: font Helvetica
423.333 /Helvetica STDFONT 2664 6000 M 134 0 R D
gsave 2553 5859 translate 0 0 M -850.011 0 N
(10) show X 192.937 M
%%IncludeResource: font Helvetica
262.467 /Helvetica STDFONT
(-16) show grestore
%%IncludeResource: font Helvetica
423.333 /Helvetica STDFONT 2664 7296 M 134 0 R D
gsave 2553 7155 translate 0 0 M -850.011 0 N
(10) show X 192.937 M
%%IncludeResource: font Helvetica
262.467 /Helvetica STDFONT
(-14) show grestore
%%IncludeResource: font Helvetica
423.333 /Helvetica STDFONT 2664 8592 M 134 0 R D
gsave 2553 8451 translate 0 0 M -850.011 0 N
(10) show X 192.937 M
%%IncludeResource: font Helvetica
262.467 /Helvetica STDFONT
(-12) show grestore
%%IncludeResource: font Helvetica
423.333 /Helvetica STDFONT 2664 9888 M 134 0 R D
gsave 2553 9642 translate 0 0 M -850.011 0 N
(10) show X 192.937 M
%%IncludeResource: font Helvetica
262.467 /Helvetica STDFONT
(-10) show grestore
%%IncludeResource: font Helvetica
423.333 /Helvetica STDFONT 2664 2760 M 67 0 R D 2664 4056 M 67 0 R D
2664 5352 M 67 0 R D 2664 6648 M 67 0 R D 2664 7944 M 67 0 R D 2664 9240 M
67 0 R D gsave 1370 6000 translate 0 0 M 90 rotate -741.045 0 N
(g/cm**3) show grestore 9334 2112 M 0 7776 R D 9334 2112 M -133 0 R D
9334 3408 M -133 0 R D 9334 4704 M -133 0 R D 9334 6000 M -133 0 R D
9334 7296 M -133 0 R D 9334 8592 M -133 0 R D 9334 9888 M -133 0 R D
9334 2760 M -67 0 R D 9334 4056 M -67 0 R D 9334 5352 M -67 0 R D
9334 6648 M -67 0 R D 9334 7944 M -67 0 R D 9334 9240 M -67 0 R D
10 setlinewidth 2681 7897 M 66 25 R 67 73 R 67 83 R 67 76 R 66 67 R 67 59 R
67 52 R 66 46 R 67 41 R 67 41 R 66 74 R 67 137 R 67 156 R 67 155 R 66 112 R
67 87 R 67 64 R 66 46 R 67 31 R 67 19 R 66 8 R 67 0 R 67 -7 R 67 -12 R
66 -17 R 67 -20 R 67 -23 R 66 -25 R 67 -28 R 67 -28 R 66 -29 R 67 -30 R
67 -30 R 67 -30 R 66 -31 R 67 -31 R 67 -31 R 66 -32 R 67 -31 R 67 -31 R
66 -31 R 67 -30 R 67 -31 R 67 -30 R 66 -30 R 67 -29 R 67 -29 R 66 -29 R
67 -28 R 67 -28 R 66 -27 R 67 -27 R 67 -27 R 67 -27 R 66 -27 R 67 -29 R
67 -108 R 66 -91 R 67 -60 R 67 -44 R 66 -38 R 67 -35 R 67 -34 R 67 -35 R
66 -35 R 67 -37 R 67 -38 R 66 -40 R 67 -40 R 67 -41 R 66 -44 R 67 -46 R
67 -50 R 67 -55 R 66 -60 R 67 -65 R 67 -72 R 66 -78 R 67 -85 R 67 -92 R
66 -101 R 67 -109 R 67 -119 R 67 -127 R 66 -135 R 67 -141 R 67 -162 R
66 -203 R 67 -237 R 67 -256 R 66 -262 R 67 -259 R 67 -251 R 67 -243 R
66 -235 R 67 -230 R 67 -227 R 66 -237 R 67 -287 R D
gsave 15555 10099 translate 0 0 M 1.25 dup scale -1140.88 0 N
(particle radii) show grestore 19 setlinewidth 12220 2112 M 6670 0 R D
12220 2112 M 0 389 R D gsave 12220 1584 translate 0 0 M -117.687 0 N
(0) show grestore 13554 2112 M 0 389 R D gsave 13554 1584 translate 0 0 M
-235.373 0 N
(20) show grestore 14888 2112 M 0 389 R D gsave 14888 1584 translate 0 0 M
-235.373 0 N
(40) show grestore 16222 2112 M 0 389 R D gsave 16222 1584 translate 0 0 M
-235.373 0 N
(60) show grestore 17556 2112 M 0 389 R D gsave 17556 1584 translate 0 0 M
-235.373 0 N
(80) show grestore 18890 2112 M 0 389 R D gsave 18890 1584 translate 0 0 M
-353.06 0 N
(100) show grestore gsave 15555 1126 translate 0 0 M -1035.26 0 N
(height [km]) show grestore 12220 9888 M 6670 0 R D 12220 9888 M 0 -389 R D
13554 9888 M 0 -389 R D 14888 9888 M 0 -389 R D 16222 9888 M 0 -389 R D
17556 9888 M 0 -389 R D 18890 9888 M 0 -389 R D 12220 2112 M 0 7776 R D
12220 2112 M 134 0 R D gsave 12109 2112 translate 0 0 M -1059.18 0 N
(0.001) show grestore 12220 4704 M 134 0 R D
gsave 12109 4563 translate 0 0 M -1059.18 0 N
(0.010) show grestore 12220 7296 M 134 0 R D
gsave 12109 7155 translate 0 0 M -1059.18 0 N
(0.100) show grestore 12220 9888 M 134 0 R D
gsave 12109 9642 translate 0 0 M -1059.18 0 N
(1.000) show grestore 12220 2892 M 67 0 R D 12220 3349 M 67 0 R D
12220 3673 M 67 0 R D 12220 3924 M 67 0 R D 12220 4129 M 67 0 R D
12220 4303 M 67 0 R D 12220 4453 M 67 0 R D 12220 4585 M 67 0 R D
12220 5484 M 67 0 R D 12220 5941 M 67 0 R D 12220 6265 M 67 0 R D
12220 6516 M 67 0 R D 12220 6721 M 67 0 R D 12220 6895 M 67 0 R D
12220 7045 M 67 0 R D 12220 7177 M 67 0 R D 12220 8076 M 67 0 R D
12220 8533 M 67 0 R D 12220 8857 M 67 0 R D 12220 9108 M 67 0 R D
12220 9313 M 67 0 R D 12220 9487 M 67 0 R D 12220 9637 M 67 0 R D
12220 9769 M 67 0 R D gsave 10717 6000 translate 0 0 M 90 rotate -1046.9 0 N
(radius [um]) show grestore 18890 2112 M 0 7776 R D 18890 2112 M -133 0 R D
18890 4704 M -133 0 R D 18890 7296 M -133 0 R D 18890 9888 M -133 0 R D
18890 2892 M -67 0 R D 18890 3349 M -67 0 R D 18890 3673 M -67 0 R D
18890 3924 M -67 0 R D 18890 4129 M -67 0 R D 18890 4303 M -67 0 R D
18890 4453 M -67 0 R D 18890 4585 M -67 0 R D 18890 5484 M -67 0 R D
18890 5941 M -67 0 R D 18890 6265 M -67 0 R D 18890 6516 M -67 0 R D
18890 6721 M -67 0 R D 18890 6895 M -67 0 R D 18890 7045 M -67 0 R D
18890 7177 M -67 0 R D 18890 8076 M -67 0 R D 18890 8533 M -67 0 R D
18890 8857 M -67 0 R D 18890 9108 M -67 0 R D 18890 9313 M -67 0 R D
18890 9487 M -67 0 R D 18890 9637 M -67 0 R D 18890 9769 M -67 0 R D
10 setlinewidth 12237 9241 M 66 0 R 67 0 R 67 0 R 67 0 R 66 0 R 67 0 R
67 0 R 66 0 R 67 0 R 67 0 R 66 0 R 67 0 R 67 0 R 67 0 R 66 0 R 67 0 R 67 0 R
66 0 R 67 0 R 67 0 R 66 0 R 67 -1 R 67 -4 R 67 -8 R 66 -11 R 67 -8 R
67 -10 R 66 -18 R 67 -19 R 67 -22 R 66 -23 R 67 -24 R 67 -24 R 67 -25 R
66 -25 R 67 -26 R 67 -26 R 66 -27 R 67 -27 R 67 -28 R 66 -29 R 67 -29 R
67 -30 R 67 -31 R 66 -32 R 67 -34 R 67 -35 R 66 -37 R 67 -39 R 67 -43 R
66 -46 R 67 -52 R 67 -57 R 67 -68 R 66 -83 R 67 -110 R 67 -1741 R 66 -164 R
67 -128 R 67 -109 R 66 -102 R 67 -99 R 67 -98 R 67 -99 R 66 -99 R 67 -102 R
67 -102 R 66 -104 R 67 -105 R 67 -106 R 66 -109 R 67 -112 R 67 -116 R
67 -122 R 66 -127 R 67 -133 R 67 -140 R 66 -148 R 67 -156 R 67 -165 R
66 -173 R 67 -184 R 67 -194 R 67 -204 R 66 -213 R 67 -220 R 67 -49 R 66 0 R
67 0 R 67 0 R 66 0 R 67 0 R 67 0 R 67 0 R 66 0 R 67 0 R 67 0 R 66 0 R 67 0 R
D
%%PageTrailer
end
%%PageResources: font Helvetica
%%Trailer
%%Pages: 1
%%DocumentNeededResources: font Helvetica
%%EOF
