%!PS-Adobe-3.0 EPSF-3.0
%%BoundingBox: 0 0 850 623
%%Title: Graphics produced by IDL
%%For: giada@acidrain.astro.washington.edu, /astro/users/giada
%%Creator: IDL Version 7.0 (linux x86_64 m64)
%%CreationDate: Wed Feb 26 12:54:35 2014
%%DocumentData: Clean7bit
%%Requirements: color
%%LanguageLevel: 1
%%PageOrder: Ascend
%%Pages: (atend)
%%DocumentNeededResources: (atend)
%%EndComments
%%BeginProlog
%+ prolog.ps -- Prolog for IDL generated PostScript files
%+ Copyright (c) 1988-2007 ITT Visual Information Solutions. All Rights Reserved.
%v 5
/$IDL_DICT 40 dict def $IDL_DICT begin /bdef { bind def } bind def /C
{currentpoint newpath moveto} bdef /CP {currentpoint} bdef /D {currentpoint
stroke moveto} bdef /F {closepath fill} bdef /K { setgray } bdef /M {moveto}
bdef /N {rmoveto} bdef /P {lineto} bdef /R {rlineto} bdef /S {gsave show
grestore} bdef /X {currentpoint pop} bdef /Z {gsave currentpoint lineto 20
setlinewidth 1 setlinecap stroke grestore} bdef /L0 {[] 0 setdash} bdef /L1
{[40 100] 0 setdash} bdef /L2 {[200 200] 0 setdash} bdef /L3 {[200 100 50
100] 0 setdash} bdef /L4 {[300 100 50 100 50 100 50 100] 0 setdash} bdef /L5
{[400 200] 0 setdash} bdef /STDFONT { findfont exch scalefont setfont } bdef
/ISOFONT { findfont dup length dict begin { 1 index /FID ne {def} {pop pop}
ifelse } forall /Encoding ISOLatin1Encoding def currentdict end /idltmpfont
exch definefont exch scalefont setfont } bdef /ISOBULLET { gsave /Helvetica
findfont exch scalefont setfont (\267) show currentpoint grestore moveto}
bdef /MITERLIMIT { 2.5 setmiterlimit } bdef end
%%EndProlog
%%Page: 0 1
%%PageRequirements: color
%%PageResources: (atend)
%%PageOrientation: Portrait
%%PageBoundingBox: 0 0 850 623
%%BeginPageSetup
$IDL_DICT begin 0.0283465 dup scale MITERLIMIT
%%IncludeResource: font Helvetica
423.333 /Helvetica STDFONT
%%EndPageSetup
10 setlinewidth L0 0.000 0.000 0.000 setrgbcolor 13082 21668 M -29 29 R
-29 15 R -44 0 R -29 -15 R -29 -29 R -15 -44 R 0 -29 R 15 -44 R 29 -29 R
29 -15 R 44 0 R 29 15 R 29 29 R D 13345 21712 M 0 -205 R D 13345 21668 M
-29 29 R -29 15 R -44 0 R -29 -15 R -29 -29 R -15 -44 R 0 -29 R 15 -44 R
29 -29 R 29 -15 R 44 0 R 29 15 R 29 29 R D 13462 21814 M 0 -307 R D
13740 21668 M -29 29 R -30 15 R -44 0 R -29 -15 R -29 -29 R -15 -44 R
0 -29 R 15 -44 R 29 -29 R 29 -15 R 44 0 R 30 15 R 29 29 R D 13842 21712 M
0 -146 R 15 -44 R 29 -15 R 44 0 R 29 15 R 44 44 R D 14003 21712 M 0 -205 R D
14119 21814 M 0 -307 R D 14397 21712 M 0 -205 R D 14397 21668 M -29 29 R
-29 15 R -44 0 R -29 -15 R -30 -29 R -14 -44 R 0 -29 R 14 -44 R 30 -29 R
29 -15 R 44 0 R 29 15 R 29 29 R D 14528 21814 M 0 -248 R 15 -44 R 29 -15 R
29 0 R D 14485 21712 M 102 0 R D 14674 21624 M 176 0 R 0 29 R -15 30 R
-14 14 R -30 15 R -44 0 R -29 -15 R -29 -29 R -15 -44 R 0 -29 R 15 -44 R
29 -29 R 29 -15 R 44 0 R 30 15 R 29 29 R D 15113 21814 M 0 -307 R D
15113 21668 M -30 29 R -29 15 R -44 0 R -29 -15 R -29 -29 R -15 -44 R
0 -29 R 15 -44 R 29 -29 R 29 -15 R 44 0 R 29 15 R 30 29 R D 15522 21712 M
-30 -15 R -29 -29 R -14 -44 R 0 -29 R 14 -44 R 29 -29 R 30 -15 R 43 0 R
30 15 R 29 29 R 14 44 R 0 29 R -14 44 R -29 29 R -30 15 R -43 0 R D
15741 21712 M 0 -322 R D 15741 21668 M 29 29 R 29 15 R 44 0 R 29 -15 R
29 -29 R 15 -44 R 0 -29 R -15 -44 R -29 -29 R -29 -15 R -44 0 R -29 15 R
-29 29 R D 16033 21814 M 0 -248 R 14 -44 R 30 -15 R 29 0 R D 15989 21712 M
102 0 R D 16179 21814 M 14 -15 R 15 15 R -15 15 R -14 -15 R D 16193 21712 M
0 -205 R D 16471 21668 M -29 29 R -30 15 R -43 0 R -30 -15 R -29 -29 R
-14 -44 R 0 -29 R 14 -44 R 29 -29 R 30 -15 R 43 0 R 30 15 R 29 29 R D
16734 21712 M 0 -205 R D 16734 21668 M -29 29 R -30 15 R -43 0 R -30 -15 R
-29 -29 R -14 -44 R 0 -29 R 14 -44 R 29 -29 R 30 -15 R 43 0 R 30 15 R
29 29 R D 16851 21814 M 0 -307 R D 17362 21814 M 0 -307 R D 17362 21668 M
-29 29 R -30 15 R -43 0 R -30 -15 R -29 -29 R -14 -44 R 0 -29 R 14 -44 R
29 -29 R 30 -15 R 43 0 R 30 15 R 29 29 R D 17464 21624 M 175 0 R 0 29 R
-14 30 R -15 14 R -29 15 R -44 0 R -29 -15 R -29 -29 R -15 -44 R 0 -29 R
15 -44 R 29 -29 R 29 -15 R 44 0 R 29 15 R 29 29 R D 17742 21712 M 0 -322 R D
17742 21668 M 29 29 R 29 15 R 44 0 R 29 -15 R 29 -29 R 15 -44 R 0 -29 R
-15 -44 R -29 -29 R -29 -15 R -44 0 R -29 15 R -29 29 R D 18034 21814 M
0 -248 R 14 -44 R 29 -15 R 30 0 R D 17990 21712 M 102 0 R D 18194 21814 M
0 -307 R D 18194 21653 M 44 44 R 29 15 R 44 0 R 29 -15 R 15 -44 R 0 -146 R D
18618 21668 M -15 29 R -44 15 R -43 0 R -44 -15 R -15 -29 R 15 -29 R
29 -15 R 73 -14 R 29 -15 R 15 -29 R 0 -15 R -15 -29 R -44 -15 R -43 0 R
-44 15 R -15 29 R D 2220 1408 M 27114 0 R D 2220 1408 M 0 398 R D
2197 1125 M -35 -11 R -24 -35 R -11 -59 R 0 -35 R 11 -58 R 24 -35 R 35 -12 R
23 0 R 35 12 R 24 35 R 11 58 R 0 35 R -11 59 R -24 35 R -35 11 R -23 0 R D
7643 1408 M 0 398 R D 7444 1067 M 0 12 R 12 23 R 12 12 R 23 11 R 47 0 R
23 -11 R 12 -12 R 12 -23 R 0 -24 R -12 -23 R -24 -35 R -116 -117 R 163 0 R D
7736 1125 M -35 -11 R -23 -35 R -12 -59 R 0 -35 R 12 -58 R 23 -35 R 35 -12 R
24 0 R 35 12 R 23 35 R 12 58 R 0 35 R -12 59 R -23 35 R -35 11 R -24 0 R D
13066 1408 M 0 398 R D 12972 1125 M -117 -163 R 176 0 R D 12972 1125 M
0 -245 R D 13159 1125 M -35 -11 R -23 -35 R -12 -59 R 0 -35 R 12 -58 R
23 -35 R 35 -12 R 24 0 R 35 12 R 23 35 R 12 58 R 0 35 R -12 59 R -23 35 R
-35 11 R -24 0 R D 18489 1408 M 0 398 R D 18430 1090 M -12 24 R -35 11 R
-23 0 R -35 -11 R -23 -35 R -12 -59 R 0 -58 R 12 -47 R 23 -23 R 35 -12 R
12 0 R 35 12 R 23 23 R 12 35 R 0 12 R -12 35 R -23 23 R -35 12 R -12 0 R
-35 -12 R -23 -23 R -12 -35 R D 18582 1125 M -35 -11 R -23 -35 R -12 -59 R
0 -35 R 12 -58 R 23 -35 R 35 -12 R 23 0 R 35 12 R 24 35 R 11 58 R 0 35 R
-11 59 R -24 35 R -35 11 R -23 0 R D 23911 1408 M 0 398 R D 23759 1125 M
-35 -11 R -11 -24 R 0 -23 R 11 -23 R 24 -12 R 47 -12 R 35 -11 R 23 -24 R
12 -23 R 0 -35 R -12 -24 R -12 -11 R -35 -12 R -47 0 R -35 12 R -11 11 R
-12 24 R 0 35 R 12 23 R 23 24 R 35 11 R 47 12 R 23 12 R 12 23 R 0 23 R
-12 24 R -35 11 R -47 0 R D 24005 1125 M -35 -11 R -24 -35 R -11 -59 R
0 -35 R 11 -58 R 24 -35 R 35 -12 R 23 0 R 35 12 R 24 35 R 11 58 R 0 35 R
-11 59 R -24 35 R -35 11 R -23 0 R D 29334 1408 M 0 398 R D 29042 1079 M
23 11 R 35 35 R 0 -245 R D 29311 1125 M -35 -11 R -24 -35 R -11 -59 R
0 -35 R 11 -58 R 24 -35 R 35 -12 R 23 0 R 35 12 R 24 35 R 11 58 R 0 35 R
-11 59 R -24 35 R -35 11 R -23 0 R D 29544 1125 M -35 -11 R -23 -35 R
-12 -59 R 0 -35 R 12 -58 R 23 -35 R 35 -12 R 24 0 R 35 12 R 23 35 R 12 58 R
0 35 R -12 59 R -23 35 R -35 11 R -24 0 R D 3576 1408 M 0 199 R D
4932 1408 M 0 199 R D 6287 1408 M 0 199 R D 8999 1408 M 0 199 R D
10354 1408 M 0 199 R D 11710 1408 M 0 199 R D 14421 1408 M 0 199 R D
15777 1408 M 0 199 R D 17133 1408 M 0 199 R D 19844 1408 M 0 199 R D
21200 1408 M 0 199 R D 22556 1408 M 0 199 R D 25267 1408 M 0 199 R D
26623 1408 M 0 199 R D 27978 1408 M 0 199 R D 14726 668 M 0 -245 R D
14726 539 M 35 35 R 23 12 R 35 0 R 23 -12 R 12 -35 R 0 -116 R D 14936 516 M
140 0 R 0 23 R -12 24 R -11 11 R -24 12 R -35 0 R -23 -12 R -23 -23 R
-12 -35 R 0 -23 R 12 -35 R 23 -24 R 23 -11 R 35 0 R 24 11 R 23 24 R D
15146 668 M 12 -12 R 12 12 R -12 12 R -12 -12 R D 15158 586 M 0 -163 R D
15380 586 M 0 -199 R -12 -35 R -11 -11 R -24 -12 R -35 0 R -23 12 R D
15380 551 M -23 23 R -24 12 R -35 0 R -23 -12 R -24 -23 R -11 -35 R 0 -23 R
11 -35 R 24 -24 R 23 -11 R 35 0 R 24 11 R 23 24 R D 15473 668 M 0 -245 R D
15473 539 M 35 35 R 24 12 R 35 0 R 23 -12 R 12 -35 R 0 -116 R D 15707 668 M
0 -199 R 12 -35 R 23 -11 R 23 0 R D 15672 586 M 82 0 R D 16023 715 M
0 -386 R D 16034 715 M 0 -386 R D 16023 715 M 81 0 R D 16023 329 M 81 0 R D
16186 668 M 0 -245 R D 16303 586 M -117 -117 R D 16233 516 M 82 -93 R D
16385 586 M 0 -163 R D 16385 539 M 35 35 R 23 12 R 35 0 R 24 -12 R 11 -35 R
0 -116 R D 16513 539 M 35 35 R 24 12 R 35 0 R 23 -12 R 12 -35 R 0 -116 R D
16794 715 M 0 -386 R D 16805 715 M 0 -386 R D 16724 715 M 81 0 R D
16724 329 M 81 0 R D 2220 21296 M 27114 0 R D 2220 21296 M 0 -398 R D
7643 21296 M 0 -398 R D 13066 21296 M 0 -398 R D 18489 21296 M 0 -398 R D
23911 21296 M 0 -398 R D 29334 21296 M 0 -398 R D 3576 21296 M 0 -199 R D
4932 21296 M 0 -199 R D 6287 21296 M 0 -199 R D 8999 21296 M 0 -199 R D
10354 21296 M 0 -199 R D 11710 21296 M 0 -199 R D 14421 21296 M 0 -199 R D
15777 21296 M 0 -199 R D 17133 21296 M 0 -199 R D 19844 21296 M 0 -199 R D
21200 21296 M 0 -199 R D 22556 21296 M 0 -199 R D 25267 21296 M 0 -199 R D
26623 21296 M 0 -199 R D 27978 21296 M 0 -199 R D 2220 1408 M 0 19888 R D
2220 1408 M 542 0 R D 1223 1607 M 23 11 R 35 35 R 0 -245 R D 1492 1653 M
-35 -11 R -24 -35 R -12 -59 R 0 -35 R 12 -58 R 24 -35 R 35 -12 R 23 0 R
35 12 R 23 35 R 12 58 R 0 35 R -12 59 R -23 35 R -35 11 R -23 0 R D
1654 1651 M 130 0 R D 1856 1709 M 14 7 R 22 22 R 0 -152 R D 2022 1738 M
-21 -8 R -15 -21 R -7 -36 R 0 -22 R 7 -36 R 15 -22 R 21 -7 R 15 0 R 22 7 R
14 22 R 7 36 R 0 22 R -7 36 R -14 21 R -22 8 R -15 0 R D 2220 8037 M 542 0 R
D 1368 8095 M 23 12 R 35 35 R 0 -245 R D 1636 8142 M -35 -12 R -23 -35 R
-12 -58 R 0 -35 R 12 -59 R 23 -35 R 35 -11 R 24 0 R 35 11 R 23 35 R 12 59 R
0 35 R -12 58 R -23 35 R -35 12 R -24 0 R D 1798 8139 M 130 0 R D
2066 8226 M -73 0 R -7 -65 R 7 7 R 22 7 R 22 0 R 22 -7 R 14 -14 R 7 -22 R
0 -14 R -7 -22 R -14 -15 R -22 -7 R -22 0 R -22 7 R -7 8 R -7 14 R D
2220 14667 M 542 0 R D 1556 14725 M 23 11 R 35 35 R 0 -245 R D 1824 14771 M
-35 -11 R -23 -35 R -12 -59 R 0 -35 R 12 -58 R 23 -35 R 35 -12 R 24 0 R
35 12 R 23 35 R 12 58 R 0 35 R -12 59 R -23 35 R -35 11 R -24 0 R D
2022 14855 M -21 -7 R -15 -21 R -7 -37 R 0 -21 R 7 -36 R 15 -22 R 21 -7 R
15 0 R 22 7 R 14 22 R 7 36 R 0 21 R -7 37 R -14 21 R -22 7 R -15 0 R D
2220 21296 M 542 0 R D 1556 21248 M 23 12 R 35 35 R 0 -245 R D 1824 21295 M
-35 -12 R -23 -35 R -12 -58 R 0 -35 R 12 -59 R 23 -35 R 35 -11 R 24 0 R
35 11 R 23 35 R 12 59 R 0 35 R -12 58 R -23 35 R -35 12 R -24 0 R D
2066 21379 M -73 0 R -7 -65 R 7 7 R 22 8 R 22 0 R 22 -8 R 14 -14 R 7 -22 R
0 -14 R -7 -22 R -14 -14 R -22 -8 R -22 0 R -22 8 R -7 7 R -7 14 R D
2220 2734 M 271 0 R D 2220 4060 M 271 0 R D 2220 5386 M 271 0 R D
2220 6712 M 271 0 R D 2220 9363 M 271 0 R D 2220 10689 M 271 0 R D
2220 12015 M 271 0 R D 2220 13341 M 271 0 R D 2220 15993 M 271 0 R D
2220 17319 M 271 0 R D 2220 18644 M 271 0 R D 2220 19970 M 271 0 R D
586 11107 M 199 0 R 35 11 R 11 24 R 0 23 R D 668 11072 M 0 81 R D
668 11364 M 163 0 R D 703 11364 M -23 -24 R -12 -23 R 0 -35 R 12 -23 R
23 -24 R 35 -11 R 23 0 R 35 11 R 24 24 R 11 23 R 0 35 R -11 23 R -24 24 R D
668 11457 M 117 0 R 35 12 R 11 23 R 0 35 R -11 24 R -35 35 R D 668 11586 M
163 0 R D 29334 1408 M 0 19888 R D 29334 1408 M -542 0 R D 29334 8037 M
-542 0 R D 29334 14667 M -542 0 R D 29334 21296 M -542 0 R D 29334 2734 M
-271 0 R D 29334 4060 M -271 0 R D 29334 5386 M -271 0 R D 29334 6712 M
-271 0 R D 29334 9363 M -271 0 R D 29334 10689 M -271 0 R D 29334 12015 M
-271 0 R D 29334 13341 M -271 0 R D 29334 15993 M -271 0 R D 29334 17319 M
-271 0 R D 29334 18644 M -271 0 R D 29334 19970 M -271 0 R D
0.310 0.000 0.373 setrgbcolor 18014 3549 M 271 -54 R 271 -20 R 271 1 R
272 11 R 271 16 R 271 20 R 271 22 R 271 27 R 271 32 R 271 41 R 272 54 R
271 73 R 271 99 R 271 148 R 271 255 R 271 664 R 271 1522 R 272 -88 R
271 -92 R 271 -98 R 271 -105 R 271 -111 R 271 -120 R 271 -129 R 272 -137 R
271 -147 R 271 -156 R 271 -167 R 271 -178 R 271 -188 R 271 -200 R 272 -210 R
271 -224 R 271 -296 R 271 -353 R 271 -368 R 271 -380 R 271 -393 R 272 -414 R
271 -458 R 18 -40 R D 0.141 0.000 0.961 setrgbcolor 18014 11029 M 271 -249 R
271 -151 R 271 -103 R 272 -83 R 271 -74 R 271 -70 R 271 -71 R 271 -70 R
271 -72 R 271 -72 R 272 -71 R 271 -70 R 271 -71 R 271 -73 R 271 -81 R
271 -106 R D 0.000 0.447 1.000 setrgbcolor 14218 9067 M 271 504 R 271 245 R
272 161 R 271 120 R 271 98 R 271 87 R 271 79 R 271 78 R 271 82 R 271 91 R
272 109 R 271 144 R 271 225 R D 0.000 0.847 1.000 setrgbcolor 2288 7246 M
271 55 R 271 156 R 271 174 R 271 161 R 272 144 R 271 129 R 271 115 R
271 103 R 271 91 R 271 96 R 271 167 R 272 307 R 271 351 R 271 362 R
271 287 R 271 251 R 271 213 R 271 179 R 272 151 R 271 117 R 271 89 R
271 65 R 271 42 R 271 24 R 271 8 R 272 -7 R 271 36 R 271 259 R 271 98 R
271 89 R 271 80 R 271 70 R 272 60 R 271 52 R 271 45 R 271 41 R 271 39 R
271 36 R 271 37 R 272 39 R 271 44 R 271 49 R 271 60 R 271 -17 R 271 -63 R
271 -62 R 272 -62 R 271 -62 R 271 -62 R 271 -62 R 271 -62 R 271 -65 R
271 -66 R 271 -72 R 272 -83 R 271 -107 R 271 -188 R D
0.000 1.000 0.447 setrgbcolor 2288 9003 M 271 55 R 271 155 R 271 175 R
271 161 R 272 144 R 271 128 R 271 115 R 271 103 R 271 92 R 271 96 R
271 167 R 272 307 R 271 351 R 271 362 R 271 287 R 271 251 R 271 213 R
271 179 R 272 150 R 271 117 R 271 90 R 271 64 R 271 43 R 271 24 R 271 7 R
272 -6 R 271 -19 R 271 -40 R 271 -43 R 271 -52 R 271 -61 R 271 -68 R
272 -74 R 271 -80 R 271 -87 R 271 -94 R 271 -104 R 271 -113 R 271 -130 R
272 -155 R 271 -201 R 271 -304 R 271 -749 R D 0.000 0.000 0.000 setrgbcolor
2886 20557 M 1599 0 R D 4844 20697 M -35 -12 R -23 -35 R -12 -58 R 0 -36 R
12 -58 R 23 -35 R 35 -12 R 24 0 R 35 12 R 23 35 R 12 58 R 0 36 R -12 58 R
-23 35 R -35 12 R -24 0 R D 5031 20475 M -11 -12 R 11 -12 R 12 12 R -12 12 R
D 5195 20697 M -35 -12 R -23 -35 R -12 -58 R 0 -36 R 12 -58 R 23 -35 R
35 -12 R 23 0 R 35 12 R 24 35 R 11 58 R 0 36 R -11 58 R -24 35 R -35 12 R
-23 0 R D 5429 20697 M -35 -12 R -24 -35 R -11 -58 R 0 -36 R 11 -58 R
24 -35 R 35 -12 R 23 0 R 35 12 R 23 35 R 12 58 R 0 36 R -12 58 R -23 35 R
-35 12 R -23 0 R D 5627 20650 M 24 12 R 35 35 R 0 -246 R D
0.310 0.000 0.373 setrgbcolor 2886 20135 M 1599 0 R D
0.000 0.000 0.000 setrgbcolor 4844 20274 M -35 -11 R -23 -35 R -12 -59 R
0 -35 R 12 -58 R 23 -35 R 35 -12 R 24 0 R 35 12 R 23 35 R 12 58 R 0 35 R
-12 59 R -23 35 R -35 11 R -24 0 R D 5031 20052 M -11 -11 R 11 -12 R 12 12 R
-12 11 R D 5195 20274 M -35 -11 R -23 -35 R -12 -59 R 0 -35 R 12 -58 R
23 -35 R 35 -12 R 23 0 R 35 12 R 24 35 R 11 58 R 0 35 R -11 59 R -24 35 R
-35 11 R -23 0 R D 5394 20228 M 23 11 R 35 35 R 0 -245 R D
0.141 0.000 0.961 setrgbcolor 2886 19712 M 1599 0 R D
0.000 0.000 0.000 setrgbcolor 4844 19852 M -35 -12 R -23 -35 R -12 -58 R
0 -35 R 12 -59 R 23 -35 R 35 -11 R 24 0 R 35 11 R 23 35 R 12 59 R 0 35 R
-12 58 R -23 35 R -35 12 R -24 0 R D 5031 19630 M -11 -12 R 11 -11 R 12 11 R
-12 12 R D 5160 19805 M 23 12 R 35 35 R 0 -245 R D
0.000 0.447 1.000 setrgbcolor 2886 19290 M 1599 0 R D
0.000 0.000 0.000 setrgbcolor 4844 19429 M -35 -11 R -23 -35 R -12 -59 R
0 -35 R 12 -58 R 23 -35 R 35 -12 R 24 0 R 35 12 R 23 35 R 12 58 R 0 35 R
-12 59 R -23 35 R -35 11 R -24 0 R D 5031 19207 M -11 -11 R 11 -12 R 12 12 R
-12 11 R D 5137 19371 M 0 12 R 11 23 R 12 12 R 23 11 R 47 0 R 23 -11 R
12 -12 R 12 -23 R 0 -24 R -12 -23 R -23 -35 R -117 -117 R 163 0 R D
0.000 0.847 1.000 setrgbcolor 2886 18867 M 1599 0 R D
0.000 0.000 0.000 setrgbcolor 4844 19007 M -35 -12 R -23 -35 R -12 -58 R
0 -35 R 12 -59 R 23 -35 R 35 -11 R 24 0 R 35 11 R 23 35 R 12 59 R 0 35 R
-12 58 R -23 35 R -35 12 R -24 0 R D 5031 18785 M -11 -12 R 11 -11 R 12 11 R
-12 12 R D 5242 19007 M -117 -164 R 175 0 R D 5242 19007 M 0 -245 R D
0.000 1.000 0.447 setrgbcolor 2886 18445 M 1599 0 R D
0.000 0.000 0.000 setrgbcolor 4844 18585 M -35 -12 R -23 -35 R -12 -58 R
0 -36 R 12 -58 R 23 -35 R 35 -12 R 24 0 R 35 12 R 23 35 R 12 58 R 0 36 R
-12 58 R -23 35 R -35 12 R -24 0 R D 5031 18363 M -11 -12 R 11 -12 R 12 12 R
-12 12 R D 5277 18550 M -12 23 R -35 12 R -23 0 R -35 -12 R -24 -35 R
-11 -58 R 0 -59 R 11 -47 R 24 -23 R 35 -12 R 11 0 R 35 12 R 24 23 R 11 35 R
0 12 R -11 35 R -24 24 R -35 11 R -11 0 R -35 -11 R -24 -24 R -11 -35 R D
0.431 1.000 0.000 setrgbcolor 2886 18023 M 1599 0 R D
0.000 0.000 0.000 setrgbcolor 4844 18162 M -35 -11 R -23 -35 R -12 -59 R
0 -35 R 12 -58 R 23 -35 R 35 -12 R 24 0 R 35 12 R 23 35 R 12 58 R 0 35 R
-12 59 R -23 35 R -35 11 R -24 0 R D 5031 17940 M -11 -11 R 11 -12 R 12 12 R
-12 11 R D 5183 18162 M -35 -11 R -11 -24 R 0 -23 R 11 -24 R 24 -11 R
46 -12 R 35 -12 R 24 -23 R 11 -23 R 0 -35 R -11 -24 R -12 -11 R -35 -12 R
-47 0 R -35 12 R -11 11 R -12 24 R 0 35 R 12 23 R 23 23 R 35 12 R 47 12 R
23 11 R 12 24 R 0 23 R -12 24 R -35 11 R -47 0 R D
1.000 0.431 0.000 setrgbcolor 2886 17600 M 1599 0 R D
0.000 0.000 0.000 setrgbcolor 4809 17693 M 24 12 R 35 35 R 0 -245 R D
5031 17518 M -11 -12 R 11 -11 R 12 11 R -12 12 R D 5195 17740 M -35 -12 R
-23 -35 R -12 -58 R 0 -35 R 12 -59 R 23 -35 R 35 -11 R 23 0 R 35 11 R
24 35 R 11 59 R 0 35 R -11 58 R -24 35 R -35 12 R -23 0 R D
1.000 0.000 0.000 setrgbcolor 2886 17178 M 1599 0 R D
0.000 0.000 0.000 setrgbcolor 4809 17271 M 24 11 R 35 35 R 0 -245 R D
5078 17317 M -35 -11 R -23 -35 R -12 -59 R 0 -35 R 12 -58 R 23 -35 R
35 -12 R 23 0 R 36 12 R 23 35 R 12 58 R 0 35 R -12 59 R -23 35 R -36 11 R
-23 0 R D 5265 17095 M -12 -11 R 12 -12 R 12 12 R -12 11 R D 5429 17317 M
-35 -11 R -24 -35 R -11 -59 R 0 -35 R 11 -58 R 24 -35 R 35 -12 R 23 0 R
35 12 R 23 35 R 12 58 R 0 35 R -12 59 R -23 35 R -35 11 R -23 0 R D
2487 20874 M 3449 0 R 0 -4013 R -3449 0 R 0 4013 R D
%%PageTrailer
end
%%PageResources: font Helvetica
%%Trailer
%%Pages: 1
%%DocumentNeededResources: font Helvetica
%%EOF
