%!PS-Adobe-3.0 EPSF-3.0
%%BoundingBox: 0 0 566 340
%%Title: Graphics produced by IDL
%%For: giada@acidrain.astro.washington.edu, /astro/users/giada/fractal
%%Creator: IDL Version 7.0 (linux x86_64 m64)
%%CreationDate: Tue Feb 25 16:43:53 2014
%%DocumentData: Clean7bit
%%Requirements: color
%%LanguageLevel: 1
%%PageOrder: Ascend
%%Pages: (atend)
%%DocumentNeededResources: (atend)
%%EndComments
%%BeginProlog
%+ prolog.ps -- Prolog for IDL generated PostScript files
%+ Copyright (c) 1988-2007 ITT Visual Information Solutions. All Rights Reserved.
%v 5
/$IDL_DICT 40 dict def $IDL_DICT begin /bdef { bind def } bind def /C
{currentpoint newpath moveto} bdef /CP {currentpoint} bdef /D {currentpoint
stroke moveto} bdef /F {closepath fill} bdef /K { setgray } bdef /M {moveto}
bdef /N {rmoveto} bdef /P {lineto} bdef /R {rlineto} bdef /S {gsave show
grestore} bdef /X {currentpoint pop} bdef /Z {gsave currentpoint lineto 20
setlinewidth 1 setlinecap stroke grestore} bdef /L0 {[] 0 setdash} bdef /L1
{[40 100] 0 setdash} bdef /L2 {[200 200] 0 setdash} bdef /L3 {[200 100 50
100] 0 setdash} bdef /L4 {[300 100 50 100 50 100 50 100] 0 setdash} bdef /L5
{[400 200] 0 setdash} bdef /STDFONT { findfont exch scalefont setfont } bdef
/ISOFONT { findfont dup length dict begin { 1 index /FID ne {def} {pop pop}
ifelse } forall /Encoding ISOLatin1Encoding def currentdict end /idltmpfont
exch definefont exch scalefont setfont } bdef /ISOBULLET { gsave /Helvetica
findfont exch scalefont setfont (\267) show currentpoint grestore moveto}
bdef /MITERLIMIT { 2.5 setmiterlimit } bdef end
%%EndProlog
%%Page: 0 1
%%PageRequirements: color
%%PageResources: (atend)
%%PageOrientation: Portrait
%%PageBoundingBox: 0 0 566 340
%%BeginPageSetup
$IDL_DICT begin 0.0283465 dup scale MITERLIMIT
%%IncludeResource: font Helvetica
423.333 /Helvetica STDFONT
%%EndPageSetup
0.000 0.000 0.000 setrgbcolor gsave 10777 10099 translate 0 0 M
1.25 dup scale -2317.75 0 N
(calculated optical depths) show grestore 19 setlinewidth L0 2664 2112 M
16226 0 R D 2664 2112 M 0 389 R D gsave 2664 1584 translate 0 0 M
-117.687 0 N
(0) show grestore 5909 2112 M 0 389 R D gsave 5909 1584 translate 0 0 M
-235.373 0 N
(20) show grestore 9155 2112 M 0 389 R D gsave 9155 1584 translate 0 0 M
-235.373 0 N
(40) show grestore 12400 2112 M 0 389 R D gsave 12400 1584 translate 0 0 M
-235.373 0 N
(60) show grestore 15645 2112 M 0 389 R D gsave 15645 1584 translate 0 0 M
-235.373 0 N
(80) show grestore 18890 2112 M 0 389 R D gsave 18890 1584 translate 0 0 M
-353.06 0 N
(100) show grestore gsave 10777 1126 translate 0 0 M -1035.26 0 N
(height [km]) show grestore 2664 9888 M 16226 0 R D 2664 9888 M 0 -389 R D
5909 9888 M 0 -389 R D 9155 9888 M 0 -389 R D 12400 9888 M 0 -389 R D
15645 9888 M 0 -389 R D 18890 9888 M 0 -389 R D 2664 2112 M 0 7776 R D
2664 2112 M 325 0 R D gsave 2553 2112 translate 0 0 M -850.011 0 N
(10) show X 192.937 M
%%IncludeResource: font Helvetica
262.467 /Helvetica STDFONT
(-10) show grestore
%%IncludeResource: font Helvetica
423.333 /Helvetica STDFONT 2664 4704 M 325 0 R D
gsave 2553 4563 translate 0 0 M -704.08 0 N
(10) show X 192.937 M
%%IncludeResource: font Helvetica
262.467 /Helvetica STDFONT
(-5) show grestore
%%IncludeResource: font Helvetica
423.333 /Helvetica STDFONT 2664 7296 M 325 0 R D
gsave 2553 7155 translate 0 0 M -616.678 0 N
(10) show X 192.937 M
%%IncludeResource: font Helvetica
262.467 /Helvetica STDFONT
(0) show grestore
%%IncludeResource: font Helvetica
423.333 /Helvetica STDFONT 2664 9888 M 325 0 R D
gsave 2553 9642 translate 0 0 M -616.678 0 N
(10) show X 192.937 M
%%IncludeResource: font Helvetica
262.467 /Helvetica STDFONT
(5) show grestore
%%IncludeResource: font Helvetica
423.333 /Helvetica STDFONT 2664 2630 M 162 0 R D 2664 3149 M 162 0 R D
2664 3667 M 162 0 R D 2664 4186 M 162 0 R D 2664 5222 M 162 0 R D
2664 5741 M 162 0 R D 2664 6259 M 162 0 R D 2664 6778 M 162 0 R D
2664 7814 M 162 0 R D 2664 8333 M 162 0 R D 2664 8851 M 162 0 R D
2664 9370 M 162 0 R D gsave 1370 6000 translate 0 0 M 90 rotate -294.217 0 N
(tau) show grestore 18890 2112 M 0 7776 R D 18890 2112 M -324 0 R D
18890 4704 M -324 0 R D 18890 7296 M -324 0 R D 18890 9888 M -324 0 R D
18890 2630 M -162 0 R D 18890 3149 M -162 0 R D 18890 3667 M -162 0 R D
18890 4186 M -162 0 R D 18890 5222 M -162 0 R D 18890 5741 M -162 0 R D
18890 6259 M -162 0 R D 18890 6778 M -162 0 R D 18890 7814 M -162 0 R D
18890 8333 M -162 0 R D 18890 8851 M -162 0 R D 18890 9370 M -162 0 R D
10 setlinewidth 14550 1551 M 162 195 R 162 80 R 162 40 R 163 19 R 162 5 R
162 -5 R 162 -13 R 163 -19 R 162 -24 R 162 -25 R 163 -23 R 162 -11 R
162 21 R 162 -91 R 163 -162 R 162 -190 R 162 -205 R 162 -209 R 163 -207 R
162 -201 R 162 -195 R 162 -188 R 163 -182 R 162 -182 R 162 -190 R 162 -230 R
D 0.310 0.000 0.373 setrgbcolor 11953 2875 M 163 -13 R 162 -3 R 162 3 R
163 5 R 162 7 R 162 8 R 162 10 R 163 11 R 162 13 R 162 18 R 162 24 R
163 34 R 162 52 R 162 91 R 162 237 R 163 630 R 162 -44 R 162 -47 R 162 -53 R
163 -57 R 162 -62 R 162 -68 R 162 -74 R 163 -81 R 162 -87 R 162 -95 R
163 -102 R 162 -109 R 162 -113 R 162 -130 R 163 -162 R 162 -190 R 162 -205 R
162 -210 R 163 -206 R 162 -201 R 162 -195 R 162 -188 R 163 -183 R 162 -182 R
162 -190 R 162 -230 R D 0.141 0.000 0.961 setrgbcolor 11953 5757 M 163 -73 R
162 -48 R 162 -36 R 163 -30 R 162 -27 R 162 -28 R 162 -28 R 163 -28 R
162 -30 R 162 -31 R 162 -31 R 163 -33 R 162 -33 R 162 -37 R 162 -45 R D
0.000 0.447 1.000 setrgbcolor 9357 4116 M 163 1030 R 162 143 R 162 79 R
162 54 R 163 41 R 162 33 R 162 30 R 162 27 R 163 27 R 162 28 R 162 31 R
162 37 R 163 48 R 162 70 R 162 129 R D 0.000 0.847 1.000 setrgbcolor
2705 4882 M 162 20 R 162 59 R 162 66 R 163 60 R 162 54 R 162 47 R 162 42 R
163 37 R 162 33 R 162 33 R 163 59 R 162 109 R 162 125 R 162 124 R 163 90 R
162 70 R 162 51 R 162 36 R 163 25 R 162 15 R 162 7 R 162 3 R 163 10 R
162 16 R 162 16 R 162 7 R 163 7 R 162 18 R 162 17 R 162 19 R 163 16 R
162 15 R 162 12 R 163 12 R 162 11 R 162 11 R 162 11 R 163 13 R 162 14 R
162 18 R 162 20 R 163 -25 R 162 -26 R 162 -26 R 162 -25 R 163 -25 R
162 -25 R 162 -26 R 162 -25 R 163 -26 R 162 -27 R 162 -28 R 162 -30 R
163 -37 R 162 -56 R 162 -160 R D 0.000 1.000 0.447 setrgbcolor 2705 5410 M
162 20 R 162 59 R 162 66 R 163 60 R 162 54 R 162 47 R 162 42 R 163 37 R
162 33 R 162 33 R 163 59 R 162 109 R 162 125 R 162 124 R 163 90 R 162 70 R
162 51 R 162 36 R 163 25 R 162 15 R 162 7 R 162 0 R 163 -7 R 162 -11 R
162 -16 R 162 -18 R 163 -20 R 162 -25 R 162 -27 R 162 -29 R 163 -31 R
162 -34 R 162 -35 R 163 -38 R 162 -42 R 162 -47 R 162 -54 R 163 -67 R
162 -91 R 162 -154 R D 0.000 0.000 0.000 setrgbcolor 3330 9149 M 1599 0 R D
gsave 5195 9043 translate 0 0 M
(0.001) show grestore 0.310 0.000 0.373 setrgbcolor 3330 8726 M 1599 0 R D
0.000 0.000 0.000 setrgbcolor gsave 5195 8621 translate 0 0 M
(0.01) show grestore 0.141 0.000 0.961 setrgbcolor 3330 8304 M 1599 0 R D
0.000 0.000 0.000 setrgbcolor gsave 5195 8198 translate 0 0 M
(0.1) show grestore 0.000 0.447 1.000 setrgbcolor 3330 7882 M 1599 0 R D
0.000 0.000 0.000 setrgbcolor gsave 5195 7776 translate 0 0 M
(0.2) show grestore 0.000 0.847 1.000 setrgbcolor 3330 7459 M 1599 0 R D
0.000 0.000 0.000 setrgbcolor gsave 5195 7354 translate 0 0 M
(0.4) show grestore 0.000 1.000 0.447 setrgbcolor 3330 7037 M 1599 0 R D
0.000 0.000 0.000 setrgbcolor gsave 5195 6931 translate 0 0 M
(0.6) show grestore 0.431 1.000 0.000 setrgbcolor 3330 6614 M 1599 0 R D
0.000 0.000 0.000 setrgbcolor gsave 5195 6509 translate 0 0 M
(0.8) show grestore 1.000 0.431 0.000 setrgbcolor 3330 6192 M 1599 0 R D
0.000 0.000 0.000 setrgbcolor gsave 5195 6086 translate 0 0 M
(1.0) show grestore 1.000 0.000 0.000 setrgbcolor 3330 5770 M 1599 0 R D
0.000 0.000 0.000 setrgbcolor gsave 5195 5664 translate 0 0 M
(10.0) show grestore 2931 9466 M 3456 0 R 0 -4013 R -3456 0 R 0 4013 R D
%%PageTrailer
end
%%PageResources: font Helvetica
%%Trailer
%%Pages: 1
%%DocumentNeededResources: font Helvetica
%%EOF
