%!PS-Adobe-3.0 EPSF-3.0
%%BoundingBox: 0 0 850 623
%%Title: Graphics produced by IDL
%%For: giada@acidrain.astro.washington.edu, /astro/users/giada
%%Creator: IDL Version 7.0 (linux x86_64 m64)
%%CreationDate: Wed Feb 26 12:54:38 2014
%%DocumentData: Clean7bit
%%Requirements: color
%%LanguageLevel: 1
%%PageOrder: Ascend
%%Pages: (atend)
%%DocumentNeededResources: (atend)
%%EndComments
%%BeginProlog
%+ prolog.ps -- Prolog for IDL generated PostScript files
%+ Copyright (c) 1988-2007 ITT Visual Information Solutions. All Rights Reserved.
%v 5
/$IDL_DICT 40 dict def $IDL_DICT begin /bdef { bind def } bind def /C
{currentpoint newpath moveto} bdef /CP {currentpoint} bdef /D {currentpoint
stroke moveto} bdef /F {closepath fill} bdef /K { setgray } bdef /M {moveto}
bdef /N {rmoveto} bdef /P {lineto} bdef /R {rlineto} bdef /S {gsave show
grestore} bdef /X {currentpoint pop} bdef /Z {gsave currentpoint lineto 20
setlinewidth 1 setlinecap stroke grestore} bdef /L0 {[] 0 setdash} bdef /L1
{[40 100] 0 setdash} bdef /L2 {[200 200] 0 setdash} bdef /L3 {[200 100 50
100] 0 setdash} bdef /L4 {[300 100 50 100 50 100 50 100] 0 setdash} bdef /L5
{[400 200] 0 setdash} bdef /STDFONT { findfont exch scalefont setfont } bdef
/ISOFONT { findfont dup length dict begin { 1 index /FID ne {def} {pop pop}
ifelse } forall /Encoding ISOLatin1Encoding def currentdict end /idltmpfont
exch definefont exch scalefont setfont } bdef /ISOBULLET { gsave /Helvetica
findfont exch scalefont setfont (\267) show currentpoint grestore moveto}
bdef /MITERLIMIT { 2.5 setmiterlimit } bdef end
%%EndProlog
%%Page: 0 1
%%PageRequirements: color
%%PageResources: (atend)
%%PageOrientation: Portrait
%%PageBoundingBox: 0 0 850 623
%%BeginPageSetup
$IDL_DICT begin 0.0283465 dup scale MITERLIMIT
%%IncludeResource: font Helvetica
423.333 /Helvetica STDFONT
%%EndPageSetup
10 setlinewidth L0 0.000 0.000 0.000 setrgbcolor 13616 21814 M -30 -15 R
-29 -29 R -14 -29 R -15 -44 R 0 -73 R 15 -44 R 14 -29 R 29 -29 R 30 -15 R
58 0 R 29 15 R 29 29 R 15 29 R 15 44 R 0 73 R -15 44 R -15 29 R -29 29 R
-29 15 R -58 0 R D 13659 21566 M 88 -103 R D 13849 21624 M 176 0 R 0 29 R
-15 30 R -15 14 R -29 15 R -44 0 R -29 -15 R -29 -29 R -15 -44 R 0 -29 R
15 -44 R 29 -29 R 29 -15 R 44 0 R 29 15 R 30 29 R D 14112 21712 M 161 -205 R
D 14273 21712 M -161 -205 R D 14390 21814 M 0 -248 R 14 -44 R 29 -15 R
30 0 R D 14346 21712 M 102 0 R D 14784 21712 M 0 -205 R D 14784 21653 M
44 44 R 29 15 R 44 0 R 29 -15 R 15 -44 R 0 -146 R D 14945 21653 M 43 44 R
30 15 R 43 0 R 30 -15 R 14 -44 R 0 -146 R D 15208 21814 M 14 -15 R 15 15 R
-15 15 R -14 -15 R D 15222 21712 M 0 -205 R D 15324 21624 M 176 0 R 0 29 R
-15 30 R -15 14 R -29 15 R -44 0 R -29 -15 R -29 -29 R -15 -44 R 0 -29 R
15 -44 R 29 -29 R 29 -15 R 44 0 R 29 15 R 30 29 R D 15982 21668 M -15 29 R
-44 15 R -44 0 R -43 -15 R -15 -29 R 15 -29 R 29 -15 R 73 -14 R 29 -15 R
15 -29 R 0 -15 R -15 -29 R -44 -15 R -44 0 R -43 15 R -15 29 R D
16245 21668 M -30 29 R -29 15 R -44 0 R -29 -15 R -29 -29 R -15 -44 R
0 -29 R 15 -44 R 29 -29 R 29 -15 R 44 0 R 29 15 R 30 29 R D 16507 21712 M
0 -205 R D 16507 21668 M -29 29 R -29 15 R -44 0 R -29 -15 R -29 -29 R
-15 -44 R 0 -29 R 15 -44 R 29 -29 R 29 -15 R 44 0 R 29 15 R 29 29 R D
16639 21814 M 0 -248 R 14 -44 R 30 -15 R 29 0 R D 16595 21712 M 102 0 R D
16814 21814 M 0 -248 R 15 -44 R 29 -15 R 29 0 R D 16770 21712 M 103 0 R D
16960 21624 M 175 0 R 0 29 R -14 30 R -15 14 R -29 15 R -44 0 R -29 -15 R
-29 -29 R -15 -44 R 0 -29 R 15 -44 R 29 -29 R 29 -15 R 44 0 R 29 15 R
29 29 R D 17238 21712 M 0 -205 R D 17238 21624 M 14 44 R 29 29 R 30 15 R
44 0 R D 17413 21814 M 15 -15 R 14 15 R -14 15 R -15 -15 R D 17428 21712 M
0 -205 R D 17544 21712 M 0 -205 R D 17544 21653 M 44 44 R 29 15 R 44 0 R
29 -15 R 15 -44 R 0 -146 R D 17983 21712 M 0 -249 R -15 -43 R -15 -15 R
-29 -15 R -44 0 R -29 15 R D 17983 21668 M -30 29 R -29 15 R -44 0 R
-29 -15 R -29 -29 R -15 -44 R 0 -29 R 15 -44 R 29 -29 R 29 -15 R 44 0 R
29 15 R 30 29 R D 2220 1408 M 27114 0 R D 2220 1408 M 0 398 R D 1788 1125 M
-35 -11 R -24 -35 R -11 -59 R 0 -35 R 11 -58 R 24 -35 R 35 -12 R 23 0 R
35 12 R 24 35 R 11 58 R 0 35 R -11 59 R -24 35 R -35 11 R -23 0 R D
1975 903 M -12 -11 R 12 -12 R 11 12 R -11 11 R D 2138 1125 M -35 -11 R
-23 -35 R -12 -59 R 0 -35 R 12 -58 R 23 -35 R 35 -12 R 24 0 R 35 12 R
23 35 R 12 58 R 0 35 R -12 59 R -23 35 R -35 11 R -24 0 R D 2372 1125 M
-35 -11 R -23 -35 R -12 -59 R 0 -35 R 12 -58 R 23 -35 R 35 -12 R 23 0 R
35 12 R 24 35 R 12 58 R 0 35 R -12 59 R -24 35 R -35 11 R -23 0 R D
2571 1079 M 23 11 R 35 35 R 0 -245 R D 8999 1408 M 0 398 R D 8566 1125 M
-35 -11 R -23 -35 R -12 -59 R 0 -35 R 12 -58 R 23 -35 R 35 -12 R 24 0 R
35 12 R 23 35 R 12 58 R 0 35 R -12 59 R -23 35 R -35 11 R -24 0 R D
8753 903 M -11 -11 R 11 -12 R 12 12 R -12 11 R D 8917 1125 M -35 -11 R
-24 -35 R -11 -59 R 0 -35 R 11 -58 R 24 -35 R 35 -12 R 23 0 R 35 12 R
24 35 R 11 58 R 0 35 R -11 59 R -24 35 R -35 11 R -23 0 R D 9115 1079 M
24 11 R 35 35 R 0 -245 R D 9384 1125 M -35 -11 R -23 -35 R -12 -59 R 0 -35 R
12 -58 R 23 -35 R 35 -12 R 24 0 R 35 12 R 23 35 R 12 58 R 0 35 R -12 59 R
-23 35 R -35 11 R -24 0 R D 15777 1408 M 0 398 R D 15345 1125 M -35 -11 R
-24 -35 R -11 -59 R 0 -35 R 11 -58 R 24 -35 R 35 -12 R 23 0 R 35 12 R
24 35 R 11 58 R 0 35 R -11 59 R -24 35 R -35 11 R -23 0 R D 15532 903 M
-12 -11 R 12 -12 R 11 12 R -11 11 R D 15660 1079 M 24 11 R 35 35 R 0 -245 R
D 15929 1125 M -35 -11 R -23 -35 R -12 -59 R 0 -35 R 12 -58 R 23 -35 R
35 -12 R 23 0 R 35 12 R 24 35 R 12 58 R 0 35 R -12 59 R -24 35 R -35 11 R
-23 0 R D 16163 1125 M -35 -11 R -24 -35 R -11 -59 R 0 -35 R 11 -58 R
24 -35 R 35 -12 R 23 0 R 35 12 R 24 35 R 11 58 R 0 35 R -11 59 R -24 35 R
-35 11 R -23 0 R D 22556 1408 M 0 398 R D 22088 1079 M 24 11 R 35 35 R
0 -245 R D 22310 903 M -11 -11 R 11 -12 R 12 12 R -12 11 R D 22474 1125 M
-35 -11 R -24 -35 R -11 -59 R 0 -35 R 11 -58 R 24 -35 R 35 -12 R 23 0 R
35 12 R 24 35 R 11 58 R 0 35 R -11 59 R -24 35 R -35 11 R -23 0 R D
22708 1125 M -36 -11 R -23 -35 R -12 -59 R 0 -35 R 12 -58 R 23 -35 R
36 -12 R 23 0 R 35 12 R 23 35 R 12 58 R 0 35 R -12 59 R -23 35 R -35 11 R
-23 0 R D 22941 1125 M -35 -11 R -23 -35 R -12 -59 R 0 -35 R 12 -58 R
23 -35 R 35 -12 R 24 0 R 35 12 R 23 35 R 12 58 R 0 35 R -12 59 R -23 35 R
-35 11 R -24 0 R D 29334 1408 M 0 398 R D 28750 1079 M 23 11 R 35 35 R
0 -245 R D 29019 1125 M -35 -11 R -24 -35 R -11 -59 R 0 -35 R 11 -58 R
24 -35 R 35 -12 R 23 0 R 35 12 R 23 35 R 12 58 R 0 35 R -12 59 R -23 35 R
-35 11 R -23 0 R D 29206 903 M -12 -11 R 12 -12 R 11 12 R -11 11 R D
29369 1125 M -35 -11 R -23 -35 R -12 -59 R 0 -35 R 12 -58 R 23 -35 R
35 -12 R 24 0 R 35 12 R 23 35 R 12 58 R 0 35 R -12 59 R -23 35 R -35 11 R
-24 0 R D 29603 1125 M -35 -11 R -24 -35 R -11 -59 R 0 -35 R 11 -58 R
24 -35 R 35 -12 R 23 0 R 35 12 R 24 35 R 11 58 R 0 35 R -11 59 R -24 35 R
-35 11 R -23 0 R D 29837 1125 M -35 -11 R -24 -35 R -12 -59 R 0 -35 R
12 -58 R 24 -35 R 35 -12 R 23 0 R 35 12 R 23 35 R 12 58 R 0 35 R -12 59 R
-23 35 R -35 11 R -23 0 R D 4261 1408 M 0 199 R D 5454 1408 M 0 199 R D
6301 1408 M 0 199 R D 6958 1408 M 0 199 R D 7495 1408 M 0 199 R D
7949 1408 M 0 199 R D 8342 1408 M 0 199 R D 8688 1408 M 0 199 R D
11039 1408 M 0 199 R D 12233 1408 M 0 199 R D 13080 1408 M 0 199 R D
13737 1408 M 0 199 R D 14273 1408 M 0 199 R D 14727 1408 M 0 199 R D
15120 1408 M 0 199 R D 15467 1408 M 0 199 R D 17818 1408 M 0 199 R D
19011 1408 M 0 199 R D 19858 1408 M 0 199 R D 20515 1408 M 0 199 R D
21052 1408 M 0 199 R D 21506 1408 M 0 199 R D 21899 1408 M 0 199 R D
22245 1408 M 0 199 R D 24596 1408 M 0 199 R D 25790 1408 M 0 199 R D
26637 1408 M 0 199 R D 27294 1408 M 0 199 R D 27830 1408 M 0 199 R D
28284 1408 M 0 199 R D 28677 1408 M 0 199 R D 29024 1408 M 0 199 R D
13949 586 M 0 -257 R D 13949 551 M 23 23 R 23 12 R 35 0 R 24 -12 R 23 -23 R
12 -35 R 0 -23 R -12 -35 R -23 -24 R -24 -11 R -35 0 R -23 11 R -23 24 R D
14299 586 M 0 -163 R D 14299 551 M -23 23 R -24 12 R -35 0 R -23 -12 R
-23 -23 R -12 -35 R 0 -23 R 12 -35 R 23 -24 R 23 -11 R 35 0 R 24 11 R
23 24 R D 14393 586 M 0 -163 R D 14393 516 M 11 35 R 24 23 R 23 12 R 35 0 R
D 14556 668 M 0 -199 R 12 -35 R 23 -11 R 24 0 R D 14521 586 M 82 0 R D
14673 668 M 12 -12 R 11 12 R -11 12 R -12 -12 R D 14685 586 M 0 -163 R D
14907 551 M -24 23 R -23 12 R -35 0 R -23 -12 R -24 -23 R -12 -35 R 0 -23 R
12 -35 R 24 -24 R 23 -11 R 35 0 R 23 11 R 24 24 R D 14988 668 M 0 -245 R D
15070 516 M 140 0 R 0 23 R -11 24 R -12 11 R -23 12 R -35 0 R -24 -12 R
-23 -23 R -12 -35 R 0 -23 R 12 -35 R 23 -24 R 24 -11 R 35 0 R 23 11 R
23 24 R D 15479 586 M 0 -163 R D 15479 516 M 12 35 R 23 23 R 24 12 R 35 0 R
D 15760 586 M 0 -163 R D 15760 551 M -24 23 R -23 12 R -35 0 R -24 -12 R
-23 -23 R -12 -35 R 0 -23 R 12 -35 R 23 -24 R 24 -11 R 35 0 R 23 11 R
24 24 R D 15982 668 M 0 -245 R D 15982 551 M -24 23 R -23 12 R -35 0 R
-24 -12 R -23 -23 R -12 -35 R 0 -23 R 12 -35 R 23 -24 R 24 -11 R 35 0 R
23 11 R 24 24 R D 16063 668 M 12 -12 R 12 12 R -12 12 R -12 -12 R D
16075 586 M 0 -163 R D 16169 586 M 0 -117 R 11 -35 R 24 -11 R 35 0 R 23 11 R
35 35 R D 16297 586 M 0 -163 R D 16507 551 M -11 23 R -35 12 R -35 0 R
-35 -12 R -12 -23 R 12 -23 R 23 -12 R 58 -12 R 24 -11 R 11 -24 R 0 -11 R
-11 -24 R -35 -11 R -35 0 R -35 11 R -12 24 R D 16776 715 M 0 -386 R D
16788 715 M 0 -386 R D 16776 715 M 82 0 R D 16776 329 M 82 0 R D 16940 586 M
0 -117 R 11 -35 R 24 -11 R 35 0 R 23 11 R 35 35 R D 17068 586 M 0 -163 R D
17162 586 M 0 -163 R D 17162 539 M 35 35 R 23 12 R 35 0 R 24 -12 R 11 -35 R
0 -116 R D 17290 539 M 35 35 R 24 12 R 35 0 R 23 -12 R 12 -35 R 0 -116 R D
17571 715 M 0 -386 R D 17582 715 M 0 -386 R D 17501 715 M 81 0 R D
17501 329 M 81 0 R D 2220 21296 M 27114 0 R D 2220 21296 M 0 -398 R D
8999 21296 M 0 -398 R D 15777 21296 M 0 -398 R D 22556 21296 M 0 -398 R D
29334 21296 M 0 -398 R D 4261 21296 M 0 -199 R D 5454 21296 M 0 -199 R D
6301 21296 M 0 -199 R D 6958 21296 M 0 -199 R D 7495 21296 M 0 -199 R D
7949 21296 M 0 -199 R D 8342 21296 M 0 -199 R D 8688 21296 M 0 -199 R D
11039 21296 M 0 -199 R D 12233 21296 M 0 -199 R D 13080 21296 M 0 -199 R D
13737 21296 M 0 -199 R D 14273 21296 M 0 -199 R D 14727 21296 M 0 -199 R D
15120 21296 M 0 -199 R D 15467 21296 M 0 -199 R D 17818 21296 M 0 -199 R D
19011 21296 M 0 -199 R D 19858 21296 M 0 -199 R D 20515 21296 M 0 -199 R D
21052 21296 M 0 -199 R D 21506 21296 M 0 -199 R D 21899 21296 M 0 -199 R D
22245 21296 M 0 -199 R D 24596 21296 M 0 -199 R D 25790 21296 M 0 -199 R D
26637 21296 M 0 -199 R D 27294 21296 M 0 -199 R D 27830 21296 M 0 -199 R D
28284 21296 M 0 -199 R D 28677 21296 M 0 -199 R D 29024 21296 M 0 -199 R D
2220 1408 M 0 19888 R D 2220 1408 M 542 0 R D 684 1653 M -35 -11 R -24 -35 R
-11 -59 R 0 -35 R 11 -58 R 24 -35 R 35 -12 R 23 0 R 35 12 R 23 35 R 12 58 R
0 35 R -12 59 R -23 35 R -35 11 R -23 0 R D 871 1431 M -12 -11 R 12 -12 R
11 12 R -11 11 R D 1034 1653 M -35 -11 R -23 -35 R -12 -59 R 0 -35 R
12 -58 R 23 -35 R 35 -12 R 24 0 R 35 12 R 23 35 R 12 58 R 0 35 R -12 59 R
-23 35 R -35 11 R -24 0 R D 1268 1653 M -35 -11 R -24 -35 R -11 -59 R
0 -35 R 11 -58 R 24 -35 R 35 -12 R 23 0 R 35 12 R 24 35 R 11 58 R 0 35 R
-11 59 R -24 35 R -35 11 R -23 0 R D 1502 1653 M -35 -11 R -24 -35 R
-12 -59 R 0 -35 R 12 -58 R 24 -35 R 35 -12 R 23 0 R 35 12 R 23 35 R 12 58 R
0 35 R -12 59 R -23 35 R -35 11 R -23 0 R D 1735 1653 M -35 -11 R -23 -35 R
-12 -59 R 0 -35 R 12 -58 R 23 -35 R 35 -12 R 24 0 R 35 12 R 23 35 R 12 58 R
0 35 R -12 59 R -23 35 R -35 11 R -24 0 R D 1934 1607 M 23 11 R 35 35 R
0 -245 R D 2220 4723 M 542 0 R D 684 4827 M -35 -11 R -24 -35 R -11 -59 R
0 -35 R 11 -58 R 24 -35 R 35 -12 R 23 0 R 35 12 R 23 35 R 12 58 R 0 35 R
-12 59 R -23 35 R -35 11 R -23 0 R D 871 4605 M -12 -11 R 12 -12 R 11 12 R
-11 11 R D 1034 4827 M -35 -11 R -23 -35 R -12 -59 R 0 -35 R 12 -58 R
23 -35 R 35 -12 R 24 0 R 35 12 R 23 35 R 12 58 R 0 35 R -12 59 R -23 35 R
-35 11 R -24 0 R D 1268 4827 M -35 -11 R -24 -35 R -11 -59 R 0 -35 R
11 -58 R 24 -35 R 35 -12 R 23 0 R 35 12 R 24 35 R 11 58 R 0 35 R -11 59 R
-24 35 R -35 11 R -23 0 R D 1502 4827 M -35 -11 R -24 -35 R -12 -59 R
0 -35 R 12 -58 R 24 -35 R 35 -12 R 23 0 R 35 12 R 23 35 R 12 58 R 0 35 R
-12 59 R -23 35 R -35 11 R -23 0 R D 1700 4781 M 24 11 R 35 35 R 0 -245 R D
1969 4827 M -35 -11 R -23 -35 R -12 -59 R 0 -35 R 12 -58 R 23 -35 R 35 -12 R
23 0 R 35 12 R 24 35 R 11 58 R 0 35 R -11 59 R -24 35 R -35 11 R -23 0 R D
2220 8037 M 542 0 R D 684 8142 M -35 -12 R -24 -35 R -11 -58 R 0 -35 R
11 -59 R 24 -35 R 35 -11 R 23 0 R 35 11 R 23 35 R 12 59 R 0 35 R -12 58 R
-23 35 R -35 12 R -23 0 R D 871 7920 M -12 -12 R 12 -11 R 11 11 R -11 12 R D
1034 8142 M -35 -12 R -23 -35 R -12 -58 R 0 -35 R 12 -59 R 23 -35 R 35 -11 R
24 0 R 35 11 R 23 35 R 12 59 R 0 35 R -12 58 R -23 35 R -35 12 R -24 0 R D
1268 8142 M -35 -12 R -24 -35 R -11 -58 R 0 -35 R 11 -59 R 24 -35 R 35 -11 R
23 0 R 35 11 R 24 35 R 11 59 R 0 35 R -11 58 R -24 35 R -35 12 R -23 0 R D
1467 8095 M 23 12 R 35 35 R 0 -245 R D 1735 8142 M -35 -12 R -23 -35 R
-12 -58 R 0 -35 R 12 -59 R 23 -35 R 35 -11 R 24 0 R 35 11 R 23 35 R 12 59 R
0 35 R -12 58 R -23 35 R -35 12 R -24 0 R D 1969 8142 M -35 -12 R -23 -35 R
-12 -58 R 0 -35 R 12 -59 R 23 -35 R 35 -11 R 23 0 R 35 11 R 24 35 R 11 59 R
0 35 R -11 58 R -24 35 R -35 12 R -23 0 R D 2220 11352 M 542 0 R D
684 11457 M -35 -12 R -24 -35 R -11 -58 R 0 -36 R 11 -58 R 24 -35 R 35 -12 R
23 0 R 35 12 R 23 35 R 12 58 R 0 36 R -12 58 R -23 35 R -35 12 R -23 0 R D
871 11235 M -12 -12 R 12 -12 R 11 12 R -11 12 R D 1034 11457 M -35 -12 R
-23 -35 R -12 -58 R 0 -36 R 12 -58 R 23 -35 R 35 -12 R 24 0 R 35 12 R
23 35 R 12 58 R 0 36 R -12 58 R -23 35 R -35 12 R -24 0 R D 1233 11410 M
23 12 R 35 35 R 0 -246 R D 1502 11457 M -35 -12 R -24 -35 R -12 -58 R
0 -36 R 12 -58 R 24 -35 R 35 -12 R 23 0 R 35 12 R 23 35 R 12 58 R 0 36 R
-12 58 R -23 35 R -35 12 R -23 0 R D 1735 11457 M -35 -12 R -23 -35 R
-12 -58 R 0 -36 R 12 -58 R 23 -35 R 35 -12 R 24 0 R 35 12 R 23 35 R 12 58 R
0 36 R -12 58 R -23 35 R -35 12 R -24 0 R D 1969 11457 M -35 -12 R -23 -35 R
-12 -58 R 0 -36 R 12 -58 R 23 -35 R 35 -12 R 23 0 R 35 12 R 24 35 R 11 58 R
0 36 R -11 58 R -24 35 R -35 12 R -23 0 R D 2220 14667 M 542 0 R D
684 14771 M -35 -11 R -24 -35 R -11 -59 R 0 -35 R 11 -58 R 24 -35 R 35 -12 R
23 0 R 35 12 R 23 35 R 12 58 R 0 35 R -12 59 R -23 35 R -35 11 R -23 0 R D
871 14549 M -12 -11 R 12 -12 R 11 12 R -11 11 R D 999 14725 M 24 11 R
35 35 R 0 -245 R D 1268 14771 M -35 -11 R -24 -35 R -11 -59 R 0 -35 R
11 -58 R 24 -35 R 35 -12 R 23 0 R 35 12 R 24 35 R 11 58 R 0 35 R -11 59 R
-24 35 R -35 11 R -23 0 R D 1502 14771 M -35 -11 R -24 -35 R -12 -59 R
0 -35 R 12 -58 R 24 -35 R 35 -12 R 23 0 R 35 12 R 23 35 R 12 58 R 0 35 R
-12 59 R -23 35 R -35 11 R -23 0 R D 1735 14771 M -35 -11 R -23 -35 R
-12 -59 R 0 -35 R 12 -58 R 23 -35 R 35 -12 R 24 0 R 35 12 R 23 35 R 12 58 R
0 35 R -12 59 R -23 35 R -35 11 R -24 0 R D 1969 14771 M -35 -11 R -23 -35 R
-12 -59 R 0 -35 R 12 -58 R 23 -35 R 35 -12 R 23 0 R 35 12 R 24 35 R 11 58 R
0 35 R -11 59 R -24 35 R -35 11 R -23 0 R D 2220 17981 M 542 0 R D
649 18039 M 23 12 R 35 35 R 0 -245 R D 871 17864 M -12 -12 R 12 -11 R
11 11 R -11 12 R D 1034 18086 M -35 -12 R -23 -35 R -12 -58 R 0 -35 R
12 -59 R 23 -35 R 35 -11 R 24 0 R 35 11 R 23 35 R 12 59 R 0 35 R -12 58 R
-23 35 R -35 12 R -24 0 R D 1268 18086 M -35 -12 R -24 -35 R -11 -58 R
0 -35 R 11 -59 R 24 -35 R 35 -11 R 23 0 R 35 11 R 24 35 R 11 59 R 0 35 R
-11 58 R -24 35 R -35 12 R -23 0 R D 1502 18086 M -35 -12 R -24 -35 R
-12 -58 R 0 -35 R 12 -59 R 24 -35 R 35 -11 R 23 0 R 35 11 R 23 35 R 12 59 R
0 35 R -12 58 R -23 35 R -35 12 R -23 0 R D 1735 18086 M -35 -12 R -23 -35 R
-12 -58 R 0 -35 R 12 -59 R 23 -35 R 35 -11 R 24 0 R 35 11 R 23 35 R 12 59 R
0 35 R -12 58 R -23 35 R -35 12 R -24 0 R D 1969 18086 M -35 -12 R -23 -35 R
-12 -58 R 0 -35 R 12 -59 R 23 -35 R 35 -11 R 23 0 R 35 11 R 24 35 R 11 59 R
0 35 R -11 58 R -24 35 R -35 12 R -23 0 R D 2220 21296 M 542 0 R D
415 21248 M 23 12 R 35 35 R 0 -245 R D 684 21295 M -35 -12 R -24 -35 R
-11 -58 R 0 -35 R 11 -59 R 24 -35 R 35 -11 R 23 0 R 35 11 R 23 35 R 12 59 R
0 35 R -12 58 R -23 35 R -35 12 R -23 0 R D 871 21073 M -12 -12 R 12 -11 R
11 11 R -11 12 R D 1034 21295 M -35 -12 R -23 -35 R -12 -58 R 0 -35 R
12 -59 R 23 -35 R 35 -11 R 24 0 R 35 11 R 23 35 R 12 59 R 0 35 R -12 58 R
-23 35 R -35 12 R -24 0 R D 1268 21295 M -35 -12 R -24 -35 R -11 -58 R
0 -35 R 11 -59 R 24 -35 R 35 -11 R 23 0 R 35 11 R 24 35 R 11 59 R 0 35 R
-11 58 R -24 35 R -35 12 R -23 0 R D 1502 21295 M -35 -12 R -24 -35 R
-12 -58 R 0 -35 R 12 -59 R 24 -35 R 35 -11 R 23 0 R 35 11 R 23 35 R 12 59 R
0 35 R -12 58 R -23 35 R -35 12 R -23 0 R D 1735 21295 M -35 -12 R -23 -35 R
-12 -58 R 0 -35 R 12 -59 R 23 -35 R 35 -11 R 24 0 R 35 11 R 23 35 R 12 59 R
0 35 R -12 58 R -23 35 R -35 12 R -24 0 R D 1969 21295 M -35 -12 R -23 -35 R
-12 -58 R 0 -35 R 12 -59 R 23 -35 R 35 -11 R 23 0 R 35 11 R 24 35 R 11 59 R
0 35 R -11 58 R -24 35 R -35 12 R -23 0 R D 2220 2406 M 271 0 R D
2220 2990 M 271 0 R D 2220 3404 M 271 0 R D 2220 3725 M 271 0 R D
2220 3987 M 271 0 R D 2220 4209 M 271 0 R D 2220 4402 M 271 0 R D
2220 4571 M 271 0 R D 2220 5721 M 271 0 R D 2220 6304 M 271 0 R D
2220 6718 M 271 0 R D 2220 7040 M 271 0 R D 2220 7302 M 271 0 R D
2220 7524 M 271 0 R D 2220 7716 M 271 0 R D 2220 7886 M 271 0 R D
2220 9035 M 271 0 R D 2220 9619 M 271 0 R D 2220 10033 M 271 0 R D
2220 10354 M 271 0 R D 2220 10617 M 271 0 R D 2220 10839 M 271 0 R D
2220 11031 M 271 0 R D 2220 11200 M 271 0 R D 2220 12350 M 271 0 R D
2220 12934 M 271 0 R D 2220 13348 M 271 0 R D 2220 13669 M 271 0 R D
2220 13931 M 271 0 R D 2220 14153 M 271 0 R D 2220 14346 M 271 0 R D
2220 14515 M 271 0 R D 2220 15665 M 271 0 R D 2220 16248 M 271 0 R D
2220 16662 M 271 0 R D 2220 16984 M 271 0 R D 2220 17246 M 271 0 R D
2220 17468 M 271 0 R D 2220 17660 M 271 0 R D 2220 17830 M 271 0 R D
2220 18979 M 271 0 R D 2220 19563 M 271 0 R D 2220 19977 M 271 0 R D
2220 20298 M 271 0 R D 2220 20561 M 271 0 R D 2220 20783 M 271 0 R D
2220 20975 M 271 0 R D 2220 21144 M 271 0 R D -221 11042 M 12 -23 R 23 -23 R
24 -12 R 35 -12 R 58 0 R 35 12 R 23 12 R 23 23 R 12 23 R 0 47 R -12 24 R
-23 23 R -23 12 R -35 11 R -58 0 R -35 -11 R -24 -12 R -23 -23 R -12 -24 R
0 -47 R D -22 11078 M 81 70 R D -69 11229 M 0 141 R -23 0 R -24 -12 R
-11 -12 R -12 -23 R 0 -35 R 12 -24 R 23 -23 R 35 -12 R 23 0 R 35 12 R
23 23 R 12 24 R 0 35 R -12 23 R -23 24 R D -139 11440 M 163 128 R D
-139 11568 M 163 -128 R D -221 11662 M 199 0 R 34 11 R 12 24 R 0 23 R D
-139 11627 M 0 81 R D 29334 1408 M 0 19888 R D 29334 1408 M -542 0 R D
29334 4723 M -542 0 R D 29334 8037 M -542 0 R D 29334 11352 M -542 0 R D
29334 14667 M -542 0 R D 29334 17981 M -542 0 R D 29334 21296 M -542 0 R D
29334 2406 M -271 0 R D 29334 2990 M -271 0 R D 29334 3404 M -271 0 R D
29334 3725 M -271 0 R D 29334 3987 M -271 0 R D 29334 4209 M -271 0 R D
29334 4402 M -271 0 R D 29334 4571 M -271 0 R D 29334 5721 M -271 0 R D
29334 6304 M -271 0 R D 29334 6718 M -271 0 R D 29334 7040 M -271 0 R D
29334 7302 M -271 0 R D 29334 7524 M -271 0 R D 29334 7716 M -271 0 R D
29334 7886 M -271 0 R D 29334 9035 M -271 0 R D 29334 9619 M -271 0 R D
29334 10033 M -271 0 R D 29334 10354 M -271 0 R D 29334 10617 M -271 0 R D
29334 10839 M -271 0 R D 29334 11031 M -271 0 R D 29334 11200 M -271 0 R D
29334 12350 M -271 0 R D 29334 12934 M -271 0 R D 29334 13348 M -271 0 R D
29334 13669 M -271 0 R D 29334 13931 M -271 0 R D 29334 14153 M -271 0 R D
29334 14346 M -271 0 R D 29334 14515 M -271 0 R D 29334 15665 M -271 0 R D
29334 16248 M -271 0 R D 29334 16662 M -271 0 R D 29334 16984 M -271 0 R D
29334 17246 M -271 0 R D 29334 17468 M -271 0 R D 29334 17660 M -271 0 R D
29334 17830 M -271 0 R D 29334 18979 M -271 0 R D 29334 19563 M -271 0 R D
29334 19977 M -271 0 R D 29334 20298 M -271 0 R D 29334 20561 M -271 0 R D
29334 20783 M -271 0 R D 29334 20975 M -271 0 R D 29334 21144 M -271 0 R D
2220 1566 M 2041 998 R 1193 585 R 847 417 R 657 326 R 537 270 R 454 231 R
393 205 R 346 185 R 311 171 R 280 160 R 256 153 R 236 146 R 218 143 R
203 139 R 190 137 R 179 136 R 168 135 R 159 134 R 151 135 R 144 134 R
137 134 R 131 134 R 125 134 R 120 134 R 116 134 R 111 133 R 107 133 R
103 132 R 100 131 R 96 131 R 94 130 R 90 128 R 88 128 R 86 126 R 83 125 R
80 124 R 79 122 R 76 121 R 75 120 R 72 118 R 71 116 R 70 115 R 67 114 R
66 112 R 65 110 R 63 109 R 62 108 R 61 106 R 60 105 R 58 103 R 57 102 R
56 100 R 55 99 R 54 98 R 53 96 R 52 96 R 52 93 R 50 93 R 49 91 R 49 90 R
48 89 R 47 88 R 46 87 R 46 85 R 45 84 R 44 84 R 44 82 R 43 81 R 42 81 R
42 79 R 41 78 R 41 78 R 40 76 R 39 76 R 39 74 R 39 74 R 38 73 R 37 72 R
37 71 R 37 71 R 36 70 R 36 68 R 35 69 R 35 67 R 34 67 R 34 66 R 34 65 R
33 64 R 33 64 R 33 63 R 32 63 R 32 62 R 31 61 R 31 61 R 31 60 R 30 59 R
31 59 R 30 58 R 29 58 R 29 57 R 29 56 R 29 56 R 29 56 R 28 54 R 28 55 R
27 54 R 28 53 R 27 53 R 27 52 R 26 52 R 27 51 R 26 51 R 26 50 R 26 50 R
25 49 R 25 49 R 25 49 R 25 48 R 25 47 R 24 48 R 25 46 R 24 47 R 23 45 R
24 46 R 24 45 R 23 44 R 23 44 R 23 44 R 23 44 R 22 42 R 22 43 R 23 42 R
22 42 R 22 41 R 21 41 R 22 41 R 21 40 R 22 40 R 21 39 R 21 39 R 20 39 R
21 38 R 21 38 R 20 38 R 20 37 R 20 37 R 20 36 R 20 36 R 20 36 R 19 35 R
20 36 R 19 34 R 19 35 R 19 34 R 19 33 R 19 34 R 19 33 R 18 32 R 19 33 R
18 32 R 18 31 R 18 32 R 18 31 R 18 31 R 18 30 R 18 30 R 17 30 R 18 29 R
17 30 R 18 28 R 17 29 R 17 28 R 17 28 R 17 28 R 16 27 R 17 27 R 17 27 R
16 27 R 17 26 R 16 26 R 16 26 R 16 26 R 16 25 R 16 25 R 16 25 R 16 24 R
16 25 R 15 24 R 16 24 R 15 23 R 16 24 R 15 23 R 15 23 R 15 23 R 15 23 R
15 23 R 15 22 R 15 22 R 15 22 R 14 22 R 15 22 R 15 22 R 14 21 R 14 22 R
15 21 R 14 21 R 14 21 R 14 22 R 14 21 R 14 20 R 14 21 R 14 21 R 14 21 R
14 21 R 13 21 R 14 20 R 13 21 R 14 21 R 13 21 R 14 20 R 13 21 R 13 21 R
13 21 R 13 21 R 13 21 R 13 21 R 13 21 R 13 21 R 13 21 R 13 22 R 13 21 R
12 21 R 13 22 R 12 21 R 13 22 R 12 22 R 13 21 R 12 22 R 12 22 R 13 22 R
12 22 R 12 22 R 12 22 R 12 22 R 12 22 R 12 22 R 12 22 R 12 22 R 12 22 R
11 22 R 12 22 R 12 22 R 11 22 R 12 21 R 11 21 R 12 22 R 11 21 R 12 20 R
11 21 R 11 20 R 12 20 R 11 20 R 11 20 R 11 19 R 11 19 R 11 18 R 11 18 R
11 18 R 11 18 R 11 17 R 11 16 R 11 16 R 10 16 R 11 15 R 11 15 R 10 14 R
11 14 R 11 13 R 10 13 R 11 13 R 10 12 R 11 11 R 10 11 R 10 11 R 11 10 R
10 9 R 10 10 R 10 8 R 11 9 R 10 8 R 10 7 R 10 7 R 10 7 R 10 6 R 10 7 R
10 5 R 10 6 R 9 5 R 10 5 R 10 4 R 10 4 R 10 4 R 9 4 R 10 4 R 10 3 R 9 3 R
10 3 R 9 3 R 10 3 R 9 3 R 10 2 R 9 3 R 10 2 R 9 2 R 9 3 R 10 2 R 9 2 R 9 2 R
9 2 R 9 3 R 10 2 R 9 2 R 9 2 R 9 3 R 9 2 R 9 3 R 9 2 R 9 3 R 9 3 R 9 3 R
9 3 R 9 3 R 8 3 R 9 4 R 9 3 R 9 4 R 8 4 R 9 4 R 9 4 R 8 5 R 9 5 R 9 5 R
8 5 R 9 5 R 8 6 R 9 5 R 8 7 R 9 6 R 8 6 R 9 7 R 8 7 R 8 7 R 9 8 R 8 7 R
8 8 R 8 9 R 9 8 R 8 9 R 8 9 R 8 9 R 8 9 R 8 10 R 9 10 R 8 10 R 8 10 R 8 10 R
8 11 R 8 11 R 8 11 R 8 11 R 8 11 R 7 11 R 8 11 R 8 12 R 8 11 R 8 11 R 8 12 R
7 11 R 8 11 R 8 11 R 8 11 R 7 11 R 8 11 R 8 11 R 7 10 R 8 10 R 8 10 R 7 10 R
8 9 R 7 9 R 8 9 R 7 8 R 8 8 R 7 8 R 8 7 R 7 7 R 7 6 R 8 6 R 7 6 R 8 5 R
7 5 R 7 5 R 8 4 R 7 3 R 7 3 R 7 3 R 8 3 R 7 2 R 7 2 R 7 1 R 7 2 R 7 0 R
7 1 R 8 0 R 7 0 R 7 0 R 7 -1 R 7 0 R 7 -1 R 7 -2 R 7 -1 R 7 -2 R 7 -1 R
7 -2 R 7 -2 R 7 -2 R 6 -3 R 7 -2 R 7 -3 R 7 -2 R 7 -3 R 7 -2 R 6 -3 R 7 -3 R
7 -3 R 7 -3 R 6 -2 R 7 -3 R 7 -3 R 6 -3 R 7 -3 R 7 -3 R 6 -2 R 7 -3 R 7 -3 R
6 -2 R 7 -3 R 6 -2 R 7 -2 R 6 -2 R 7 -2 R 7 -2 R 6 -2 R 6 -2 R 7 -1 R 6 -2 R
7 -1 R 6 -1 R 7 -1 R 6 0 R 6 -1 R 7 0 R 6 0 R 6 0 R 7 1 R 6 0 R 6 1 R 7 2 R
6 1 R 6 2 R 6 2 R 7 2 R 6 3 R 6 2 R 6 4 R 6 3 R 7 4 R 6 4 R 6 4 R 6 5 R
6 5 R 6 5 R 6 6 R 6 6 R 7 6 R 6 6 R 6 7 R 6 6 R 6 7 R 6 8 R 6 7 R 6 7 R
6 8 R 6 8 R 5 7 R 6 8 R 6 8 R 6 7 R 6 8 R 6 7 R 6 7 R 6 7 R 6 7 R 5 6 R
6 6 R 6 6 R 6 6 R 6 5 R 5 4 R 6 5 R 6 3 R 6 4 R 5 3 R 6 2 R 6 2 R 6 2 R
5 1 R 6 0 R 6 1 R 5 -1 R 6 0 R 6 -1 R 5 -2 R 6 -1 R 5 -2 R 6 -3 R 6 -2 R
5 -3 R 6 -4 R 5 -3 R 6 -4 R 5 -4 R 6 -4 R 5 -5 R 6 -4 R 5 -5 R 6 -5 R 5 -5 R
6 -5 R 5 -5 R 6 -6 R 5 -5 R 5 -5 R 6 -6 R 5 -6 R 6 -5 R 5 -6 R 5 -6 R 6 -6 R
5 -6 R 5 -6 R 6 -6 R 5 -6 R 5 -6 R 6 -6 R 5 -5 R 5 -6 R 5 -6 R 6 -6 R 5 -6 R
5 -6 R 5 -6 R 6 -6 R 5 -6 R 5 -5 R 5 -6 R 6 -6 R 5 -5 R 5 -6 R 5 -5 R 5 -5 R
5 -6 R 5 -5 R 6 -5 R 5 -5 R 5 -4 R 5 -5 R 5 -4 R 5 -4 R 5 -4 R 5 -4 R 5 -3 R
5 -4 R 5 -3 R 5 -3 R 5 -2 R 5 -2 R 5 -2 R 5 -2 R 5 -1 R 5 -1 R 5 0 R 5 0 R
5 0 R 5 1 R 5 1 R 5 1 R 5 2 R 5 3 R 5 3 R 5 3 R 5 4 R 4 4 R 5 4 R 5 5 R
5 5 R 5 6 R 5 6 R 5 6 R 4 6 R 5 7 R 5 6 R 5 7 R 5 6 R 4 7 R 5 6 R 5 6 R
5 5 R 4 6 R 5 5 R 5 4 R 5 4 R 4 3 R 5 3 R 5 2 R 4 2 R 5 1 R 5 0 R 4 0 R
5 -1 R 5 -2 R 4 -2 R 5 -3 R 5 -3 R 4 -4 R 5 -4 R 5 -5 R 4 -5 R 5 -5 R 4 -6 R
5 -6 R 5 -6 R 4 -6 R 5 -7 R 4 -7 R 5 -7 R 4 -7 R 5 -7 R 4 -7 R 5 -8 R 5 -7 R
4 -7 R 5 -8 R 4 -8 R 5 -7 R 4 -8 R 4 -8 R 5 -7 R 4 -8 R 5 -8 R 4 -8 R 5 -7 R
4 -8 R 5 -8 R 4 -8 R 4 -8 R 5 -8 R 4 -8 R 5 -8 R 4 -8 R 4 -9 R 5 -8 R 4 -8 R
5 -8 R 4 -9 R 4 -8 R 5 -8 R 4 -9 R 4 -8 R 5 -9 R 4 -8 R 4 -9 R 5 -8 R 4 -9 R
4 -8 R 4 -9 R 5 -8 R 4 -8 R 4 -9 R 5 -8 R 4 -8 R 4 -8 R 4 -8 R 5 -8 R 4 -8 R
4 -8 R 4 -7 R 4 -7 R 5 -7 R 4 -7 R 4 -6 R 4 -6 R 4 -6 R 5 -5 R 4 -5 R 4 -5 R
4 -4 R 4 -3 R 4 -3 R 5 -2 R 4 -2 R 4 -1 R 4 0 R 4 0 R 4 1 R 4 2 R 4 3 R
4 3 R 5 4 R 4 5 R 4 6 R 4 6 R 4 7 R 4 7 R 4 8 R 4 8 R 4 8 R 4 9 R 4 8 R
4 8 R 4 8 R 4 7 R 4 7 R 4 6 R 4 5 R 4 4 R 4 3 R 4 2 R 4 1 R 4 -1 R 4 -1 R
4 -3 R 4 -3 R 4 -5 R 4 -5 R 4 -6 R 4 -7 R 4 -8 R 4 -8 R 4 -8 R D
21713 19582 M 4 -9 R 4 -9 R 3 -9 R 4 -9 R 4 -9 R 4 -9 R 4 -9 R 4 -9 R 4 -9 R
4 -9 R 3 -8 R 4 -9 R 4 -8 R 4 -8 R 4 -7 R 4 -8 R 4 -7 R 3 -8 R 4 -7 R 4 -7 R
4 -7 R 4 -7 R 3 -7 R 4 -6 R 4 -7 R 4 -7 R 4 -7 R 3 -7 R 4 -7 R 4 -7 R 4 -7 R
4 -7 R 3 -7 R 4 -8 R 4 -8 R 4 -8 R 3 -8 R 4 -8 R 4 -8 R 3 -9 R 4 -9 R 4 -9 R
4 -9 R 3 -9 R 4 -10 R 4 -10 R 3 -10 R 4 -10 R 4 -10 R 3 -10 R 4 -11 R
4 -10 R 3 -11 R 4 -11 R 4 -11 R 3 -10 R 4 -11 R 4 -11 R 3 -11 R 4 -10 R
4 -11 R 3 -10 R 4 -10 R 3 -10 R 4 -9 R 4 -9 R 3 -9 R 4 -8 R 3 -8 R 4 -7 R
4 -7 R 3 -6 R 4 -4 R 3 -5 R 4 -3 R 3 -2 R 4 -1 R 4 0 R 3 2 R 4 3 R 3 4 R
4 5 R 3 7 R 4 9 R 3 9 R 4 11 R 3 13 R 4 13 R 3 15 R 4 15 R 3 15 R 4 16 R
3 16 R 4 15 R 3 14 R 4 12 R 3 12 R 4 9 R 3 7 R 4 5 R 3 3 R 4 0 R 3 -2 R
3 -4 R 4 -7 R 3 -8 R 4 -9 R 3 -11 R 4 -12 R 3 -13 R 3 -13 R 4 -13 R 3 -14 R
4 -13 R 3 -13 R 4 -12 R 3 -12 R 3 -10 R 4 -11 R 3 -9 R 3 -8 R 4 -8 R 3 -7 R
4 -6 R 3 -4 R 3 -5 R 4 -3 R 3 -3 R 3 -2 R 4 -1 R 3 -1 R 3 0 R 4 0 R 3 1 R
3 1 R 4 1 R 3 1 R 3 1 R 4 2 R 3 1 R 3 2 R 3 1 R 4 1 R 3 0 R 3 0 R 4 0 R
3 0 R 3 -1 R 3 -2 R 4 -1 R 3 -3 R 3 -3 R 4 -3 R 3 -4 R 3 -5 R 3 -5 R 4 -6 R
3 -6 R 3 -7 R 3 -7 R 3 -7 R 4 -8 R 3 -9 R 3 -8 R 3 -9 R 4 -10 R 3 -9 R
3 -10 R 3 -10 R 3 -9 R 4 -10 R 3 -10 R 3 -10 R 3 -10 R 3 -10 R 4 -10 R
3 -9 R 3 -9 R 3 -9 R 3 -8 R 3 -8 R 3 -7 R 4 -6 R 3 -6 R 3 -5 R 3 -4 R 3 -4 R
3 -2 R 3 0 R 4 0 R 3 2 R 3 4 R 3 5 R 3 7 R 3 9 R 3 11 R 3 13 R 4 15 R 3 17 R
3 20 R 3 21 R 3 23 R 3 24 R 3 25 R 3 25 R 3 25 R 3 24 R 3 23 R 3 20 R 4 16 R
3 14 R 3 9 R 3 4 R 3 1 R 3 -3 R 3 -7 R 3 -11 R 3 -12 R 3 -15 R 3 -16 R
3 -17 R 3 -17 R 3 -17 R 3 -16 R 3 -15 R 3 -15 R 3 -13 R 3 -11 R 3 -11 R
3 -9 R 3 -7 R 3 -6 R 3 -4 R 3 -3 R 3 -1 R 3 0 R 3 1 R 3 3 R 3 4 R 3 4 R
3 6 R 3 8 R 3 7 R 3 9 R 3 10 R 3 10 R 3 11 R 3 11 R 3 12 R 3 11 R 3 13 R
2 12 R 3 12 R 3 12 R 3 11 R 3 12 R 3 10 R 3 11 R 3 9 R 3 9 R 3 8 R 3 7 R
3 6 R 2 5 R 3 4 R 3 3 R 3 3 R 3 1 R 3 0 R 3 -1 R 3 -2 R 3 -2 R 2 -3 R 3 -4 R
3 -5 R 3 -5 R 3 -6 R 3 -6 R 3 -6 R 3 -7 R 2 -6 R 3 -7 R 3 -7 R 3 -7 R 3 -7 R
3 -7 R 2 -7 R 3 -6 R 3 -7 R 3 -6 R 3 -5 R 3 -6 R 2 -4 R 3 -5 R 3 -4 R 3 -3 R
3 -3 R 2 -2 R 3 -1 R 3 0 R 3 0 R 3 2 R 2 2 R 3 4 R 3 5 R 3 6 R 3 9 R 2 9 R
3 12 R 3 14 R 3 16 R 3 18 R 2 20 R 3 23 R 3 24 R 3 26 R 2 28 R 3 27 R 3 27 R
3 26 R 2 22 R 3 18 R 3 13 R 3 7 R 2 1 R 3 -4 R 3 -9 R 2 -12 R 3 -15 R
3 -17 R 3 -18 R 2 -18 R 3 -17 R 3 -16 R 3 -15 R 2 -13 R 3 -12 R 3 -10 R
2 -8 R 3 -7 R 3 -6 R 2 -4 R 3 -2 R 3 -2 R 3 0 R 2 1 R 3 2 R 3 3 R 2 4 R
3 5 R 3 6 R 2 7 R 3 8 R 3 8 R 2 9 R 3 10 R 3 11 R 2 11 R 3 12 R 3 12 R
2 13 R 3 14 R 2 14 R 3 14 R 3 15 R 2 14 R 3 15 R 3 15 R 2 15 R 3 14 R 3 14 R
2 14 R 3 12 R 2 12 R 3 10 R 3 10 R 2 8 R 3 6 R 2 5 R 3 4 R 3 2 R 2 1 R 3 0 R
2 -2 R 3 -2 R 3 -4 R 2 -5 R 3 -5 R 2 -6 R 3 -6 R 3 -6 R 2 -7 R 3 -7 R 2 -7 R
3 -6 R 2 -7 R 3 -6 R 3 -7 R 2 -6 R 3 -5 R 2 -6 R 3 -4 R 2 -5 R 3 -4 R 2 -4 R
3 -3 R 2 -3 R 3 -3 R 3 -2 R 2 -1 R 3 -1 R 2 0 R 3 0 R 2 1 R 3 2 R 2 2 R
3 4 R 2 4 R 3 6 R 2 7 R 3 8 R 2 11 R 3 12 R 2 14 R 3 17 R 2 19 R 3 21 R
2 24 R 3 26 R 2 26 R 3 25 R 2 22 R 3 18 R 2 12 R 3 4 R 2 -4 R 3 -10 R
2 -14 R 3 -17 R 2 -19 R 3 -19 R 2 -18 R 3 -17 R 2 -14 R 3 -13 R 2 -12 R
2 -9 R 3 -8 R 2 -6 R 3 -5 R 2 -4 R 3 -3 R 2 -2 R 3 -1 R 2 0 R 3 0 R 2 1 R
2 2 R 3 2 R 2 3 R 3 3 R 2 4 R 3 4 R 2 5 R 2 5 R 3 5 R 2 6 R 3 7 R 2 7 R
2 7 R 3 8 R 2 8 R 3 9 R 2 9 R 2 11 R 3 10 R 2 11 R 3 12 R 2 12 R 2 13 R
3 13 R 2 14 R 3 13 R 2 14 R 2 13 R 3 13 R 2 12 R 3 11 R 2 10 R 2 8 R 3 6 R
2 4 R 2 2 R 3 0 R 2 -2 R 2 -3 R 3 -5 R 2 -7 R 3 -8 R 2 -8 R 2 -9 R 3 -9 R
2 -10 R 2 -9 R 3 -9 R 2 -9 R 2 -9 R 3 -8 R 2 -8 R 2 -7 R 3 -7 R 2 -7 R
2 -6 R 3 -5 R 2 -5 R 2 -5 R 3 -4 R 2 -4 R 2 -3 R 3 -3 R 2 -3 R 2 -2 R 3 -2 R
2 -1 R 2 -1 R 2 0 R 3 0 R 2 1 R 2 1 R 3 3 R 2 4 R 2 4 R 3 7 R 2 8 R 2 10 R
2 12 R 3 15 R 2 19 R 2 21 R 3 25 R 2 26 R 2 25 R 2 20 R 3 13 R 2 3 R 2 -8 R
2 -16 R 3 -21 R 2 -22 R 2 -22 R 3 -21 R 2 -18 R 2 -15 R 2 -13 R 3 -11 R
2 -9 R 2 -7 R 2 -6 R 3 -5 R 2 -4 R 2 -3 R 2 -2 R 3 -2 R 2 -1 R 2 -1 R 2 0 R
2 0 R 3 1 R 2 1 R 2 1 R 2 1 R 3 2 R 2 2 R 2 2 R 2 2 R 3 2 R 2 3 R 2 3 R
2 3 R 2 3 R 3 3 R 2 4 R 2 4 R 2 4 R 2 5 R 3 5 R 2 6 R 2 6 R 2 7 R 2 8 R
3 8 R 2 9 R 2 10 R 2 11 R 2 11 R 3 13 R 2 13 R 2 13 R 2 13 R 2 13 R 2 11 R
3 10 R 2 7 R 2 4 R 2 1 R 2 -3 R 3 -5 R 2 -9 R 2 -11 R 2 -12 R 2 -14 R
2 -14 R 2 -14 R 3 -14 R 2 -13 R 2 -13 R 2 -12 R 2 -11 R 2 -11 R 3 -10 R
2 -9 R 2 -9 R 2 -8 R 2 -7 R 2 -7 R 2 -7 R 3 -6 R 2 -5 R 2 -5 R 2 -5 R 2 -5 R
2 -4 R 2 -3 R 2 -3 R 3 -3 R 2 -3 R 2 -2 R 2 -1 R 2 -1 R 2 -1 R 2 1 R 2 1 R
3 3 R 2 4 R 2 6 R 2 9 R 2 12 R 2 16 R 2 21 R 2 25 R 2 29 R 2 29 R 3 21 R
2 8 R 2 -10 R 2 -22 R 2 -29 R 2 -29 R 2 -27 R 2 -22 R 2 -19 R 2 -15 R
2 -13 R 3 -10 R 2 -9 R 2 -6 R 2 -6 R 2 -5 R 2 -3 R 2 -4 R 2 -2 R 2 -2 R
2 -2 R 2 -1 R 2 -1 R 2 0 R 2 0 R 3 -1 R 2 1 R 2 0 R 2 0 R 2 1 R 2 1 R 2 1 R
2 1 R 2 1 R 2 1 R 2 1 R 2 1 R 2 1 R 2 1 R 2 2 R 2 1 R 2 2 R 2 2 R 2 2 R
2 2 R 2 2 R 2 3 R 3 4 R 2 3 R 2 5 R 2 6 R 2 6 R 2 8 R 2 9 R 2 10 R 2 12 R
2 14 R 2 15 R 2 16 R 2 16 R 2 15 R 2 12 R 2 8 R 2 2 R 2 -4 R 2 -10 R 2 -15 R
2 -19 R 2 -20 R 2 -21 R 2 -20 R 2 -20 R 2 -19 R 2 -17 R 2 -15 R 2 -15 R
2 -13 R 2 -12 R 2 -12 R 2 -10 R 2 -10 R 2 -9 R 2 -8 R 2 -8 R 2 -7 R 2 -7 R
2 -7 R 2 -6 R 2 -6 R 2 -5 R 1 -5 R 2 -5 R 2 -5 R 2 -4 R 2 -3 R 2 -4 R 2 -2 R
2 -2 R D 23751 19262 M 2 -2 R 2 0 R 2 1 R 2 3 R 2 5 R 2 9 R 2 13 R 2 19 R
2 27 R 2 35 R 2 37 R 2 28 R 2 2 R 2 -24 R 2 -38 R 1 -39 R 2 -34 R 2 -27 R
2 -21 R 2 -16 R 2 -13 R 2 -10 R 2 -8 R 2 -7 R 2 -5 R 2 -5 R 2 -4 R 2 -3 R
2 -2 R 2 -3 R 1 -1 R 2 -1 R 2 -1 R 2 -1 R 2 0 R 2 0 R 2 0 R 2 1 R 2 1 R
2 0 R 2 2 R 1 1 R 2 1 R 2 2 R 2 1 R 2 2 R 2 1 R 2 2 R 2 1 R 2 2 R 2 1 R
2 2 R 1 1 R 2 2 R 2 1 R 2 2 R 2 1 R 2 2 R 2 1 R 2 2 R 2 2 R 1 3 R 2 3 R
2 4 R 2 5 R 2 6 R 2 8 R 2 9 R 2 13 R 1 15 R 2 18 R 2 21 R 2 23 R 2 23 R
2 19 R 2 10 R 2 -1 R 1 -12 R 2 -22 R 2 -28 R 2 -29 R 2 -28 R 2 -27 R 2 -23 R
1 -21 R 2 -19 R 2 -16 R 2 -14 R 2 -13 R 2 -12 R 2 -11 R 1 -10 R 2 -9 R
2 -8 R 2 -8 R 2 -8 R 2 -7 R 1 -7 R 2 -6 R 2 -7 R 2 -5 R 2 -6 R 2 -5 R 1 -5 R
2 -5 R 2 -4 R 2 -4 R 2 -3 R 2 -3 R 1 -2 R 2 -1 R 2 0 R 2 2 R 2 5 R 2 9 R
1 14 R 2 24 R 2 36 R 2 47 R 2 42 R 1 8 R 2 -35 R 2 -51 R 2 -45 R 2 -34 R
2 -25 R 1 -18 R 2 -13 R 2 -11 R 2 -8 R 2 -6 R 1 -5 R 2 -4 R 2 -3 R 2 -3 R
2 -2 R 1 -2 R 2 -1 R 2 0 R 2 0 R 2 0 R 1 0 R 2 1 R 2 2 R 2 1 R 2 2 R 1 3 R
2 2 R 2 3 R 2 3 R 1 4 R 2 4 R 2 4 R 2 4 R 2 4 R 1 4 R 2 5 R 2 4 R 2 5 R
1 4 R 2 4 R 2 5 R 2 4 R 2 4 R 1 4 R 2 4 R 2 3 R 2 4 R 1 3 R 2 3 R 2 4 R
2 3 R 1 4 R 2 5 R 2 4 R 2 6 R 1 8 R 2 9 R 2 12 R 2 15 R 1 20 R 2 25 R 2 31 R
2 33 R 1 28 R 2 14 R 2 -7 R 2 -25 R 1 -35 R 2 -36 R 2 -32 R 2 -27 R 1 -22 R
2 -19 R 2 -15 R 2 -13 R 1 -11 R 2 -10 R 2 -8 R 1 -8 R 2 -7 R 2 -6 R 2 -6 R
1 -5 R 2 -5 R 2 -5 R 2 -5 R 1 -4 R 2 -4 R 2 -4 R 1 -3 R 2 -4 R 2 -3 R 2 -3 R
1 -3 R 2 -2 R 2 -2 R 1 -1 R 2 -1 R 2 1 R 2 1 R 1 5 R 2 7 R 2 14 R 1 23 R
2 39 R 2 52 R 2 36 R 1 -20 R 2 -54 R 2 -47 R 1 -31 R 2 -21 R 2 -14 R 1 -10 R
2 -7 R 2 -5 R 2 -4 R 1 -3 R 2 -2 R 2 -2 R 1 -1 R 2 -1 R 2 0 R 1 0 R 2 0 R
2 1 R 1 1 R 2 1 R 2 2 R 1 2 R 2 2 R 2 3 R 1 3 R 2 4 R 2 4 R 2 4 R 1 5 R
2 5 R 2 5 R 1 6 R 2 6 R 2 6 R 1 7 R 2 7 R 2 7 R 1 7 R 2 7 R 2 8 R 1 7 R
2 8 R 2 8 R 1 7 R 2 7 R 1 7 R 2 7 R 2 7 R 1 6 R 2 6 R 2 6 R 1 6 R 2 6 R
2 6 R 1 6 R 2 6 R 2 7 R 1 8 R 2 10 R 2 13 R 1 18 R 2 23 R 2 31 R 1 37 R
2 36 R 1 16 R 2 -14 R 2 -34 R 1 -37 R 2 -31 R 2 -23 R 1 -17 R 2 -13 R
2 -10 R 1 -7 R 2 -6 R 1 -5 R 2 -4 R 2 -4 R 1 -3 R 2 -2 R 2 -3 R 1 -2 R
2 -2 R 1 -1 R 2 -2 R 2 -1 R 1 -2 R 2 -1 R 2 -1 R 1 -1 R 2 -1 R 1 0 R 2 -1 R
2 0 R 1 0 R 2 0 R 1 1 R 2 1 R 2 3 R 1 5 R 2 9 R 1 15 R 2 28 R 2 44 R 1 32 R
2 -24 R 2 -46 R 1 -31 R 2 -19 R 1 -11 R 2 -7 R 2 -5 R 1 -4 R 2 -2 R 1 -2 R
2 -1 R 1 -1 R 2 -1 R 2 0 R 1 0 R 2 0 R 1 0 R 2 0 R 2 1 R 1 1 R 2 1 R 1 1 R
2 2 R 2 1 R 1 2 R 2 2 R 1 3 R 2 2 R 1 3 R 2 4 R 2 3 R 1 4 R 2 5 R 1 4 R
2 5 R 1 6 R 2 5 R 2 6 R 1 7 R 2 7 R 1 7 R 2 7 R 1 8 R 2 8 R 2 8 R 1 8 R
2 8 R 1 9 R 2 8 R 1 8 R 2 8 R 2 8 R 1 8 R 2 7 R 1 7 R 2 7 R 1 7 R 2 6 R
1 7 R 2 7 R 2 7 R 1 10 R 2 11 R 1 16 R 2 23 R 1 32 R 2 37 R 1 20 R 2 -16 R
1 -33 R 2 -30 R 2 -21 R 1 -14 R 2 -10 R 1 -6 R 2 -4 R 1 -4 R 2 -2 R 1 -2 R
2 -1 R 1 -1 R 2 0 R 1 -1 R 2 0 R 2 0 R 1 0 R 2 0 R 1 0 R 2 0 R 1 0 R 2 1 R
1 0 R 2 0 R 1 1 R 2 0 R 1 1 R 2 0 R 1 1 R 2 1 R 1 2 R 2 2 R 1 4 R 2 7 R
2 13 R 1 25 R 2 33 R 1 -1 R 2 -33 R 1 -24 R 2 -13 R 1 -8 R 2 -5 R 1 -3 R
2 -2 R 1 -2 R 2 -1 R 1 -1 R 2 -1 R 1 -1 R 2 -1 R 1 -1 R 2 -1 R 1 -1 R 2 0 R
1 -1 R 2 0 R 1 -1 R 2 0 R 1 0 R 2 -1 R 1 0 R 2 0 R 1 0 R 2 1 R 1 0 R 2 1 R
1 0 R 2 1 R 1 1 R 2 2 R 1 1 R 2 2 R 1 2 R 2 3 R 1 2 R 2 3 R 1 4 R 2 3 R
1 4 R 2 5 R 1 4 R 1 6 R 2 5 R 1 6 R 2 6 R 1 7 R 2 7 R 1 7 R 2 7 R 1 7 R
2 7 R 1 8 R 2 7 R 1 7 R 2 7 R 1 7 R 2 7 R 1 6 R 2 7 R 1 8 R 1 10 R 2 13 R
1 21 R 2 30 R 1 28 R 2 -5 R 1 -29 R 2 -25 R 1 -16 R 2 -10 R 1 -7 R 2 -4 R
1 -4 R 1 -2 R 2 -2 R 1 -1 R 2 -2 R 1 -1 R 2 0 R 1 -1 R 2 0 R 1 0 R 2 0 R
1 0 R 1 0 R 2 0 R 1 0 R 2 1 R 1 0 R 2 0 R 1 1 R 2 0 R 1 1 R 1 1 R 2 1 R
1 1 R 2 1 R 1 2 R 2 4 R 1 8 R 2 16 R 1 23 R 1 -3 R 2 -23 R 1 -15 R 2 -8 R
1 -5 R 2 -3 R 1 -2 R 1 -2 R 2 -2 R 1 -1 R 2 -2 R 1 -2 R 2 -1 R 1 -2 R 1 -2 R
2 -2 R 1 -1 R 2 -2 R 1 -2 R 2 -2 R 1 -2 R 1 -2 R 2 -2 R 1 -2 R 2 -2 R 1 -1 R
2 -2 R 1 -2 R 1 -2 R 2 -2 R 1 -2 R 2 -1 R 1 -2 R 1 -1 R 2 -2 R 1 -1 R 2 -1 R
1 -1 R 2 -1 R 1 -1 R 1 0 R 2 0 R 1 0 R 2 0 R 1 0 R 1 1 R 2 1 R 1 2 R 2 1 R
1 3 R 1 2 R 2 3 R 1 4 R 2 3 R 1 5 R 1 5 R 2 5 R 1 5 R 2 6 R 1 6 R 1 7 R
2 6 R 1 7 R 2 7 R 1 8 R 1 9 R 2 12 R 1 18 R 2 26 R 1 22 R 1 -13 R 2 -25 R
1 -16 R 1 -10 R 2 -7 R 1 -5 R 2 -4 R 1 -3 R 1 -4 R 2 -3 R 1 -3 R 2 -3 R
1 -2 R 1 -3 R 2 -2 R 1 -2 R 1 -1 R 2 -2 R 1 -1 R 2 -1 R 1 -1 R 1 0 R 2 -1 R
1 0 R 1 0 R 2 0 R 1 1 R 2 0 R 1 1 R 1 1 R 2 1 R 1 2 R 1 4 R 2 7 R 1 15 R
2 11 R 1 -14 R 1 -13 R 2 -7 R 1 -4 R 1 -3 R 2 -2 R 1 -1 R 1 -2 R 2 -2 R
1 -2 R 2 -1 R 1 -2 R 1 -3 R 2 -2 R 1 -2 R 1 -3 R 2 -2 R 1 -3 R 1 -3 R 2 -3 R
1 -3 R 1 -3 R 2 -4 R 1 -3 R 2 -3 R 1 -4 R 1 -3 R 2 -4 R 1 -3 R 1 -4 R 2 -3 R
1 -4 R 1 -4 R 2 -3 R 1 -4 R 1 -3 R 2 -4 R 1 -3 R 1 -4 R 2 -3 R 1 -3 R 1 -3 R
2 -3 R 1 -3 R 1 -3 R 2 -2 R 1 -3 R 1 -2 R 2 -2 R 1 -1 R 1 -2 R 2 -1 R 1 -1 R
1 0 R 2 0 R 1 0 R 1 1 R 2 2 R 1 1 R 1 3 R 2 3 R 1 4 R 1 5 R 2 5 R 1 7 R
1 7 R 2 11 R 1 14 R 1 23 R 2 25 R 1 -2 R 1 -18 R 2 -10 R 1 -4 R 1 -3 R
2 -2 R 1 -3 R 1 -3 R 2 -3 R 1 -5 R 1 -4 R 2 -5 R 1 -6 R 1 -5 R 1 -5 R 2 -5 R
1 -5 R 1 -4 R 2 -4 R 1 -4 R 1 -3 R 2 -3 R 1 -3 R 1 -2 R 2 -1 R 1 -1 R 1 -1 R
D 24944 19282 M 2 0 R 1 0 R 1 0 R 1 2 R 2 2 R 1 5 R 1 11 R 2 11 R 1 -8 R
1 -9 R 2 -4 R 1 -2 R 1 0 R 1 -1 R 2 0 R 1 0 R 1 0 R 2 0 R 1 0 R 1 -1 R
2 -1 R 1 -1 R 1 -2 R 1 -1 R 2 -3 R 1 -2 R 1 -2 R 2 -3 R 1 -3 R 1 -3 R 1 -4 R
2 -4 R 1 -3 R 1 -5 R 2 -4 R 1 -4 R 1 -4 R 2 -5 R 1 -5 R 1 -4 R 1 -5 R 2 -5 R
1 -5 R 1 -5 R 1 -5 R 2 -4 R 1 -5 R 1 -5 R 2 -5 R 1 -5 R 1 -5 R 1 -4 R 2 -5 R
1 -4 R 1 -5 R 2 -4 R 1 -4 R 1 -4 R 1 -4 R 2 -4 R 1 -4 R 1 -3 R 1 -4 R 2 -3 R
1 -2 R 1 -3 R 2 -2 R 1 -1 R 1 -2 R 1 0 R 2 -1 R 1 1 R 1 1 R 1 3 R 2 4 R
1 6 R 1 12 R 2 20 R 1 18 R 1 -8 R 1 -10 R 2 -1 R 1 3 R 1 5 R 1 5 R 2 5 R
1 5 R 1 3 R 1 1 R 2 0 R 1 -2 R 1 -3 R 1 -5 R 2 -6 R 1 -7 R 1 -7 R 1 -8 R
2 -7 R 1 -8 R 1 -7 R 1 -6 R 2 -7 R 1 -5 R 1 -5 R 1 -4 R 2 -3 R 1 -3 R 1 -2 R
1 -1 R 2 1 R 1 3 R 1 8 R 1 6 R 2 -7 R 1 -5 R 1 -2 R 1 1 R 2 1 R 1 2 R 1 3 R
1 3 R 2 3 R 1 3 R 1 3 R 1 3 R 2 3 R 1 3 R 1 2 R 1 2 R 2 2 R 1 2 R 1 1 R
1 0 R 1 1 R 2 -1 R 1 0 R 1 -2 R 1 -1 R 2 -3 R 1 -2 R 1 -3 R 1 -3 R 2 -4 R
1 -4 R 1 -5 R 1 -4 R 1 -5 R 2 -5 R 1 -5 R 1 -5 R 1 -5 R 2 -5 R 1 -6 R 1 -5 R
1 -5 R 1 -6 R 2 -5 R 1 -5 R 1 -5 R 1 -5 R 2 -5 R 1 -5 R 1 -4 R 1 -5 R 1 -5 R
2 -4 R 1 -4 R 1 -4 R 1 -4 R 2 -4 R 1 -3 R 1 -4 R 1 -3 R 1 -3 R 2 -2 R 1 -3 R
1 -2 R 1 -1 R 1 -1 R 2 0 R 1 1 R 1 4 R 1 10 R 2 14 R 1 -4 R 1 -11 R 1 -4 R
1 0 R 2 3 R 1 4 R 1 6 R 1 7 R 1 9 R 2 9 R 1 10 R 1 9 R 1 10 R 1 8 R 2 7 R
1 5 R 1 2 R 1 -1 R 1 -3 R 2 -6 R 1 -7 R 1 -9 R 1 -9 R 1 -9 R 2 -9 R 1 -8 R
1 -8 R 1 -7 R 1 -6 R 2 -4 R 1 -3 R 1 0 R 1 3 R 1 -4 R 2 -7 R 1 -4 R 1 -1 R
1 0 R 1 0 R 1 2 R 2 2 R 1 3 R 1 3 R 1 4 R 1 5 R 2 5 R 1 5 R 1 5 R 1 6 R
1 6 R 2 7 R 1 6 R 1 7 R 1 6 R 1 7 R 1 6 R 2 6 R 1 5 R 1 5 R 1 5 R 1 4 R
2 3 R 1 2 R 1 2 R 1 1 R 1 0 R 1 0 R 2 -2 R 1 -2 R 1 -2 R 1 -4 R 1 -3 R
1 -4 R 2 -5 R 1 -4 R 1 -5 R 1 -5 R 1 -5 R 2 -5 R 1 -5 R 1 -5 R 1 -4 R 1 -5 R
1 -5 R 2 -4 R 1 -5 R 1 -4 R 1 -4 R 1 -4 R 1 -3 R 2 -4 R 1 -3 R 1 -3 R 1 -3 R
1 -3 R 1 -3 R 2 -2 R 1 -2 R 1 -2 R 1 -1 R 1 -1 R 1 0 R 1 2 R 2 6 R 1 7 R
1 -5 R 1 -8 R 1 -4 R 1 -2 R 2 0 R 1 1 R 1 1 R 1 3 R 1 3 R 1 4 R 2 5 R 1 6 R
1 7 R 1 8 R 1 10 R 1 11 R 1 11 R 2 13 R 1 13 R 1 12 R 1 10 R 1 8 R 1 4 R
2 0 R 1 -3 R 1 -6 R 1 -8 R 1 -9 R 1 -9 R 1 -8 R 2 -7 R 1 -4 R 1 -6 R 1 -9 R
1 -7 R 1 -5 R 1 -4 R 2 -2 R 1 -1 R 1 -1 R 1 0 R 1 1 R 1 1 R 1 2 R 2 2 R
1 3 R 1 4 R 1 4 R 1 4 R 1 5 R 1 5 R 1 6 R 2 6 R 1 7 R 1 6 R 1 8 R 1 7 R
1 8 R 1 8 R 2 9 R 1 8 R 1 9 R 1 9 R 1 9 R 1 8 R 1 8 R 1 8 R 2 7 R 1 6 R
1 5 R 1 4 R 1 4 R 1 2 R 1 1 R 1 0 R 2 -1 R 1 -2 R 1 -3 R 1 -3 R 1 -4 R
1 -5 R 1 -4 R 1 -5 R 2 -5 R 1 -5 R 1 -4 R 1 -5 R 1 -4 R 1 -5 R 1 -4 R 1 -4 R
2 -3 R 1 -4 R 1 -3 R 1 -3 R 1 -2 R 1 -3 R 1 -2 R 1 -2 R 1 -2 R 2 -1 R 1 0 R
1 1 R 1 3 R 1 1 R 1 -5 R 1 -5 R 1 -2 R 2 -1 R 1 -1 R 1 0 R 1 0 R 1 0 R 1 1 R
1 1 R 1 1 R 1 1 R 1 2 R 2 3 R 1 3 R 1 3 R 1 5 R 1 5 R 1 6 R 1 8 R 1 8 R
1 11 R 2 11 R 1 13 R 1 14 R 1 13 R 1 12 R 1 8 R 1 5 R 1 0 R 1 -3 R 1 -7 R
2 -11 R 1 -11 R 1 -10 R 1 -8 R 1 -8 R 1 -6 R 1 -5 R 1 -4 R 1 -3 R 1 -2 R
2 -1 R 1 -1 R 1 0 R 1 1 R 1 1 R 1 1 R 1 2 R 1 2 R 1 3 R 1 3 R 1 4 R 2 3 R
1 5 R 1 4 R 1 5 R 1 5 R 1 5 R 1 6 R 1 6 R 1 6 R 1 7 R 1 7 R 2 7 R 1 7 R
1 8 R 1 8 R 1 8 R 1 9 R 1 9 R 1 9 R 1 9 R 1 9 R 1 8 R 1 8 R 2 7 R 1 6 R
1 5 R 1 3 R 1 2 R 1 0 R 1 -1 R 1 -2 R 1 -3 R 1 -5 R 1 -4 R 1 -6 R 1 -5 R
2 -6 R 1 -6 R 1 -5 R 1 -5 R 1 -5 R 1 -5 R 1 -4 R 1 -5 R 1 -3 R 1 -4 R 1 -3 R
1 -2 R 1 -2 R 2 0 R 1 -1 R 1 -4 R 1 -4 R 1 -3 R 1 -2 R 1 -2 R 1 -1 R 1 -1 R
1 -1 R 1 -1 R 1 -1 R 1 -1 R 1 0 R 1 -1 R 2 0 R 1 0 R 1 0 R 1 0 R 1 1 R 1 1 R
1 1 R 1 1 R 1 2 R 1 2 R 1 3 R 1 4 R 1 5 R 1 5 R 1 8 R 1 8 R 2 11 R 1 13 R
1 12 R 1 12 R 1 10 R 1 6 R 1 0 R 1 -4 R 1 -9 R 1 -10 R 1 -11 R 1 -10 R
1 -8 R 1 -8 R 1 -5 R 1 -5 R 1 -4 R 2 -3 R 1 -2 R 1 -1 R 1 -1 R 1 0 R 1 0 R
1 0 R 1 1 R 1 1 R 1 2 R 1 1 R 1 2 R 1 3 R 1 2 R 1 3 R 1 3 R 1 4 R 1 3 R
1 4 R 1 4 R 1 4 R 2 5 R 1 5 R 1 4 R 1 5 R 1 6 R 1 5 R 1 6 R 1 6 R 1 6 R
1 7 R 1 7 R 1 8 R 1 7 R 1 9 R 1 8 R 1 8 R 1 9 R 1 8 R 1 7 R 1 5 R 1 5 R
1 2 R 1 0 R 1 -2 R 2 -3 R 1 -6 R 1 -6 R 1 -7 R 1 -7 R 1 -7 R 1 -8 R 1 -6 R
1 -7 R 1 -6 R 1 -5 R 1 -4 R 1 -4 R 1 -6 R 1 -5 R 1 -5 R 1 -4 R 1 -4 R 1 -3 R
1 -3 R 1 -3 R 1 -3 R 1 -2 R 1 -3 R 1 -2 R 1 -2 R 1 -2 R 1 -2 R 1 -2 R 1 -1 R
1 -2 R 1 -1 R 1 -2 R 2 -1 R 1 -1 R 1 -1 R 1 -1 R 1 0 R 1 -1 R 1 0 R 1 0 R
1 1 R 1 1 R 1 2 R 1 1 R 1 3 R 1 3 R 1 6 R 1 7 R 1 9 R 1 11 R 1 12 R 1 11 R
1 7 R 1 0 R 1 -7 R 1 -11 R 1 -12 R 1 -12 R 1 -11 R 1 -9 R 1 -7 R 1 -6 R
1 -5 R 1 -4 R 1 -3 R 1 -2 R 1 -2 R 1 -2 R 1 -1 R 1 -1 R 1 -1 R 1 0 R 1 0 R
1 0 R 1 1 R 1 1 R 1 1 R 1 1 R 1 2 R 1 1 R 1 2 R 1 3 R 1 2 R 1 3 R 1 3 R
1 3 R 1 3 R 1 3 R 1 4 R 1 3 R 1 4 R 1 4 R 1 4 R 1 5 R 1 4 R 1 5 R 1 5 R
1 6 R 1 6 R 1 6 R 1 7 R 1 7 R 1 8 R 1 9 R 1 8 R 1 8 R 1 7 R 1 5 R 1 2 R
1 -1 R 1 -3 R 1 -6 R 1 -8 R 1 -9 R 1 -9 R 1 -9 R 1 -10 R 1 -9 R 1 -9 R
1 -7 R 1 -7 R 1 -7 R 1 -6 R 1 -5 R 1 -5 R 1 -5 R 1 -4 R 1 -4 R 1 -4 R 1 -4 R
1 -3 R 1 -3 R 1 -4 R 1 -3 R 1 -3 R 1 -2 R 1 -3 R 1 -3 R 1 -2 R 1 -3 R 1 -2 R
1 -3 R 1 -2 R 1 -2 R 1 -2 R 1 -1 R 1 -3 R 1 -2 R 1 -1 R 1 -2 R 1 -1 R 1 -1 R
1 0 R 1 0 R 1 1 R 1 2 R 1 3 R 1 5 R 1 8 R 1 10 R D 25791 19253 M 1 11 R
1 11 R 1 6 R 1 -4 R 1 -11 R 1 -14 R 1 -15 R 1 -12 R 1 -11 R 1 -9 R 1 -7 R
1 -6 R 1 -5 R 0 -4 R 1 -3 R 1 -3 R 1 -3 R 1 -3 R 1 -2 R 1 -1 R 1 -2 R 1 -1 R
1 -1 R 1 -1 R 1 -1 R 1 0 R 1 0 R 1 0 R 1 1 R 1 1 R 1 1 R 1 1 R 1 1 R 1 2 R
1 2 R 1 2 R 1 3 R 1 3 R 1 2 R 1 4 R 1 3 R 1 3 R 1 4 R 1 3 R 1 4 R 1 4 R
1 4 R 1 4 R 0 4 R 1 5 R 1 5 R 1 6 R 1 6 R 1 8 R 1 8 R 1 9 R 1 10 R 1 10 R
1 8 R 1 5 R 1 1 R 1 -4 R 1 -7 R 1 -10 R 1 -12 R 1 -12 R 1 -12 R 1 -11 R
1 -9 R 1 -9 R 1 -8 R 1 -7 R 1 -6 R 1 -6 R 0 -5 R 1 -5 R 1 -5 R 1 -4 R 1 -4 R
1 -4 R 1 -4 R 1 -3 R 1 -3 R 1 -3 R 1 -4 R 1 -3 R 1 -2 R 1 -3 R 1 -3 R 1 -2 R
1 -3 R 1 -3 R 1 -3 R 1 -2 R 1 -3 R 0 -2 R 1 -2 R 1 -3 R 1 -2 R 1 -2 R 1 -1 R
1 -2 R 1 -1 R 1 0 R 1 0 R 1 1 R 1 3 R 1 5 R 1 7 R 1 11 R 1 12 R 1 9 R 1 0 R
1 -10 R 1 -16 R 0 -16 R 1 -14 R 1 -11 R 1 -8 R 1 -8 R 1 -6 R 1 -5 R 1 -4 R
1 -4 R 1 -3 R 1 -4 R 1 -2 R 1 -3 R 1 -2 R 1 -2 R 1 -2 R 1 -2 R 0 -2 R 1 -1 R
1 -1 R 1 -1 R 1 0 R 1 -1 R 1 0 R 1 1 R 1 0 R 1 1 R 1 1 R 1 2 R 1 1 R 1 2 R
1 3 R 1 2 R 0 3 R 1 4 R 1 3 R 1 4 R 1 4 R 1 4 R 1 4 R 1 4 R 1 5 R 1 4 R
1 5 R 1 5 R 1 5 R 1 5 R 1 6 R 0 6 R 1 7 R 1 8 R 1 10 R 1 11 R 1 11 R 1 11 R
1 9 R 1 2 R 1 -3 R 1 -10 R 1 -12 R 1 -14 R 1 -13 R 0 -12 R 1 -10 R 1 -8 R
1 -7 R 1 -7 R 1 -5 R 1 -5 R 1 -4 R 1 -4 R 1 -4 R 1 -3 R 1 -3 R 1 -2 R 0 -3 R
1 -2 R 1 -2 R 1 -2 R 1 -3 R 1 -2 R 1 -1 R 1 -2 R 1 -2 R 1 -2 R 1 -2 R 1 -1 R
0 -2 R 1 -2 R 1 -1 R 1 -2 R 1 -1 R 1 -2 R 1 -1 R 1 -1 R 1 -1 R 1 -1 R 1 -1 R
1 0 R 0 1 R 1 2 R 1 4 R 1 7 R 1 10 R 1 12 R 1 10 R 1 1 R 1 -11 R 1 -16 R
1 -14 R 1 -12 R 0 -9 R 1 -7 R 1 -6 R 1 -4 R 1 -4 R 1 -4 R 1 -3 R 1 -2 R
1 -3 R 1 -2 R 1 -2 R 0 -2 R 1 -2 R 1 -2 R 1 -1 R 1 -2 R 1 -1 R 1 -1 R 1 0 R
1 -1 R 1 0 R 1 0 R 1 0 R 1 1 R 1 1 R 1 1 R 1 2 R 1 2 R 1 2 R 1 3 R 1 3 R
0 3 R 1 4 R 1 4 R 1 4 R 1 5 R 1 5 R 1 5 R 1 6 R 1 5 R 1 6 R 1 5 R 0 6 R
1 6 R 1 5 R 1 6 R 1 7 R 1 6 R 1 8 R 1 9 R 1 11 R 1 12 R 0 13 R 1 13 R 1 8 R
1 0 R 1 -7 R 1 -13 R 1 -13 R 1 -13 R 1 -10 R 0 -8 R 1 -7 R 1 -5 R 1 -4 R
1 -4 R 1 -2 R 1 -2 R 1 -2 R 1 -2 R 1 -1 R 0 -1 R 1 0 R 1 -1 R 1 0 R 1 -1 R
1 0 R 1 0 R 1 0 R 1 0 R 1 0 R 1 0 R 1 0 R 1 0 R 1 0 R 1 0 R 1 0 R 1 0 R
1 0 R 1 0 R 1 0 R 1 1 R 1 0 R 1 1 R 1 2 R 1 2 R 0 4 R 1 7 R 1 9 R 1 12 R
1 8 R 1 -3 R 1 -12 R 1 -13 R 0 -10 R 1 -7 R 1 -5 R 1 -5 R 1 -3 R 1 -3 R
1 -2 R 1 -2 R 1 -2 R 0 -1 R 1 -2 R 1 -1 R 1 -1 R 1 -1 R 1 -1 R 1 -1 R 1 -1 R
0 -1 R 1 -1 R 1 0 R 1 0 R 1 -1 R 1 0 R 1 0 R 1 0 R 0 1 R 1 0 R 1 1 R 1 1 R
1 2 R 1 1 R 1 2 R 1 2 R 0 3 R 1 3 R 1 3 R 1 3 R 1 4 R 1 4 R 1 5 R 1 5 R
0 6 R 1 5 R 1 6 R 1 7 R 1 6 R 1 6 R 1 7 R 1 6 R 0 7 R 1 7 R 1 6 R 1 8 R
1 8 R 1 9 R 1 12 R 0 13 R 1 13 R 1 9 R 1 0 R 1 -8 R 1 -13 R 1 -11 R 1 -10 R
0 -7 R 1 -6 R 1 -4 R 1 -3 R 1 -2 R 1 -1 R 1 -1 R 0 -1 R 1 0 R 1 0 R 1 1 R
1 0 R 1 1 R 1 1 R 1 2 R 0 1 R 1 1 R 1 2 R 1 1 R 1 2 R 1 1 R 1 2 R 0 1 R
1 2 R 1 1 R 1 1 R 1 2 R 1 1 R 1 1 R 0 1 R 1 1 R 1 1 R 1 1 R 1 2 R 1 1 R
1 2 R 0 3 R 1 5 R 1 6 R 1 9 R 1 8 R 1 1 R 1 -7 R 0 -10 R 1 -7 R 1 -6 R
1 -4 R 1 -2 R 1 -2 R 1 -2 R 0 -2 R 1 -1 R 1 -1 R 1 -1 R 1 -1 R 1 -1 R 1 -1 R
0 -1 R 1 -1 R 1 -1 R 1 0 R 1 -1 R 1 -1 R 1 -1 R 1 0 R 1 0 R 1 -1 R 1 0 R
1 0 R 1 0 R 1 1 R 1 0 R 1 1 R 1 0 R 1 1 R 0 1 R 1 2 R 1 1 R 1 2 R 1 2 R
1 3 R 0 3 R 1 3 R 1 3 R 1 4 R 1 5 R 1 4 R 1 5 R 0 6 R 1 6 R 1 6 R 1 6 R
1 6 R 1 7 R 0 6 R 1 7 R 1 7 R 1 8 R 1 8 R 1 11 R 0 12 R 1 10 R 1 4 R 1 -5 R
1 -10 R 1 -11 R 0 -9 R 1 -6 R 1 -5 R 1 -4 R 1 -3 R 1 -2 R 1 -1 R 0 -1 R
1 -1 R 1 0 R 1 0 R 1 1 R 1 1 R 0 1 R 1 1 R 1 2 R 1 1 R 1 2 R 1 2 R 0 2 R
1 2 R 1 3 R 1 2 R 1 2 R 1 2 R 0 2 R 1 2 R 1 2 R 1 2 R 1 1 R 1 2 R 0 1 R
1 2 R 1 1 R 1 2 R 1 2 R 1 2 R 0 3 R 1 4 R 1 7 R 1 6 R 1 0 R 1 -6 R 0 -7 R
1 -5 R 1 -4 R 1 -3 R 1 -3 R 1 -1 R 0 -2 R 1 -2 R 1 -1 R 1 -2 R 1 -1 R 0 -2 R
1 -1 R 1 -1 R 1 -2 R 1 -1 R 1 -1 R 0 -2 R 1 -1 R 1 -1 R 1 -1 R 1 -2 R 1 -1 R
0 -1 R 1 -1 R 1 -1 R 1 -1 R 1 0 R 1 -1 R 0 -1 R 1 -1 R 1 0 R 1 -1 R 1 0 R
1 0 R 1 0 R 1 0 R 1 0 R 1 1 R 0 1 R 1 1 R 1 1 R 1 1 R 1 2 R 0 3 R 1 2 R
1 3 R 1 3 R 1 4 R 1 5 R 0 4 R 1 5 R 1 6 R 1 6 R 1 6 R 0 6 R 1 8 R 1 7 R
1 10 R 1 10 R 1 10 R 0 4 R 1 -5 R 1 -10 R 1 -9 R 1 -8 R 0 -6 R 1 -5 R 1 -4 R
1 -4 R 1 -3 R 0 -3 R 1 -2 R 1 -2 R 1 -1 R 1 -1 R 1 -1 R 1 0 R 1 0 R 1 1 R
1 1 R 0 1 R 1 2 R 1 2 R 1 2 R 1 2 R 0 2 R 1 2 R 1 2 R 1 3 R 1 2 R 1 2 R
0 2 R 1 2 R 1 2 R 1 2 R 1 2 R 0 2 R 1 1 R 1 3 R 1 2 R 1 4 R 0 5 R 1 3 R
1 -2 R 1 -5 R 1 -5 R 0 -4 R 1 -3 R 1 -3 R 1 -3 R 1 -2 R 0 -2 R 1 -2 R 1 -3 R
1 -2 R 1 -2 R 0 -3 R 1 -2 R 1 -2 R 1 -3 R 1 -2 R 0 -2 R 1 -3 R 1 -2 R 1 -2 R
1 -2 R 0 -3 R 1 -2 R 1 -2 R 1 -2 R 1 -2 R 0 -2 R 1 -2 R 1 -2 R 1 -2 R 1 -2 R
0 -1 R 1 -2 R 1 -2 R 1 -1 R 1 -2 R 0 -1 R 1 -1 R 1 -1 R 1 -1 R 1 -1 R 0 -1 R
1 -1 R 1 0 R 1 0 R 1 0 R 1 1 R 1 0 R 1 2 R 1 1 R 0 2 R 1 3 R 1 3 R 1 4 R
1 4 R 0 5 R 1 6 R 1 7 R 1 8 R 0 10 R 1 10 R 1 9 R 1 2 R 1 -6 R 0 -7 R 1 -6 R
1 -6 R 1 -6 R 1 -5 R 0 -5 R 1 -5 R 1 -5 R 1 -4 R 1 -4 R 0 -4 R 1 -3 R 1 -3 R
1 -3 R 0 -2 R 1 -1 R 1 -2 R 1 0 R 1 -1 R 1 1 R 1 1 R 1 1 R 1 1 R 0 2 R 1 2 R
1 2 R 1 2 R 1 3 R 0 2 R 1 3 R 1 3 R 1 2 R 0 3 R 1 3 R 1 3 R 1 3 R 1 4 R D
26455 19255 M 0 4 R 1 5 R 1 0 R 1 -3 R 0 -3 R 1 -3 R 1 -3 R 1 -2 R 1 -2 R
0 -2 R 1 -3 R 1 -2 R 1 -3 R 1 -3 R 0 -3 R 1 -3 R 1 -4 R 1 -3 R 0 -3 R 1 -4 R
1 -3 R 1 -4 R 1 -3 R 0 -4 R 1 -3 R 1 -3 R 1 -4 R 0 -3 R 1 -3 R 1 -3 R 1 -4 R
1 -3 R 0 -3 R 1 -3 R 1 -2 R 1 -3 R 0 -3 R 1 -3 R 1 -2 R 1 -3 R 0 -2 R 1 -2 R
1 -3 R 1 -2 R 1 -2 R 0 -2 R 1 -2 R 1 -1 R 1 -2 R 0 -2 R 1 -1 R 1 -1 R 1 -1 R
1 -1 R 1 -1 R 1 0 R 1 1 R 0 1 R 1 1 R 1 2 R 1 2 R 0 4 R 1 5 R 1 6 R 1 8 R
1 10 R 0 10 R 1 5 R 1 -1 R 1 -2 R 0 -1 R 1 -2 R 1 -2 R 1 -4 R 0 -4 R 1 -5 R
1 -5 R 1 -6 R 1 -6 R 0 -6 R 1 -6 R 1 -5 R 1 -5 R 0 -4 R 1 -4 R 1 -3 R 1 -2 R
0 -3 R 1 -1 R 1 -2 R 1 0 R 0 -1 R 1 0 R 1 1 R 1 1 R 1 1 R 0 2 R 1 2 R 1 2 R
1 3 R 0 3 R 1 3 R 1 4 R 1 4 R 0 4 R 1 6 R 1 6 R 1 6 R 0 3 R 1 1 R 1 0 R
1 1 R 1 1 R 1 0 R 1 0 R 1 0 R 0 -1 R 1 -2 R 1 -2 R 1 -2 R 0 -3 R 1 -3 R
1 -3 R 1 -4 R 0 -4 R 1 -4 R 1 -4 R 1 -4 R 0 -4 R 1 -5 R 1 -4 R 1 -4 R 0 -4 R
1 -4 R 1 -4 R 1 -4 R 0 -4 R 1 -4 R 1 -4 R 1 -3 R 0 -4 R 1 -3 R 1 -3 R 1 -3 R
0 -3 R 1 -3 R 1 -3 R 1 -3 R 0 -3 R 1 -2 R 1 -3 R 1 -2 R 0 -2 R 1 -2 R 1 -2 R
1 -2 R 0 -2 R 1 -2 R 1 -1 R 1 -2 R 0 -1 R 1 -1 R 1 -1 R 1 0 R 0 -1 R 1 0 R
1 1 R 1 1 R 0 1 R 1 3 R 1 4 R 1 6 R 0 7 R 1 8 R 1 3 R 1 1 R 0 1 R 1 3 R
1 4 R 1 4 R 0 3 R 1 2 R 1 0 R 1 -3 R 0 -4 R 1 -5 R 1 -6 R 1 -7 R 0 -7 R
1 -6 R 1 -6 R 1 -5 R 0 -5 R 1 -4 R 1 -3 R 1 -3 R 0 -3 R 1 -2 R 1 -1 R 1 -1 R
0 -1 R 1 0 R 1 1 R 1 1 R 0 1 R 1 2 R 1 2 R 1 2 R 0 3 R 1 4 R 1 4 R 1 6 R
0 6 R 1 6 R 1 5 R 0 3 R 1 3 R 1 4 R 1 5 R 0 5 R 1 4 R 1 5 R 1 4 R 0 4 R
1 3 R 1 3 R 1 2 R 0 1 R 1 0 R 1 0 R 1 -2 R 0 -2 R 1 -2 R 1 -3 R 1 -4 R
0 -4 R 1 -4 R 1 -4 R 0 -4 R 1 -5 R 1 -4 R 1 -4 R 0 -4 R 1 -5 R 1 -4 R 1 -3 R
0 -4 R 1 -4 R 1 -3 R 1 -4 R 0 -3 R 1 -3 R 1 -3 R 0 -2 R 1 -3 R 1 -2 R 1 -3 R
0 -2 R 1 -2 R 1 -2 R 1 -2 R 0 -2 R 1 -2 R 1 -1 R 1 -2 R 0 -1 R 1 -1 R 1 -1 R
0 -1 R 1 -1 R 1 -1 R 1 -1 R 1 0 R 1 0 R 1 0 R 0 1 R 1 2 R 1 3 R 0 4 R 1 5 R
1 3 R 1 0 R 1 2 R 1 3 R 1 5 R 0 6 R 1 6 R 1 7 R 0 7 R 1 5 R 1 3 R 1 1 R
0 -2 R 1 -4 R 1 -6 R 1 -6 R 0 -6 R 1 -7 R 1 -5 R 0 -5 R 1 -4 R 1 -4 R 1 -3 R
0 -2 R 1 -2 R 1 -2 R 1 0 R 0 -1 R 1 0 R 1 1 R 0 1 R 1 1 R 1 1 R 1 3 R 0 2 R
1 3 R 1 4 R 0 5 R 1 4 R 1 4 R 1 3 R 0 3 R 1 5 R 1 5 R 0 5 R 1 6 R 1 7 R
1 6 R 0 7 R 1 7 R 1 7 R 1 7 R 0 6 R 1 6 R 1 6 R 0 5 R 1 4 R 1 3 R 1 2 R
0 1 R 1 0 R 1 -1 R 0 -2 R 1 -3 R 1 -3 R 1 -4 R 0 -4 R 1 -4 R 1 -4 R 0 -4 R
1 -4 R 1 -4 R 1 -4 R 0 -3 R 1 -4 R 1 -3 R 0 -3 R 1 -2 R 1 -3 R 1 -2 R 0 -2 R
1 -2 R 1 -2 R 0 -2 R 1 -2 R 1 -1 R 1 -1 R 0 -2 R 1 -1 R 1 -1 R 0 -1 R 1 -1 R
1 0 R 1 -1 R 1 -1 R 1 0 R 1 0 R 1 0 R 1 0 R 1 1 R 1 2 R 0 2 R 1 3 R 1 2 R
1 -1 R 1 0 R 1 1 R 0 2 R 1 2 R 1 4 R 0 5 R 1 5 R 1 7 R 1 7 R 0 8 R 1 7 R
1 6 R 0 3 R 1 1 R 1 -3 R 1 -4 R 0 -6 R 1 -6 R 1 -6 R 0 -5 R 1 -5 R 1 -4 R
0 -2 R 1 -3 R 1 -2 R 1 -1 R 1 -1 R 1 0 R 0 1 R 1 1 R 1 1 R 1 1 R 0 2 R 1 3 R
1 3 R 0 2 R 1 2 R 1 2 R 0 3 R 1 3 R 1 4 R 1 4 R 0 4 R 1 5 R 1 5 R 0 6 R
1 5 R 1 7 R 0 6 R 1 7 R 1 7 R 1 7 R 0 7 R 1 8 R 1 8 R 0 7 R 1 7 R 1 6 R
0 6 R 1 5 R 1 3 R 1 2 R 0 1 R 1 -1 R 1 -2 R 0 -3 R 1 -3 R 1 -4 R 0 -4 R
1 -4 R 1 -4 R 1 -4 R 0 -4 R 1 -3 R 1 -4 R 0 -3 R 1 -2 R 1 -3 R 0 -2 R 1 -2 R
1 -2 R 0 -2 R 1 -1 R 1 -2 R 1 -1 R 0 -1 R 1 -1 R 1 -1 R 1 -1 R 1 -1 R 1 -1 R
1 0 R 1 -1 R 1 0 R 1 0 R 1 1 R 1 1 R 0 1 R 1 1 R 1 1 R 0 -1 R 1 -1 R 1 0 R
1 0 R 1 1 R 1 1 R 0 1 R 1 2 R 1 3 R 0 3 R 1 4 R 1 5 R 0 5 R 1 7 R 1 7 R
0 7 R 1 5 R 1 1 R 1 -1 R 0 -4 R 1 -6 R 1 -6 R 0 -6 R 1 -5 R 1 -5 R 0 -3 R
1 -3 R 1 -2 R 0 -2 R 1 -1 R 1 -1 R 1 0 R 1 0 R 1 1 R 0 1 R 1 1 R 1 0 R 0 1 R
1 1 R 1 1 R 0 2 R 1 2 R 1 2 R 0 3 R 1 3 R 1 3 R 0 3 R 1 4 R 1 3 R 0 5 R
1 4 R 1 5 R 1 5 R 0 5 R 1 5 R 1 6 R 0 6 R 1 7 R 1 6 R 0 7 R 1 8 R 1 7 R
0 7 R 1 7 R 1 6 R 0 5 R 1 4 R 1 3 R 1 -1 R 1 -3 R 0 -3 R 1 -4 R 1 -5 R
0 -5 R 1 -4 R 1 -5 R 1 -4 R 0 -4 R 1 -3 R 1 -3 R 0 -3 R 1 -3 R 1 -2 R 0 -2 R
1 -2 R 1 -2 R 0 -1 R 1 -2 R 1 -1 R 0 -1 R 1 -1 R 1 -1 R 0 -1 R 1 -1 R 1 0 R
0 -1 R 1 0 R 1 -1 R 1 0 R 1 0 R 1 0 R 1 -1 R 0 -1 R 1 -1 R 1 -1 R 0 -1 R
1 0 R 1 0 R 1 -1 R 1 0 R 1 0 R 0 1 R 1 0 R 1 1 R 0 2 R 1 2 R 1 3 R 0 4 R
1 5 R 1 5 R 0 6 R 1 5 R 1 2 R 0 -2 R 1 -4 R 1 -7 R 0 -7 R 1 -6 R 1 -5 R
0 -5 R 1 -4 R 1 -3 R 0 -3 R 1 -2 R 1 -1 R 0 -1 R 1 -1 R 1 -1 R 0 -1 R 1 -1 R
1 -1 R 1 -1 R 1 1 R 1 0 R 1 1 R 0 1 R 1 1 R 1 1 R 0 1 R 1 2 R 1 2 R 0 2 R
1 3 R 1 2 R 0 3 R 1 3 R 1 4 R 0 4 R 1 4 R 1 4 R 0 4 R 1 5 R 1 5 R 0 5 R
1 6 R 1 6 R 0 6 R 1 7 R 1 7 R 0 6 R 1 7 R 1 5 R 0 4 R 1 1 R 1 0 R 0 -2 R
1 -4 R 1 -5 R 0 -6 R 1 -6 R 1 -6 R 0 -5 R 1 -5 R 1 -4 R 0 -4 R 1 -4 R 1 -3 R
0 -3 R 1 -3 R 1 -2 R 0 -2 R 1 -2 R 1 -2 R 0 -2 R 1 -1 R 0 -1 R 1 -2 R 1 -1 R
0 -1 R 1 -1 R 1 -1 R 0 -1 R 1 0 R 1 -1 R 1 -2 R 1 -1 R 0 -2 R 1 -1 R 1 -1 R
0 -1 R 1 -1 R 1 -1 R 0 -1 R 1 -1 R 1 -1 R 0 -1 R 1 -1 R 1 0 R 0 -1 R 1 0 R
1 -1 R 0 1 R 1 0 R 1 2 R 0 2 R 1 3 R 1 5 R 0 4 R 1 4 R 0 2 R 1 -3 R 1 -6 R
0 -7 R 1 -8 R 1 -6 R 0 -6 R 1 -5 R 1 -4 R 0 -3 R 1 -3 R 1 -3 R 0 -3 R 1 -2 R
1 -2 R 0 -2 R 1 -2 R 1 -2 R 0 -1 R 1 -2 R 1 -1 R 0 -1 R 1 -1 R 1 0 R 0 -1 R
1 0 R 1 0 R 1 0 R 1 1 R 1 1 R 0 1 R 1 1 R 1 2 R 0 2 R 1 2 R 1 2 R D
27006 19161 M 0 3 R 1 3 R 1 4 R 0 3 R 1 4 R 1 4 R 0 4 R 1 5 R 0 5 R 1 5 R
1 6 R 0 6 R 1 6 R 1 7 R 0 6 R 1 5 R 1 3 R 0 1 R 1 -2 R 1 -5 R 0 -6 R 1 -7 R
1 -7 R 0 -6 R 1 -6 R 0 -6 R 1 -5 R 1 -4 R 0 -4 R 1 -3 R 1 -3 R 0 -3 R 1 -2 R
1 -3 R 0 -2 R 1 -1 R 1 -2 R 0 -2 R 1 -1 R 0 -1 R 1 -1 R 1 -1 R 0 -1 R 1 -1 R
1 -2 R 0 -1 R 1 -1 R 1 -2 R 0 -1 R 1 -1 R 1 -1 R 0 -1 R 1 -1 R 0 -2 R 1 -1 R
1 -1 R 0 -1 R 1 -2 R 1 -1 R 0 -1 R 1 -1 R 1 -1 R 0 -1 R 1 -1 R 1 0 R 1 0 R
0 2 R 1 2 R 1 4 R 0 4 R 1 3 R 1 0 R 0 -5 R 1 -6 R 1 -8 R 0 -7 R 1 -7 R
0 -5 R 1 -5 R 1 -4 R 0 -4 R 1 -3 R 1 -3 R 0 -3 R 1 -3 R 1 -2 R 0 -3 R 1 -2 R
0 -2 R 1 -2 R 1 -2 R 0 -2 R 1 -1 R 1 -2 R 0 -1 R 1 -2 R 1 -1 R 0 -1 R 1 0 R
0 -1 R 1 0 R 1 -1 R 1 1 R 1 0 R 0 1 R 1 1 R 1 2 R 0 1 R 1 2 R 0 3 R 1 2 R
1 3 R 0 3 R 1 4 R 1 4 R 0 4 R 1 4 R 1 5 R 0 5 R 1 5 R 0 6 R 1 6 R 1 7 R
0 7 R 1 6 R 1 4 R 0 1 R 1 -2 R 0 -5 R 1 -7 R 1 -7 R 0 -8 R 1 -6 R 1 -6 R
0 -6 R 1 -4 R 1 -4 R 0 -4 R 1 -3 R 0 -2 R 1 -2 R 1 -2 R 0 -2 R 1 -1 R 1 -1 R
0 -1 R 1 -1 R 0 -1 R 1 -1 R 1 -1 R 0 -1 R 1 0 R 1 -1 R 1 -1 R 1 -1 R 1 0 R
0 -1 R 1 0 R 1 -1 R 0 -1 R 1 -1 R 1 -1 R 1 -1 R 0 -1 R 1 -1 R 1 -1 R 1 -1 R
0 -1 R 1 0 R 1 0 R 0 1 R 1 2 R 1 2 R 0 4 R 1 3 R 0 2 R 1 -2 R 1 -6 R 0 -7 R
1 -7 R 1 -6 R 0 -5 R 1 -5 R 0 -3 R 1 -4 R 1 -3 R 0 -3 R 1 -2 R 1 -3 R 0 -2 R
1 -2 R 0 -2 R 1 -2 R 1 -2 R 0 -2 R 1 -2 R 1 -1 R 0 -2 R 1 -1 R 0 -2 R 1 -1 R
1 -1 R 0 -1 R 1 -1 R 1 0 R 0 -1 R 1 0 R 1 0 R 1 0 R 1 1 R 0 1 R 1 2 R 1 2 R
0 2 R 1 2 R 1 3 R 0 3 R 1 4 R 0 3 R 1 5 R 1 4 R 0 5 R 1 5 R 1 5 R 0 6 R
1 6 R 0 7 R 1 7 R 1 7 R 0 7 R 1 5 R 0 1 R 1 -2 R 1 -6 R 0 -7 R 1 -8 R 1 -6 R
0 -6 R 1 -5 R 0 -4 R 1 -4 R 1 -2 R 0 -3 R 1 -1 R 0 -2 R 1 -1 R 1 -1 R 1 -1 R
1 0 R 1 0 R 0 1 R 1 0 R 1 1 R 1 1 R 0 1 R 1 0 R 1 1 R 0 1 R 1 1 R 1 0 R
0 1 R 1 0 R 0 1 R 1 0 R 1 0 R 1 1 R 1 0 R 1 0 R 1 0 R 1 0 R 1 1 R 0 2 R
1 2 R 1 3 R 0 4 R 1 2 R 0 -1 R 1 -4 R 1 -6 R 0 -5 R 1 -5 R 0 -4 R 1 -3 R
1 -3 R 0 -2 R 1 -2 R 0 -2 R 1 -2 R 1 -1 R 0 -2 R 1 -1 R 0 -2 R 1 -1 R 1 -1 R
0 -1 R 1 -2 R 1 -1 R 0 -1 R 1 -1 R 1 -1 R 1 -1 R 1 -1 R 1 -1 R 1 0 R 1 0 R
0 1 R 1 0 R 1 1 R 0 1 R 1 1 R 0 1 R 1 2 R 1 2 R 0 2 R 1 3 R 0 3 R 1 3 R
1 4 R 0 4 R 1 5 R 0 4 R 1 6 R 1 5 R 0 6 R 1 7 R 1 6 R 0 7 R 1 8 R 0 8 R
1 6 R 1 4 R 1 -4 R 0 -6 R 1 -7 R 1 -6 R 0 -5 R 1 -4 R 0 -3 R 1 -3 R 1 -2 R
0 -2 R 1 -1 R 0 -1 R 1 0 R 1 -1 R 0 1 R 1 0 R 0 1 R 1 1 R 1 2 R 0 1 R 1 2 R
0 1 R 1 2 R 1 2 R 0 2 R 1 2 R 0 2 R 1 2 R 1 2 R 0 2 R 1 2 R 0 2 R 1 1 R
1 2 R 0 1 R 1 1 R 0 1 R 1 1 R 1 1 R 0 1 R 1 1 R 0 1 R 1 0 R 1 2 R 0 1 R
1 2 R 0 3 R 1 3 R 1 2 R 0 -1 R 1 -3 R 0 -4 R 1 -4 R 0 -3 R 1 -3 R 1 -2 R
0 -2 R 1 -1 R 0 -2 R 1 -1 R 1 -1 R 0 -1 R 1 -1 R 0 -1 R 1 -1 R 1 -1 R 0 -1 R
1 0 R 0 -1 R 1 -1 R 1 0 R 0 -1 R 1 0 R 0 -1 R 1 0 R 1 0 R 1 0 R 1 0 R 1 0 R
1 0 R 0 1 R 1 0 R 0 1 R 1 1 R 1 1 R 0 1 R 1 1 R 0 2 R 1 2 R 1 2 R 0 2 R
1 3 R 0 3 R 1 4 R 1 4 R 0 4 R 1 5 R 0 5 R 1 6 R 1 6 R 0 6 R 1 7 R 0 7 R
1 8 R 0 7 R 1 4 R 1 1 R 0 -3 R 1 -5 R 0 -6 R 1 -5 R 1 -4 R 0 -4 R 1 -3 R
0 -2 R 1 -2 R 1 -2 R 0 -1 R 1 -1 R 1 0 R 1 0 R 0 1 R 1 1 R 0 1 R 1 2 R 0 1 R
1 2 R 1 3 R 0 2 R 1 3 R 0 2 R 1 3 R 1 3 R 0 2 R 1 3 R 0 3 R 1 3 R 0 2 R
1 3 R 1 2 R 0 2 R 1 2 R 0 1 R 1 2 R 1 1 R 0 1 R 1 2 R 0 1 R 1 1 R 0 1 R
1 2 R 1 2 R 0 2 R 1 1 R 0 -1 R 1 -3 R 1 -4 R 0 -3 R 1 -2 R 0 -2 R 1 -2 R
0 -2 R 1 -1 R 1 -2 R 0 -1 R 1 -1 R 0 -1 R 1 -2 R 1 -1 R 0 -1 R 1 -1 R 0 -1 R
1 0 R 0 -1 R 1 -1 R 1 -1 R 1 -1 R 0 -1 R 1 0 R 1 -1 R 1 0 R 0 -1 R 1 0 R
1 0 R 1 0 R 1 0 R 1 0 R 1 1 R 1 1 R 1 1 R 0 1 R 1 2 R 1 1 R 0 2 R 1 2 R
0 2 R 1 3 R 0 3 R 1 4 R 1 4 R 0 5 R 1 5 R 0 6 R 1 6 R 0 7 R 1 7 R 1 7 R
0 3 R 1 1 R 0 -3 R 1 -5 R 1 -4 R 0 -4 R 1 -4 R 0 -4 R 1 -3 R 0 -3 R 1 -3 R
1 -2 R 0 -2 R 1 -1 R 0 -1 R 1 -1 R 1 0 R 1 0 R 0 1 R 1 1 R 0 1 R 1 1 R 0 2 R
1 2 R 1 2 R 0 3 R 1 2 R 0 3 R 1 3 R 0 3 R 1 3 R 1 3 R 0 3 R 1 3 R 0 3 R
1 2 R 0 3 R 1 2 R 1 2 R 0 1 R 1 2 R 0 1 R 1 2 R 0 1 R 1 1 R 1 2 R 0 1 R
1 -1 R 0 -2 R 1 -3 R 0 -3 R 1 -3 R 1 -2 R 0 -3 R 1 -2 R 0 -2 R 1 -2 R 0 -2 R
1 -2 R 1 -2 R 0 -2 R 1 -2 R 0 -2 R 1 -1 R 0 -2 R 1 -2 R 1 -1 R 0 -2 R 1 -1 R
0 -2 R 1 -1 R 0 -1 R 1 -2 R 1 -1 R 0 -1 R 1 -1 R 0 -1 R 1 -1 R 0 -1 R 1 -1 R
1 0 R 0 -1 R 1 -1 R 0 -1 R 1 0 R 0 -1 R 1 0 R 1 0 R 0 -1 R 1 0 R 1 0 R 1 0 R
1 1 R 1 1 R 0 1 R 1 2 R 0 2 R 1 2 R 0 2 R 1 4 R 1 4 R 0 4 R 1 6 R 0 6 R
1 7 R 0 5 R 1 2 R 1 0 R 0 -2 R 1 -3 R 0 -3 R 1 -4 R 0 -4 R 1 -4 R 1 -4 R
0 -3 R 1 -4 R 0 -3 R 1 -3 R 0 -3 R 1 -2 R 0 -1 R 1 -2 R 1 -1 R 0 -1 R 1 0 R
1 0 R 1 1 R 1 1 R 0 2 R 1 1 R 0 2 R 1 3 R 0 2 R 1 3 R 0 3 R 1 2 R 1 4 R
0 3 R 1 3 R 0 3 R 1 3 R 0 3 R 1 3 R 0 2 R 1 3 R 1 2 R 0 2 R 1 2 R 0 1 R
1 1 R 0 -2 R 1 -2 R 1 -3 R 0 -2 R 1 -3 R 0 -3 R 1 -3 R 0 -2 R 1 -3 R 0 -3 R
1 -3 R 1 -3 R 0 -3 R 1 -2 R 0 -3 R 1 -3 R 0 -3 R 1 -2 R 0 -3 R 1 -2 R 1 -3 R
0 -2 R 1 -2 R 0 -3 R 1 -2 R 0 -2 R 1 -2 R 0 -2 R 1 -2 R 1 -1 R 0 -2 R 1 -2 R
0 -1 R 1 -2 R 0 -1 R 1 -2 R 0 -1 R 1 -1 R 1 -2 R 0 -1 R 1 -1 R 0 -1 R 1 -1 R
0 -1 R 1 -1 R 1 -1 R 1 -1 R 1 0 R 1 0 R 1 1 R 0 1 R 1 1 R 1 2 R 0 3 R 1 4 R
0 5 R 1 5 R 0 5 R 1 3 R 0 1 R 1 0 R D 27479 19163 M 1 0 R 0 -1 R 1 -2 R
0 -3 R 1 -3 R 0 -4 R 1 -5 R 0 -4 R 1 -5 R 1 -4 R 0 -4 R 1 -3 R 0 -3 R 1 -3 R
0 -2 R 1 -2 R 0 -2 R 1 -1 R 0 -1 R 1 -1 R 1 0 R 1 0 R 1 1 R 0 1 R 1 2 R
0 1 R 1 2 R 1 3 R 0 2 R 1 3 R 0 3 R 1 4 R 0 3 R 1 4 R 0 4 R 1 4 R 0 4 R
1 4 R 1 4 R 0 4 R 1 2 R 0 1 R 1 0 R 0 -1 R 1 -1 R 0 -1 R 1 -2 R 1 -2 R
0 -2 R 1 -3 R 0 -3 R 1 -3 R 0 -4 R 1 -3 R 0 -4 R 1 -3 R 0 -4 R 1 -3 R 1 -4 R
0 -3 R 1 -3 R 0 -3 R 1 -4 R 0 -3 R 1 -2 R 0 -3 R 1 -3 R 0 -3 R 1 -2 R 1 -3 R
0 -2 R 1 -2 R 0 -2 R 1 -2 R 0 -2 R 1 -2 R 0 -2 R 1 -2 R 0 -2 R 1 -1 R 1 -2 R
0 -1 R 1 -2 R 0 -1 R 1 -2 R 0 -1 R 1 -1 R 0 -1 R 1 -1 R 0 -1 R 1 -1 R 1 -1 R
0 -1 R 1 0 R 0 -1 R 1 0 R 1 1 R 0 1 R 1 1 R 0 2 R 1 3 R 0 4 R 1 3 R 1 3 R
0 1 R 1 1 R 0 2 R 1 2 R 0 1 R 1 0 R 0 -1 R 1 -3 R 0 -3 R 1 -5 R 1 -5 R
0 -5 R 1 -4 R 0 -5 R 1 -4 R 0 -3 R 1 -3 R 0 -3 R 1 -2 R 0 -2 R 1 -2 R 0 -1 R
1 -1 R 1 -1 R 1 -1 R 0 1 R 1 0 R 0 1 R 1 1 R 0 1 R 1 2 R 0 2 R 1 2 R 0 3 R
1 3 R 1 3 R 0 4 R 1 4 R 0 4 R 1 5 R 0 6 R 1 5 R 0 5 R 1 4 R 0 3 R 1 3 R
0 3 R 1 3 R 1 2 R 0 1 R 1 0 R 1 -2 R 0 -1 R 1 -3 R 0 -3 R 1 -3 R 0 -3 R
1 -4 R 0 -3 R 1 -4 R 1 -4 R 0 -3 R 1 -4 R 0 -3 R 1 -3 R 0 -3 R 1 -3 R 0 -3 R
1 -3 R 0 -3 R 1 -2 R 0 -3 R 1 -2 R 0 -2 R 1 -2 R 1 -2 R 0 -2 R 1 -2 R 0 -1 R
1 -2 R 0 -1 R 1 -2 R 0 -1 R 1 -1 R 0 -1 R 1 -2 R 0 -1 R 1 -1 R 0 -1 R 1 -1 R
1 -1 R 1 -1 R 0 -1 R 1 0 R 0 -1 R 1 0 R 0 -1 R 1 0 R 0 1 R 1 0 R 0 1 R 1 2 R
0 2 R 1 2 R 1 2 R 0 1 R 1 0 R 0 2 R 1 2 R 0 3 R 1 4 R 0 3 R 1 2 R 0 1 R
1 -1 R 0 -3 R 1 -3 R 0 -5 R 1 -5 R 0 -4 R 1 -5 R 1 -3 R 0 -4 R 1 -3 R 0 -2 R
1 -2 R 0 -2 R 1 -1 R 0 -1 R 1 -1 R 0 -1 R 1 0 R 1 0 R 0 1 R 1 0 R 0 1 R
1 1 R 1 2 R 0 2 R 1 2 R 0 3 R 1 2 R 0 4 R 1 3 R 0 5 R 1 4 R 0 5 R 1 5 R
0 4 R 1 5 R 0 5 R 1 6 R 0 5 R 1 6 R 1 5 R 0 5 R 1 5 R 0 3 R 1 3 R 0 2 R
1 0 R 1 -1 R 0 -2 R 1 -3 R 0 -3 R 1 -3 R 0 -3 R 1 -3 R 0 -4 R 1 -3 R 0 -3 R
1 -3 R 0 -2 R 1 -3 R 1 -2 R 0 -3 R 1 -2 R 0 -2 R 1 -1 R 0 -2 R 1 -1 R 0 -2 R
1 -1 R 0 -1 R 1 -1 R 0 -1 R 1 -1 R 0 -1 R 1 -1 R 1 -1 R 1 -1 R 1 -1 R 1 0 R
1 -1 R 1 0 R 1 0 R 1 0 R 1 1 R 1 1 R 0 2 R 1 1 R 0 1 R 1 1 R 1 0 R 0 2 R
1 2 R 0 2 R 1 3 R 1 4 R 0 4 R 1 4 R 0 2 R 1 1 R 0 -1 R 1 -3 R 0 -3 R 1 -5 R
0 -4 R 1 -4 R 0 -3 R 1 -3 R 0 -2 R 1 -2 R 0 -2 R 1 -1 R 0 -1 R 1 -1 R 1 0 R
1 0 R 1 1 R 1 1 R 1 2 R 0 1 R 1 2 R 0 2 R 1 2 R 0 3 R 1 3 R 0 3 R 1 3 R
0 4 R 1 3 R 0 4 R 1 4 R 0 5 R 1 5 R 0 6 R 1 5 R 0 7 R 1 6 R 0 6 R 1 7 R
0 6 R 1 5 R 0 5 R 1 4 R 0 3 R 1 1 R 1 0 R 0 -1 R 1 -1 R 0 -3 R 1 -2 R 0 -3 R
1 -3 R 0 -3 R 1 -3 R 0 -2 R 1 -3 R 0 -2 R 1 -2 R 0 -2 R 1 -1 R 0 -2 R 1 -1 R
0 -1 R 1 -1 R 0 -1 R 1 0 R 0 -1 R 1 0 R 0 -1 R 1 0 R 1 0 R 1 0 R 1 0 R 1 0 R
1 0 R 0 1 R 1 0 R 1 0 R 1 1 R 1 0 R 0 1 R 1 1 R 0 1 R 1 1 R 1 0 R 1 0 R
0 1 R 1 1 R 0 1 R 1 1 R 0 3 R 1 2 R 0 3 R 1 4 R 0 4 R 1 3 R 0 2 R 1 0 R
0 -2 R 1 -4 R 0 -3 R 1 -4 R 0 -4 R 1 -3 R 0 -2 R 1 -2 R 0 -2 R 1 -2 R 0 -1 R
1 -1 R 1 -1 R 1 0 R 1 0 R 0 1 R 1 0 R 0 1 R 1 1 R 1 1 R 0 1 R 1 1 R 0 2 R
1 2 R 0 1 R 1 2 R 0 2 R 1 3 R 0 3 R 1 3 R 0 3 R 1 4 R 0 4 R 1 4 R 0 5 R
1 5 R 0 5 R 1 6 R 0 6 R 1 6 R 0 7 R 1 6 R 0 6 R 1 5 R 0 4 R 1 3 R 0 1 R
1 0 R 0 -1 R 1 -2 R 0 -3 R 1 -3 R 0 -3 R 1 -3 R 0 -3 R 1 -2 R 0 -3 R 1 -2 R
0 -2 R 1 -1 R 0 -2 R 1 -1 R 0 -1 R 1 -1 R 1 -1 R 1 -1 R 1 0 R 1 0 R 1 0 R
0 1 R 1 0 R 1 0 R 1 1 R 1 0 R 0 1 R 1 0 R 1 1 R 1 1 R 1 0 R 1 0 R 0 -1 R
1 0 R 1 1 R 1 1 R 1 2 R 0 1 R 1 3 R 0 2 R 1 3 R 0 3 R 1 2 R 1 -2 R 0 -3 R
1 -4 R 0 -4 R 1 -4 R 0 -3 R 1 -2 R 0 -2 R 1 -2 R 0 -2 R 1 -1 R 0 -2 R 1 -1 R
1 -1 R 0 -1 R 1 0 R 0 -1 R 1 0 R 1 0 R 1 0 R 0 1 R 1 0 R 1 1 R 0 1 R 1 1 R
0 1 R 1 1 R 0 2 R 1 2 R 0 2 R 1 2 R 0 3 R 1 3 R 0 3 R 1 4 R 0 3 R 1 5 R
0 4 R 1 5 R 0 5 R 1 6 R 0 5 R 1 6 R 0 5 R 1 5 R 0 4 R 1 2 R 1 -1 R 0 -2 R
1 -3 R 0 -4 R 1 -3 R 0 -4 R 1 -3 R 0 -3 R 1 -3 R 0 -2 R 1 -2 R 0 -2 R 1 -2 R
0 -1 R 1 -1 R 0 -1 R 1 -1 R 0 -1 R 1 0 R 1 -1 R 1 0 R 1 0 R 1 0 R 1 0 R
1 0 R 1 0 R 1 1 R 1 0 R 1 -1 R 1 -1 R 1 -1 R 1 -1 R 1 0 R 0 -1 R 1 0 R 0 1 R
1 0 R 0 2 R 1 1 R 0 2 R 1 2 R 0 1 R 1 -1 R 0 -2 R 1 -3 R 0 -4 R 1 -4 R
0 -4 R 1 -3 R 0 -3 R 1 -3 R 0 -2 R 1 -2 R 0 -2 R 1 -2 R 0 -1 R 1 -2 R 0 -1 R
1 -1 R 0 -1 R 1 -1 R 0 -1 R 1 -1 R 0 -1 R 1 -1 R 0 -1 R 1 0 R 0 -1 R 1 0 R
1 -1 R 1 0 R 0 1 R 1 0 R 0 1 R 1 1 R 0 1 R 1 1 R 0 2 R 1 2 R 0 2 R 1 3 R
0 3 R 0 3 R 1 3 R 0 4 R 1 4 R 0 5 R 1 4 R 0 5 R 1 5 R 0 5 R 1 4 R 0 2 R
1 1 R 0 -1 R 1 -3 R 0 -3 R 1 -5 R 0 -4 R 1 -4 R 0 -4 R 1 -3 R 0 -4 R 1 -2 R
0 -3 R 1 -2 R 0 -2 R 1 -1 R 0 -2 R 1 -1 R 0 -1 R 1 -1 R 0 -1 R 1 0 R 1 -1 R
1 0 R 1 0 R 0 -1 R 1 1 R 1 0 R 1 0 R 1 -1 R 1 -1 R 1 -1 R 0 -1 R 1 0 R
0 -1 R 1 -1 R 1 -1 R 0 -1 R 1 -1 R 1 -1 R 1 0 R 1 1 R 0 1 R 1 1 R 0 -1 R
1 -3 R 0 -4 R 1 -4 R 0 -4 R 1 -4 R 0 -3 R 1 -3 R 0 -3 R 1 -2 R 0 -3 R 1 -2 R
0 -2 R 1 -2 R 0 -2 R 1 -1 R 0 -2 R 1 -1 R 0 -2 R 1 -1 R 0 -2 R 1 -1 R 0 -2 R
1 -1 R 0 -1 R 1 -1 R 0 -1 R 0 -1 R 1 -1 R 1 -1 R 1 -1 R 1 0 R 0 1 R 1 0 R
0 1 R 1 1 R 0 1 R 1 2 R 0 2 R 1 2 R 0 3 R 1 2 R 0 4 R 1 3 R 0 4 R 1 5 R
0 4 R 1 5 R 0 5 R 0 4 R 1 2 R 0 1 R 1 -1 R 0 -3 R 1 -4 R 0 -5 R 1 -5 R
0 -4 R 1 -4 R 0 -4 R 1 -3 R D 27910 19100 M 0 -3 R 1 -3 R 0 -2 R 1 -2 R
0 -2 R 1 -1 R 0 -1 R 1 -1 R 0 -1 R 1 0 R 0 -1 R 1 0 R 1 0 R 1 0 R 0 1 R
1 0 R 0 1 R 1 0 R 1 0 R 1 0 R 1 0 R 0 -1 R 1 0 R 1 -1 R 0 -1 R 1 -1 R 1 -1 R
0 -1 R 1 -1 R 1 -1 R 1 0 R 0 1 R 1 1 R 1 0 R 0 -2 R 1 -3 R 0 -4 R 1 -4 R
0 -4 R 0 -4 R 1 -3 R 0 -2 R 1 -3 R 0 -2 R 1 -2 R 0 -2 R 1 -2 R 0 -2 R 1 -2 R
0 -2 R 1 -1 R 0 -2 R 1 -2 R 0 -1 R 1 -1 R 0 -2 R 1 -1 R 0 -1 R 0 -1 R 1 -1 R
0 -1 R 1 -1 R 0 -1 R 1 -1 R 0 -1 R 1 0 R 0 -1 R 1 0 R 1 0 R 1 1 R 1 1 R
0 1 R 0 2 R 1 2 R 0 2 R 1 2 R 0 3 R 1 3 R 0 4 R 1 4 R 0 4 R 1 5 R 0 5 R
1 5 R 0 4 R 1 3 R 0 1 R 1 -1 R 0 -3 R 0 -4 R 1 -5 R 0 -4 R 1 -5 R 0 -3 R
1 -4 R 0 -3 R 1 -3 R 0 -2 R 1 -2 R 0 -1 R 1 -2 R 0 -1 R 1 0 R 0 -1 R 1 0 R
0 1 R 1 0 R 0 1 R 1 0 R 0 1 R 1 1 R 0 2 R 1 1 R 0 1 R 1 1 R 0 1 R 1 1 R
0 1 R 1 1 R 0 1 R 1 1 R 1 0 R 0 1 R 1 0 R 1 -1 R 1 0 R 1 -1 R 1 0 R 1 1 R
0 1 R 1 0 R 0 -1 R 1 -3 R 0 -3 R 1 -3 R 0 -3 R 1 -3 R 0 -3 R 1 -2 R 0 -2 R
1 -2 R 0 -2 R 0 -1 R 1 -2 R 0 -1 R 1 -2 R 0 -1 R 1 -2 R 0 -1 R 1 -1 R 0 -1 R
1 -1 R 0 -1 R 1 -1 R 0 -1 R 1 -1 R 0 -1 R 1 0 R 0 -1 R 1 0 R 0 -1 R 1 0 R
1 0 R 1 0 R 0 1 R 1 0 R 0 1 R 1 1 R 0 1 R 1 1 R 0 2 R 1 2 R 0 2 R 1 3 R
0 3 R 1 4 R 0 3 R 1 5 R 0 5 R 0 5 R 1 5 R 0 6 R 1 4 R 0 3 R 1 1 R 0 -1 R
1 -3 R 0 -4 R 1 -4 R 0 -3 R 1 -4 R 0 -3 R 0 -3 R 1 -2 R 0 -2 R 1 -2 R 0 -1 R
1 -1 R 0 -1 R 1 0 R 1 0 R 1 1 R 0 1 R 0 2 R 1 1 R 0 2 R 1 1 R 0 2 R 1 2 R
0 2 R 1 2 R 0 3 R 1 2 R 0 2 R 0 2 R 1 2 R 0 2 R 1 2 R 0 1 R 1 1 R 0 2 R
1 1 R 0 1 R 1 0 R 0 1 R 1 0 R 0 1 R 1 0 R 0 1 R 1 0 R 0 1 R 1 0 R 0 1 R
1 -1 R 0 -1 R 1 -2 R 0 -3 R 0 -2 R 1 -3 R 0 -2 R 1 -1 R 0 -2 R 1 -1 R 0 -2 R
1 -1 R 0 -1 R 1 -1 R 0 -1 R 1 -1 R 0 -1 R 0 -1 R 1 -1 R 1 -1 R 0 -1 R 1 0 R
1 -1 R 1 0 R 0 -1 R 1 0 R 1 0 R 1 0 R 0 1 R 1 0 R 1 1 R 0 1 R 1 1 R 0 1 R
1 1 R 0 1 R 1 2 R 0 2 R 1 2 R 0 2 R 1 3 R 0 3 R 0 3 R 1 4 R 0 4 R 1 5 R
0 6 R 1 5 R 0 6 R 1 4 R 0 2 R 1 1 R 0 -2 R 0 -2 R 1 -3 R 0 -3 R 1 -3 R
0 -2 R 1 -3 R 0 -2 R 1 -2 R 0 -1 R 1 -2 R 0 -1 R 1 -1 R 1 1 R 1 1 R 0 1 R
1 1 R 0 2 R 1 1 R 0 2 R 0 3 R 1 2 R 0 3 R 1 2 R 0 3 R 1 3 R 0 3 R 1 3 R
0 3 R 0 3 R 1 3 R 0 2 R 1 2 R 0 3 R 1 2 R 0 1 R 1 2 R 0 1 R 1 1 R 0 1 R
0 1 R 1 0 R 0 1 R 1 1 R 1 1 R 0 -1 R 1 -1 R 0 -2 R 0 -2 R 1 -2 R 0 -2 R
1 -2 R 0 -1 R 1 -2 R 0 -1 R 1 -1 R 0 -1 R 1 -2 R 0 -1 R 0 -1 R 1 -1 R 1 -1 R
0 -1 R 1 -1 R 1 -1 R 0 -1 R 1 0 R 1 0 R 0 -1 R 1 0 R 1 0 R 1 0 R 1 0 R 0 1 R
1 0 R 1 1 R 1 1 R 0 1 R 1 1 R 0 1 R 1 1 R 0 2 R 1 1 R 0 2 R 1 2 R 0 3 R
0 3 R 1 4 R 0 4 R 1 4 R 0 5 R 1 5 R 0 4 R 1 3 R 0 1 R 1 -1 R 0 -2 R 1 -2 R
0 -2 R 1 -3 R 0 -2 R 1 -3 R 0 -2 R 0 -2 R 1 -1 R 0 -1 R 1 -1 R 0 -1 R 1 -1 R
1 0 R 1 1 R 0 1 R 0 1 R 1 1 R 0 2 R 1 1 R 0 2 R 1 3 R 0 2 R 1 3 R 0 3 R
0 2 R 1 4 R 0 3 R 1 3 R 0 3 R 1 3 R 0 4 R 0 2 R 1 3 R 0 3 R 1 2 R 0 2 R
1 1 R 0 2 R 1 1 R 0 1 R 0 1 R 1 0 R 1 0 R 0 -2 R 1 -1 R 0 -2 R 1 -2 R 0 -2 R
0 -2 R 1 -2 R 0 -2 R 1 -2 R 0 -1 R 1 -2 R 0 -1 R 1 -2 R 0 -1 R 0 -2 R 1 -1 R
0 -1 R 1 -1 R 0 -2 R 1 -1 R 0 -1 R 1 0 R 0 -1 R 0 -1 R 1 -1 R 1 -1 R 0 -1 R
1 0 R 0 -1 R 1 0 R 0 -1 R 1 0 R 1 -1 R 1 0 R 1 0 R 1 0 R 1 0 R 0 1 R 1 0 R
0 1 R 1 1 R 0 2 R 1 1 R 0 2 R 1 2 R 0 3 R 1 3 R 0 4 R 0 4 R 1 3 R 0 3 R
1 1 R 1 0 R 0 -1 R 0 -2 R 1 -2 R 0 -2 R 1 -3 R 0 -3 R 1 -2 R 0 -3 R 1 -2 R
0 -2 R 0 -2 R 1 -1 R 0 -1 R 1 -1 R 0 -1 R 1 -1 R 1 0 R 0 1 R 1 1 R 1 2 R
0 1 R 1 2 R 0 1 R 0 2 R 1 3 R 0 2 R 1 3 R 0 3 R 1 3 R 0 3 R 0 3 R 1 4 R
0 3 R 1 3 R 0 3 R 1 3 R 0 2 R 1 2 R 0 2 R 0 2 R 1 1 R 1 0 R 0 -2 R 1 -1 R
0 -2 R 0 -2 R 1 -3 R 0 -2 R 1 -2 R 0 -2 R 1 -2 R 0 -3 R 0 -2 R 1 -2 R 0 -2 R
1 -2 R 0 -2 R 1 -2 R 0 -2 R 1 -2 R 0 -2 R 0 -1 R 1 -2 R 0 -1 R 1 -2 R 0 -1 R
1 -2 R 0 -1 R 0 -1 R 1 -1 R 0 -1 R 1 -1 R 0 -1 R 1 -1 R 0 -1 R 0 -1 R 1 -1 R
1 -1 R 0 -1 R 1 -1 R 1 -1 R 0 -1 R 1 -1 R 1 0 R 0 -1 R 1 0 R 1 0 R 1 0 R
0 1 R 1 1 R 0 2 R 0 2 R 1 2 R 0 3 R 1 2 R 0 1 R 1 1 R 0 1 R 1 0 R 0 -1 R
1 -2 R 0 -2 R 1 -3 R 0 -3 R 0 -3 R 1 -4 R 0 -3 R 1 -2 R 0 -3 R 1 -2 R 0 -2 R
0 -2 R 1 -1 R 0 -1 R 1 -1 R 0 -1 R 1 -1 R 1 0 R 1 1 R 1 1 R 0 2 R 1 1 R
0 2 R 0 2 R 1 2 R 0 2 R 1 3 R 0 3 R 1 3 R 0 3 R 0 4 R 1 3 R 0 4 R 1 3 R
0 4 R 1 3 R 0 2 R 0 2 R 1 1 R 1 -1 R 0 -1 R 1 -2 R 0 -2 R 0 -2 R 1 -2 R
0 -3 R 1 -2 R 0 -3 R 1 -3 R 0 -2 R 0 -3 R 1 -3 R 0 -2 R 1 -3 R 0 -2 R 1 -2 R
0 -3 R 0 -2 R 1 -2 R 0 -2 R 1 -2 R 0 -2 R 1 -1 R 0 -2 R 0 -2 R 1 -1 R 0 -2 R
1 -1 R 0 -1 R 1 -2 R 0 -1 R 0 -1 R 1 -1 R 0 -1 R 1 -1 R 0 -1 R 0 -1 R 1 -1 R
0 -1 R 1 -1 R 0 -1 R 1 -1 R 0 -1 R 1 -1 R 0 -1 R 1 0 R 0 -1 R 1 -1 R 1 0 R
1 0 R 0 1 R 1 1 R 0 1 R 0 1 R 1 1 R 0 1 R 1 1 R 1 1 R 0 1 R 1 -2 R 0 -2 R
1 -2 R 0 -4 R 1 -3 R 0 -4 R 0 -3 R 1 -4 R 0 -3 R 1 -2 R 0 -3 R 1 -2 R 0 -2 R
0 -1 R 1 -2 R 0 -1 R 1 -1 R 0 -1 R 1 -1 R 1 0 R 1 0 R 0 1 R 0 1 R 1 1 R
0 1 R 1 2 R 0 1 R 1 2 R 0 3 R 0 3 R 1 3 R 0 3 R 1 4 R 0 4 R 1 4 R 0 4 R
0 4 R 1 4 R 0 3 R 1 2 R 0 2 R 0 1 R 1 1 R 1 -1 R 0 -1 R 1 -2 R 0 -3 R 0 -2 R
1 -3 R 0 -3 R 1 -2 R 0 -3 R 1 -3 R 0 -3 R 0 -2 R 1 -3 R 0 -2 R 1 -2 R 0 -3 R
0 -2 R 1 -2 R 0 -2 R 1 -1 R 0 -2 R 1 -2 R 0 -1 R 0 -2 R 1 -1 R 0 -1 R 1 -1 R
0 -1 R 1 -1 R 0 -1 R D 28288 19041 M 0 -1 R 1 -1 R 0 -1 R 1 -1 R 0 -1 R
1 -1 R 0 -1 R 1 0 R 0 -1 R 1 -1 R 0 -1 R 1 0 R 0 -1 R 1 0 R 0 -1 R 1 -1 R
1 0 R 0 1 R 1 0 R 0 1 R 1 0 R 0 1 R 1 0 R 0 1 R 1 1 R 0 1 R 0 1 R 1 1 R
1 -1 R 0 -2 R 0 -3 R 1 -4 R 0 -3 R 1 -3 R 0 -4 R 1 -3 R 0 -2 R 0 -3 R 1 -2 R
0 -1 R 1 -2 R 0 -1 R 0 -2 R 1 -1 R 1 -1 R 0 -1 R 1 0 R 1 0 R 1 1 R 0 1 R
0 1 R 1 1 R 0 1 R 1 2 R 0 2 R 1 2 R 0 3 R 0 3 R 1 4 R 0 3 R 1 4 R 0 5 R
0 4 R 1 4 R 0 4 R 1 5 R 0 4 R 1 3 R 0 4 R 0 2 R 1 1 R 0 1 R 1 -1 R 0 -1 R
0 -1 R 1 -3 R 0 -2 R 1 -2 R 0 -3 R 0 -2 R 1 -3 R 0 -2 R 1 -2 R 0 -2 R 1 -2 R
0 -2 R 0 -2 R 1 -1 R 0 -2 R 1 -1 R 0 -1 R 0 -1 R 1 -1 R 0 -1 R 1 -1 R 0 -1 R
1 0 R 0 -1 R 1 -1 R 1 0 R 0 -1 R 1 0 R 1 0 R 1 0 R 1 0 R 1 0 R 0 -1 R 1 0 R
0 1 R 1 0 R 1 1 R 1 1 R 1 0 R 0 1 R 1 0 R 0 2 R 1 1 R 0 2 R 0 2 R 1 0 R
1 -1 R 0 -2 R 0 -2 R 1 -3 R 0 -3 R 1 -3 R 0 -3 R 1 -2 R 0 -2 R 0 -1 R 1 -2 R
0 -1 R 1 -1 R 0 -1 R 0 -1 R 1 0 R 0 -1 R 1 0 R 1 0 R 1 0 R 0 1 R 0 1 R 1 0 R
0 2 R 1 1 R 0 1 R 1 2 R 0 2 R 0 2 R 1 3 R 0 3 R 1 3 R 0 3 R 0 4 R 1 4 R
0 4 R 1 4 R 0 5 R 0 5 R 1 5 R 0 5 R 1 5 R 0 3 R 0 3 R 1 2 R 0 1 R 1 0 R
0 -1 R 1 -1 R 0 -2 R 0 -2 R 1 -2 R 0 -2 R 1 -2 R 0 -2 R 0 -2 R 1 -2 R 0 -1 R
1 -1 R 0 -1 R 0 -1 R 1 -1 R 0 -1 R 1 0 R 0 -1 R 1 0 R 1 0 R 1 0 R 0 1 R
1 0 R 1 1 R 0 1 R 1 0 R 0 1 R 1 0 R 0 1 R 1 1 R 1 1 R 0 1 R 1 0 R 0 1 R
1 0 R 0 1 R 1 1 R 1 0 R 0 1 R 1 0 R 0 1 R 1 1 R 0 1 R 1 2 R 0 1 R 0 2 R
1 1 R 0 1 R 1 0 R 0 -2 R 0 -2 R 1 -2 R 0 -2 R 1 -3 R 0 -2 R 0 -2 R 1 -1 R
0 -1 R 1 -2 R 0 -1 R 1 -1 R 1 -1 R 1 0 R 1 0 R 1 1 R 1 1 R 0 1 R 0 1 R 1 1 R
0 1 R 1 2 R 0 1 R 0 2 R 1 2 R 0 2 R 1 3 R 0 2 R 0 3 R 1 4 R 0 4 R 1 4 R
0 4 R 1 5 R 0 5 R 0 5 R 1 5 R 0 4 R 1 4 R 0 3 R 0 2 R 1 1 R 1 -2 R 0 -1 R
0 -2 R 1 -2 R 0 -2 R 1 -2 R 0 -2 R 0 -1 R 1 -1 R 0 -2 R 1 -1 R 0 -1 R 1 -1 R
1 0 R 1 0 R 1 1 R 0 1 R 1 0 R 0 1 R 1 0 R 0 1 R 0 1 R 1 0 R 0 1 R 1 1 R
0 1 R 1 1 R 0 1 R 1 0 R 0 1 R 1 1 R 0 1 R 1 0 R 0 1 R 1 1 R 1 0 R 1 0 R
0 1 R 1 0 R 0 1 R 0 1 R 1 1 R 0 1 R 1 2 R 0 1 R 0 1 R 1 -1 R 0 -1 R 1 -1 R
0 -3 R 0 -2 R 1 -2 R 0 -2 R 1 -1 R 0 -2 R 0 -1 R 1 -1 R 0 -1 R 1 -1 R 0 -1 R
1 -1 R 1 -1 R 1 0 R 1 0 R 1 0 R 1 1 R 0 1 R 1 1 R 1 1 R 0 2 R 0 1 R 1 1 R
0 2 R 1 2 R 0 3 R 0 2 R 1 3 R 0 3 R 0 4 R 1 4 R 0 4 R 1 4 R 0 5 R 0 4 R
1 4 R 0 3 R 1 3 R 0 1 R 1 -2 R 0 -1 R 1 -2 R 0 -3 R 0 -2 R 1 -2 R 0 -2 R
1 -2 R 0 -1 R 0 -2 R 1 -1 R 0 -1 R 1 -1 R 0 -1 R 1 0 R 1 0 R 1 1 R 1 1 R
0 1 R 1 0 R 0 1 R 1 1 R 0 1 R 1 0 R 0 1 R 1 1 R 0 1 R 1 0 R 0 1 R 1 0 R
0 1 R 1 0 R 1 0 R 0 -1 R 1 0 R 1 0 R 1 0 R 0 1 R 1 0 R 0 1 R 1 1 R 0 -1 R
1 -1 R 0 -2 R 1 -2 R 0 -3 R 0 -2 R 1 -2 R 0 -2 R 1 -1 R 0 -2 R 0 -1 R 1 -1 R
0 -1 R 0 -1 R 1 -1 R 0 -1 R 1 -1 R 0 -1 R 0 -1 R 1 0 R 0 -1 R 1 0 R 0 -1 R
1 0 R 0 -1 R 1 0 R 1 0 R 0 -1 R 1 1 R 1 1 R 0 1 R 1 1 R 0 1 R 1 2 R 0 1 R
0 2 R 1 3 R 0 2 R 1 3 R 0 4 R 0 3 R 1 4 R 0 4 R 1 3 R 0 3 R 0 3 R 1 1 R
0 -1 R 1 -1 R 0 -2 R 0 -3 R 1 -2 R 0 -3 R 0 -3 R 1 -2 R 0 -2 R 1 -2 R 0 -2 R
0 -2 R 1 -1 R 0 -1 R 1 -1 R 0 -1 R 1 -1 R 1 0 R 1 1 R 1 1 R 1 1 R 0 1 R
1 0 R 0 1 R 1 0 R 0 1 R 1 0 R 0 1 R 1 0 R 1 -1 R 1 -1 R 1 -1 R 0 -1 R 1 0 R
0 -1 R 1 0 R 0 -1 R 1 0 R 1 0 R 0 -1 R 1 -2 R 0 -3 R 0 -2 R 1 -3 R 0 -2 R
1 -2 R 0 -2 R 0 -2 R 1 -2 R 0 -2 R 1 -1 R 0 -2 R 0 -1 R 1 -2 R 0 -1 R 1 -1 R
0 -1 R 0 -1 R 1 -1 R 0 -1 R 0 -1 R 1 -1 R 0 -1 R 1 0 R 0 -1 R 0 -1 R 1 -1 R
1 -1 R 0 -1 R 1 0 R 1 0 R 1 0 R 0 1 R 1 1 R 0 1 R 1 1 R 0 2 R 0 2 R 1 2 R
0 3 R 0 3 R 1 3 R 0 3 R 1 3 R 0 3 R 0 2 R 1 1 R 1 -2 R 0 -2 R 0 -3 R 1 -3 R
0 -3 R 0 -3 R 1 -3 R 0 -2 R 1 -3 R 0 -2 R 0 -2 R 1 -1 R 0 -2 R 1 -1 R 0 -1 R
0 -1 R 1 0 R 0 -1 R 1 0 R 0 1 R 1 0 R 0 1 R 1 0 R 0 1 R 1 1 R 0 1 R 1 1 R
0 1 R 1 1 R 1 0 R 0 1 R 1 -1 R 1 0 R 0 -1 R 1 0 R 0 -1 R 0 -1 R 1 -1 R
1 -1 R 0 -1 R 1 -1 R 0 -1 R 1 0 R 0 -1 R 1 -2 R 0 -2 R 0 -3 R 1 -2 R 0 -3 R
1 -3 R 0 -2 R 0 -2 R 1 -2 R 0 -2 R 0 -2 R 1 -1 R 0 -2 R 1 -2 R 0 -1 R 0 -1 R
1 -2 R 0 -1 R 1 -1 R 0 -1 R 0 -1 R 1 -1 R 0 -1 R 0 -1 R 1 -1 R 0 -1 R 1 -1 R
0 -1 R 1 -1 R 0 -1 R 1 -1 R 1 0 R 0 -1 R 1 0 R 1 1 R 0 1 R 1 1 R 0 1 R 0 1 R
1 2 R 0 2 R 1 2 R 0 3 R 0 3 R 1 3 R 0 3 R 0 3 R 1 2 R 0 1 R 1 0 R 0 -1 R
0 -3 R 1 -2 R 0 -3 R 0 -3 R 1 -3 R 0 -3 R 1 -3 R 0 -2 R 0 -2 R 1 -2 R 0 -2 R
1 -1 R 0 -1 R 0 -1 R 1 -1 R 0 -1 R 1 0 R 0 1 R 1 0 R 0 1 R 1 1 R 0 1 R 0 1 R
1 2 R 0 1 R 1 1 R 0 2 R 0 1 R 1 1 R 0 1 R 0 1 R 1 1 R 0 1 R 1 0 R 0 1 R
1 0 R 1 0 R 1 -1 R 0 -1 R 1 -1 R 0 -1 R 1 0 R 0 -1 R 1 0 R 0 -2 R 0 -1 R
1 -3 R 0 -2 R 0 -2 R 1 -3 R 0 -2 R 1 -2 R 0 -2 R 0 -2 R 1 -1 R 0 -2 R 1 -2 R
0 -1 R 0 -1 R 1 -2 R 0 -1 R 0 -1 R 1 -1 R 0 -1 R 1 -1 R 0 -1 R 0 -1 R 1 0 R
0 -1 R 0 -1 R 1 0 R 0 -1 R 1 -1 R 1 -1 R 1 0 R 0 -1 R 1 0 R 0 1 R 1 0 R
0 1 R 1 0 R 0 1 R 1 1 R 0 1 R 0 2 R 1 1 R 0 2 R 0 3 R 1 3 R 0 3 R 1 3 R
0 4 R 0 3 R 1 2 R 0 1 R 1 -1 R 0 -2 R 1 -2 R 0 -2 R 0 -3 R 1 -2 R 0 -3 R
0 -2 R 1 -2 R 0 -2 R 1 -1 R 0 -2 R 0 -1 R 1 -1 R 1 -1 R 0 1 R 1 1 R 1 1 R
0 2 R 0 1 R 1 2 R 0 2 R 0 2 R 1 2 R 0 2 R 1 2 R 0 2 R 0 2 R 1 2 R 0 2 R
0 2 R 1 2 R 0 1 R 1 2 R 0 1 R 0 1 R 1 1 R 1 1 R 1 0 R D 28647 19046 M 0 -1 R
1 0 R 1 -1 R 0 -1 R 1 -2 R 0 -2 R 0 -2 R 1 -2 R 0 -1 R 0 -2 R 1 -2 R 0 -1 R
0 -2 R 1 -1 R 0 -1 R 1 -1 R 0 -1 R 0 -1 R 1 -1 R 0 -1 R 0 -1 R 1 -1 R 1 -1 R
0 -1 R 1 0 R 0 -1 R 1 0 R 1 -1 R 1 0 R 1 1 R 1 0 R 0 1 R 1 0 R 0 1 R 1 1 R
0 1 R 0 1 R 1 1 R 0 1 R 1 2 R 0 2 R 0 2 R 1 2 R 0 3 R 0 3 R 1 4 R 0 3 R
1 3 R 0 2 R 0 1 R 1 1 R 0 -1 R 0 -1 R 1 -1 R 0 -2 R 0 -2 R 1 -2 R 0 -2 R
1 -2 R 0 -1 R 0 -2 R 1 -1 R 0 -1 R 1 -1 R 1 0 R 1 1 R 0 1 R 0 1 R 1 1 R
0 2 R 0 1 R 1 2 R 0 2 R 1 3 R 0 2 R 0 3 R 1 2 R 0 3 R 0 3 R 1 3 R 0 3 R
0 3 R 1 2 R 0 3 R 1 2 R 0 2 R 0 2 R 1 2 R 0 1 R 0 1 R 1 1 R 1 1 R 1 0 R
0 -1 R 1 -1 R 0 -1 R 0 -2 R 1 -1 R 0 -2 R 1 -1 R 0 -1 R 0 -2 R 1 -1 R 0 -1 R
0 -1 R 1 -1 R 0 -1 R 0 -1 R 1 -1 R 1 -1 R 0 -1 R 1 -1 R 0 -1 R 1 0 R 1 0 R
0 -1 R 1 0 R 1 1 R 1 0 R 1 1 R 1 1 R 0 1 R 1 0 R 0 1 R 1 1 R 0 1 R 1 1 R
0 1 R 0 2 R 1 1 R 0 2 R 0 3 R 1 2 R 0 3 R 0 3 R 1 3 R 0 2 R 1 2 R 0 1 R
1 0 R 0 -2 R 1 -1 R 0 -2 R 0 -1 R 1 -2 R 0 -2 R 1 -1 R 0 -1 R 0 -2 R 1 0 R
0 -1 R 1 -1 R 1 1 R 1 1 R 0 1 R 0 1 R 1 1 R 0 2 R 0 1 R 1 2 R 0 2 R 0 3 R
1 2 R 0 3 R 1 3 R 0 3 R 0 3 R 1 3 R 0 3 R 0 3 R 1 3 R 0 3 R 0 3 R 1 2 R
0 3 R 1 1 R 0 2 R 0 1 R 1 1 R 0 1 R 1 0 R 0 -1 R 1 -1 R 0 -2 R 0 -1 R 1 -1 R
0 -2 R 1 -1 R 0 -1 R 0 -2 R 1 -1 R 0 -1 R 0 -1 R 1 -1 R 0 -1 R 0 -1 R 1 -1 R
0 -1 R 1 -1 R 0 -1 R 1 -1 R 0 -1 R 1 0 R 0 -1 R 1 0 R 1 -1 R 1 0 R 1 0 R
1 0 R 1 1 R 1 0 R 1 1 R 0 1 R 1 0 R 0 1 R 0 1 R 1 1 R 0 1 R 1 2 R 0 2 R
0 2 R 1 2 R 0 2 R 0 1 R 1 1 R 0 1 R 1 0 R 0 -1 R 0 -1 R 1 -1 R 0 -2 R 1 -2 R
0 -2 R 0 -2 R 1 -1 R 0 -2 R 0 -1 R 1 -1 R 0 -1 R 0 -1 R 1 0 R 0 -1 R 1 0 R
1 0 R 0 1 R 1 1 R 0 1 R 0 1 R 1 1 R 0 2 R 0 1 R 1 2 R 0 2 R 0 3 R 1 2 R
0 3 R 1 3 R 0 3 R 0 3 R 1 3 R 0 3 R 0 3 R 1 3 R 0 3 R 0 2 R 1 2 R 0 1 R
0 1 R 1 1 R 1 -1 R 0 -1 R 0 -1 R 1 -1 R 0 -2 R 0 -1 R 1 -2 R 0 -1 R 0 -2 R
1 -1 R 0 -2 R 0 -1 R 1 -2 R 0 -1 R 1 -2 R 0 -1 R 0 -1 R 1 -1 R 0 -1 R 0 -1 R
1 -1 R 0 -1 R 0 -1 R 1 -1 R 0 -1 R 1 -1 R 1 -1 R 0 -1 R 1 0 R 0 -1 R 1 0 R
0 -1 R 1 0 R 0 -1 R 1 0 R 0 -1 R 1 0 R 1 0 R 0 -1 R 1 0 R 1 0 R 0 1 R 1 1 R
0 1 R 0 1 R 1 1 R 0 1 R 1 0 R 0 1 R 1 1 R 0 -1 R 1 -1 R 0 -1 R 0 -2 R 1 -2 R
0 -3 R 0 -2 R 1 -2 R 0 -2 R 0 -2 R 1 -2 R 0 -1 R 1 -2 R 0 -1 R 0 -1 R 1 -1 R
0 -1 R 1 0 R 0 -1 R 1 0 R 0 1 R 1 0 R 0 1 R 1 1 R 0 2 R 1 1 R 0 2 R 0 1 R
1 2 R 0 3 R 0 2 R 1 3 R 0 3 R 0 3 R 1 3 R 0 3 R 0 3 R 1 3 R 0 2 R 0 2 R
1 1 R 1 0 R 0 -1 R 0 -1 R 1 -1 R 0 -2 R 0 -1 R 1 -2 R 0 -2 R 0 -2 R 1 -2 R
0 -2 R 0 -1 R 1 -2 R 0 -2 R 0 -2 R 1 -1 R 0 -2 R 1 -1 R 0 -2 R 0 -1 R 1 -1 R
0 -1 R 0 -1 R 1 -1 R 0 -1 R 0 -1 R 1 -1 R 0 -1 R 0 -1 R 1 -1 R 0 -1 R 1 -1 R
0 -1 R 1 0 R 0 -1 R 1 0 R 0 -1 R 1 -1 R 0 -1 R 1 0 R 0 -1 R 1 -1 R 0 -1 R
1 0 R 0 -1 R 1 0 R 1 0 R 1 0 R 1 1 R 1 0 R 0 -1 R 1 -1 R 0 -2 R 0 -3 R
1 -2 R 0 -3 R 0 -3 R 1 -2 R 0 -2 R 0 -2 R 1 -2 R 0 -2 R 1 -2 R 0 -1 R 0 -1 R
1 -1 R 0 -1 R 0 -1 R 1 -1 R 0 -1 R 1 -1 R 1 0 R 1 1 R 0 1 R 1 1 R 0 2 R
0 1 R 1 2 R 0 2 R 1 3 R 0 2 R 0 3 R 1 3 R 0 3 R 0 3 R 1 3 R 0 3 R 0 2 R
1 2 R 0 1 R 1 0 R 0 -1 R 0 -1 R 1 -2 R 0 -2 R 0 -1 R 1 -3 R 0 -2 R 0 -2 R
1 -2 R 0 -2 R 1 -2 R 0 -1 R 0 -2 R 1 -2 R 0 -1 R 0 -2 R 1 -1 R 0 -1 R 0 -2 R
1 -1 R 0 -1 R 0 -1 R 1 -1 R 0 -1 R 1 -1 R 0 -1 R 1 -1 R 0 -1 R 1 0 R 0 -1 R
1 0 R 0 -1 R 1 0 R 0 -1 R 1 0 R 0 -1 R 1 -1 R 0 -1 R 1 0 R 0 -1 R 1 0 R
0 -1 R 1 0 R 1 0 R 0 -1 R 1 0 R 1 1 R 1 -1 R 0 -1 R 0 -1 R 1 -2 R 0 -3 R
0 -2 R 1 -3 R 0 -3 R 0 -2 R 1 -2 R 0 -2 R 0 -2 R 1 -1 R 0 -2 R 0 -1 R 1 -1 R
0 -1 R 0 -1 R 1 -1 R 0 -1 R 1 -1 R 0 -1 R 1 0 R 1 0 R 0 1 R 1 1 R 0 1 R
1 1 R 0 1 R 0 2 R 1 2 R 0 2 R 0 2 R 1 3 R 0 3 R 0 3 R 1 3 R 0 3 R 0 3 R
1 3 R 0 3 R 0 2 R 1 1 R 0 1 R 1 -1 R 0 -1 R 0 -2 R 1 -1 R 0 -2 R 0 -2 R
1 -2 R 0 -2 R 0 -2 R 1 -1 R 0 -2 R 0 -2 R 1 -1 R 0 -1 R 0 -1 R 1 -1 R 0 -1 R
1 -1 R 0 -1 R 1 -1 R 0 -1 R 1 0 R 0 -1 R 1 0 R 1 0 R 1 0 R 0 1 R 1 0 R 1 0 R
1 0 R 1 0 R 1 0 R 1 0 R 0 -1 R 1 0 R 1 0 R 0 1 R 1 0 R 0 1 R 1 0 R 0 -1 R
0 -2 R 1 -2 R 0 -2 R 0 -2 R 1 -2 R 0 -2 R 0 -2 R 1 -1 R 0 -2 R 0 -1 R 1 -1 R
0 -1 R 0 -1 R 1 -1 R 0 -1 R 1 -1 R 0 -1 R 1 0 R 1 0 R 1 1 R 0 1 R 1 1 R
0 2 R 1 1 R 0 2 R 0 1 R 1 2 R 0 3 R 0 2 R 1 3 R 0 3 R 0 3 R 1 3 R 0 4 R
0 4 R 1 3 R 0 3 R 0 2 R 1 2 R 0 1 R 1 0 R 0 -1 R 0 -1 R 1 -1 R 0 -1 R 0 -2 R
1 -2 R 0 -1 R 0 -2 R 1 -1 R 0 -1 R 0 -1 R 1 -1 R 0 -1 R 0 -1 R 1 0 R 0 -1 R
1 0 R 1 0 R 1 1 R 1 1 R 0 1 R 1 1 R 0 1 R 1 0 R 0 1 R 0 1 R 1 0 R 0 1 R
1 1 R 0 1 R 1 0 R 0 1 R 1 0 R 0 1 R 1 0 R 0 1 R 1 0 R 1 0 R 0 1 R 1 1 R
0 1 R 1 0 R 0 -1 R 1 -1 R 0 -2 R 0 -1 R 1 -2 R 0 -1 R 0 -2 R 1 -1 R 0 -1 R
0 -1 R 1 -1 R 0 -1 R 1 0 R 0 -1 R 1 0 R 1 0 R 1 0 R 1 1 R 0 1 R 1 1 R 0 1 R
0 1 R 1 1 R 0 1 R 0 1 R 1 2 R 0 2 R 0 2 R 1 2 R 0 2 R 0 3 R 1 3 R 0 3 R
0 4 R 1 3 R 0 4 R 0 4 R 1 3 R 0 2 R 1 1 R 0 1 R 1 0 R 0 -1 R 0 -2 R 1 -1 R
0 -1 R 0 -2 R 1 -1 R 0 -1 R 0 -1 R 1 -1 R 0 -1 R 1 -1 R 1 0 R 1 1 R 0 1 R
1 0 R 0 1 R 0 1 R 1 1 R 0 1 R 0 1 R 1 0 R 0 1 R 0 1 R 1 1 R 0 1 R 0 1 R
1 1 R 0 1 R 0 1 R 1 0 R 0 1 R 0 1 R 1 0 R 0 1 R 0 1 R 1 0 R 0 1 R 1 0 R
0 1 R 1 0 R 0 1 R 1 0 R D 28979 19087 M 0 1 R 1 1 R 0 1 R 1 -1 R 0 -1 R
1 -2 R 0 -1 R 0 -1 R 1 -2 R 0 -1 R 0 -1 R 1 -1 R 0 -1 R 1 -1 R 1 -1 R 1 0 R
1 0 R 1 0 R 1 1 R 0 1 R 1 0 R 0 1 R 0 1 R 1 1 R 0 1 R 1 2 R 0 1 R 0 2 R
1 1 R 0 2 R 0 3 R 1 2 R 0 3 R 0 3 R 1 3 R 0 3 R 0 4 R 1 3 R 0 2 R 0 2 R
1 1 R 1 -1 R 0 -2 R 0 -1 R 1 -1 R 0 -2 R 0 -1 R 1 -1 R 0 -2 R 0 -1 R 1 0 R
0 -1 R 1 -1 R 1 0 R 0 1 R 1 0 R 0 1 R 0 1 R 1 0 R 0 1 R 0 1 R 1 1 R 0 1 R
0 1 R 1 1 R 0 1 R 0 1 R 1 1 R 0 1 R 1 1 R 0 1 R 0 1 R 1 0 R 0 1 R 1 1 R
1 1 R 1 0 R 1 0 R 1 0 R 1 0 R 0 -1 R 1 -1 R 0 -2 R 0 -1 R 1 -1 R 0 -2 R
0 -1 R 1 -1 R 0 -1 R 0 -1 R 1 -1 R 0 -1 R 1 -1 R 0 -1 R 1 -1 R 1 -1 R 1 0 R
0 -1 R 1 0 R 1 1 R 1 0 R 0 1 R 1 0 R 0 1 R 1 1 R 0 1 R 0 1 R 1 2 R 0 1 R
0 2 R 0 2 R 1 3 R 0 2 R 0 3 R 1 3 R 0 2 R 0 2 R 1 2 R 0 1 R 1 -1 R 0 -1 R
0 -1 R 1 -2 R 0 -1 R 0 -2 R 1 -2 R 0 -1 R 0 -2 R 1 -1 R 0 -1 R 0 -1 R 1 -1 R
0 -1 R 1 -1 R 1 0 R 0 1 R 1 0 R 0 1 R 0 1 R 1 1 R 0 1 R 1 1 R 0 1 R 0 1 R
1 1 R 0 1 R 0 1 R 1 1 R 0 1 R 1 0 R 0 1 R 1 0 R 1 -1 R 1 -1 R 1 -1 R 0 -1 R
1 0 R 0 -1 R 1 0 R 0 -1 R 0 -1 R 1 -2 R 0 -2 R 0 -1 R 1 -2 R 0 -2 R 0 -1 R
1 -2 R 0 -1 R 0 -1 R 1 -1 R 0 -2 R 0 -1 R 0 -1 R 1 -1 R 0 -1 R 1 -1 R 0 -1 R
1 -1 R 0 -1 R 1 -1 R 1 -1 R 0 -1 R 1 0 R 1 -1 R 1 0 R 0 1 R 1 0 R 0 1 R
1 1 R 0 1 R 0 1 R 0 1 R 1 2 R 0 2 R 0 2 R 1 2 R 0 2 R 0 2 R 1 2 R 1 -1 R
0 -1 R 0 -2 R 1 -1 R 0 -2 R 0 -2 R 1 -2 R 0 -2 R 0 -2 R 1 -2 R 0 -1 R 0 -2 R
1 -1 R 0 -1 R 0 -1 R 1 0 R 0 -1 R 1 0 R 1 1 R 0 1 R 1 1 R 0 1 R 0 1 R 1 1 R
0 1 R 0 1 R 1 1 R 0 1 R 1 1 R 0 1 R 1 0 R 0 1 R 1 0 R 0 -1 R 1 0 R 0 -1 R
0 -1 R 1 -1 R 0 -1 R 1 -1 R 0 -1 R 1 -1 R 0 -1 R 0 -2 R 1 -1 R 0 -2 R 0 -2 R
1 -2 R 0 -2 R 0 -2 R 1 -1 R 0 -2 R 0 -2 R 1 -1 R 0 -2 R 0 -1 R 1 -1 R 0 -2 R
0 -1 R 0 -1 R 1 -1 R 0 -1 R 0 -1 R 1 -1 R 0 -1 R 1 -1 R 0 -1 R 0 -1 R 1 0 R
0 -1 R 1 -1 R 0 -1 R 1 0 R 0 -1 R 1 0 R 0 -1 R 1 0 R 1 0 R 0 1 R 1 1 R 0 1 R
0 2 R 1 1 R 0 2 R 0 2 R 1 2 R 0 1 R 0 1 R 1 1 R 0 -1 R 1 -1 R 0 -2 R 0 -2 R
1 -2 R 0 -2 R 0 -2 R 0 -2 R 1 -2 R 0 -2 R 0 -1 R 1 -2 R 0 -1 R 0 -1 R 1 -1 R
0 -1 R 0 -1 R 1 0 R 1 0 R 0 1 R 1 1 R 0 1 R 0 1 R 1 2 R 0 1 R 0 1 R 1 2 R
0 1 R 0 1 R 1 2 R 0 1 R 0 1 R 1 1 R 0 1 R 1 0 R 0 1 R 1 0 R 0 -1 R 1 0 R
0 -1 R 0 -1 R 1 -1 R 0 -1 R 0 -1 R 1 -1 R 0 -1 R 0 -1 R 1 -2 R 0 -2 R 0 -2 R
1 -2 R 0 -1 R 0 -2 R 1 -2 R 0 -1 R 0 -2 R 1 -2 R 0 -1 R 0 -1 R 0 -2 R 1 -1 R
0 -1 R 0 -1 R 1 -1 R 0 -1 R 0 -1 R 1 -1 R 0 -1 R 1 -1 R 0 -1 R 1 -1 R 0 -1 R
1 0 R 0 -1 R 1 -1 R 1 0 R 0 -1 R 1 0 R 1 1 R 1 1 R 0 1 R 0 1 R 1 1 R 0 1 R
0 2 R 0 2 R 1 2 R 0 1 R 0 1 R 1 1 R 0 -1 R 1 -1 R 0 -1 R 0 -1 R 1 -2 R
0 -2 R 0 -2 R 1 -2 R 0 -2 R 0 -1 R 0 -2 R 1 -1 R 0 -1 R 0 -1 R 1 -1 R 0 -1 R
1 0 R 1 0 R 0 1 R 0 1 R 1 1 R 0 1 R 0 1 R 0 1 R 1 2 R 0 2 R 0 1 R 1 2 R
0 2 R 0 2 R 1 2 R 0 2 R 0 2 R 1 2 R 0 1 R 0 2 R 1 1 R 0 1 R 0 1 R 1 0 R
0 1 R 1 0 R 0 -1 R 1 -1 R 0 -1 R 1 -1 R 0 -1 R 0 -1 R 1 -2 R 0 -1 R 0 -2 R
1 -1 R 0 -2 R 0 -1 R 0 -2 R 1 -1 R 0 -1 R 0 -1 R 1 -1 R 0 -1 R 0 -1 R 1 -1 R
0 -1 R 0 -1 R 1 0 R 0 -1 R 0 -1 R 1 0 R 0 -1 R 1 0 R 0 -1 R 1 0 R 1 0 R
1 0 R 1 0 R 1 1 R 1 1 R 0 1 R 1 1 R 0 1 R 0 1 R 1 2 R 0 2 R 0 1 R 0 2 R
1 1 R 0 2 R 1 1 R 0 -1 R 1 -1 R 0 -1 R 0 -1 R 1 -2 R 0 -1 R 0 -2 R 0 -1 R
1 -1 R 0 -2 R 0 -1 R 1 0 R 0 -1 R 1 -1 R 1 0 R 0 1 R 1 1 R 0 1 R 0 1 R 0 1 R
1 1 R 0 2 R 0 2 R 1 2 R 0 2 R 0 2 R 1 2 R 0 3 R 0 3 R 1 2 R 0 3 R 0 2 R
0 3 R 1 2 R 0 2 R 0 2 R 1 2 R 0 1 R 0 1 R 1 1 R 0 1 R 1 0 R 1 -1 R 0 -1 R
0 -1 R 1 -1 R 0 -2 R 0 -1 R 1 -1 R 0 -1 R 0 -1 R 1 -1 R 0 -1 R 1 -1 R 0 -1 R
0 -1 R 1 -1 R 0 -1 R 1 0 R 0 -1 R 1 0 R 1 0 R 1 0 R 1 0 R 0 1 R 1 0 R 0 1 R
1 0 R 0 1 R 1 0 R 0 1 R 1 1 R 0 1 R 1 1 R 0 1 R 0 1 R 1 1 R 0 1 R 0 2 R
0 1 R 1 2 R 0 1 R 0 1 R 1 1 R 1 0 R 0 -1 R 1 -1 R 0 -2 R 0 -1 R 0 -1 R
1 -1 R 0 -2 R 0 -1 R 1 0 R 0 -1 R 1 -1 R 1 0 R 0 1 R 1 1 R 0 1 R 1 2 R 0 1 R
0 1 R 1 2 R 0 2 R 0 1 R 0 3 R 1 2 R 0 2 R 0 3 R 1 3 R 0 3 R 0 3 R 1 2 R
0 3 R 0 3 R 1 2 R 0 3 R 0 1 R 0 2 R 1 1 R 0 1 R 0 1 R 1 0 R 1 0 R 0 -1 R
0 -1 R 1 -1 R 0 -1 R 0 -1 R 1 -1 R 0 -1 R 0 -1 R 1 0 R 0 -1 R 0 -1 R 1 0 R
0 -1 R 0 -1 R 1 0 R 0 -1 R 1 0 R 0 -1 R 1 0 R 1 0 R 1 0 R 0 1 R 1 0 R 0 1 R
1 0 R 0 1 R 1 0 R 0 1 R 1 0 R 0 1 R 1 0 R 0 1 R 1 0 R 0 1 R 0 1 R 0 1 R
1 1 R 0 1 R 0 1 R 1 1 R 0 1 R 1 1 R 1 -1 R 0 -1 R 0 -1 R 1 -1 R 0 -2 R
0 -1 R 1 -1 R 0 -1 R 0 -2 R 1 0 R 0 -1 R 0 -1 R 1 -1 R 1 0 R 1 0 R 0 1 R
0 1 R 1 1 R 0 1 R 0 1 R 1 1 R 0 2 R 0 1 R 1 2 R 0 2 R 0 2 R 0 2 R 1 3 R
0 3 R 0 2 R 1 3 R 0 3 R 0 3 R 1 2 R 0 2 R 0 2 R 1 2 R 0 1 R 0 1 R 1 0 R
0 -1 R 1 -1 R 0 -1 R 0 -1 R 1 -1 R 0 -1 R 0 -1 R 0 -1 R 1 -1 R 0 -1 R 0 -1 R
1 -1 R 0 -1 R 1 -1 R 0 -1 R 1 -1 R 0 -1 R 1 0 R 0 -1 R 1 0 R 1 0 R 1 0 R
1 0 R 1 0 R 1 0 R 1 1 R 1 0 R 1 1 R 1 1 R 0 1 R 1 0 R 1 0 R 0 -1 R 0 -1 R
1 -1 R 0 -1 R 0 -2 R 0 -2 R 1 -1 R 0 -2 R 0 -1 R 1 -2 R 0 -1 R 0 -1 R 1 -1 R
0 -1 R 0 -1 R 1 0 R 0 -1 R 1 0 R 0 -1 R 1 0 R 0 1 R 1 1 R 0 1 R 1 1 R 0 1 R
0 1 R 1 2 R 0 1 R 0 2 R 0 2 R 1 3 R 0 2 R 0 3 R 1 2 R 0 2 R 0 3 R 1 2 R
0 1 R 0 1 R 0 1 R 1 0 R 0 -1 R 1 -1 R 0 -1 R D 29293 19124 M 0 -1 R 1 -1 R
0 -1 R 0 -1 R 0 -2 R 1 -1 R 0 -1 R 0 -1 R 1 -1 R 0 -1 R 0 -1 R 1 -1 R 0 -1 R
0 -1 R 0 -1 R 1 -1 R 0 -1 R 1 0 R 0 -1 R 1 -1 R 0 -1 R 1 0 R 1 -1 R 1 0 R
0 -1 R 1 0 R 1 0 R 0 -1 R 1 0 R 0 -1 R 1 0 R 1 0 R 0 -1 R 1 0 R 1 0 R 0 -1 R
1 0 R 0 -1 R 0 -1 R 0 -1 R 1 -2 R 0 -1 R 0 -2 R 1 -2 R 0 -2 R 0 -2 R 0 -1 R
1 -2 R 0 -1 R 0 -1 R 1 -2 R 0 -1 R 0 -1 R 1 -1 R 0 -1 R 0 -1 R 1 0 R 0 -1 R
1 -1 R 1 0 R 1 1 R 0 1 R 1 1 R 0 1 R 0 1 R 0 2 R 1 2 R 0 2 R 0 2 R 1 2 R
0 2 R 0 2 R 1 2 R 0 2 R 0 1 R 0 1 R 1 0 R 0 -1 R 1 0 R 0 -2 R 0 -1 R 0 -1 R
1 -2 R 0 -1 R 0 -2 R 1 -1 R 0 -2 R 0 -1 R 1 -1 R 0 -2 R 0 -1 R 0 -1 R 1 -1 R
0 -1 R 0 -1 R 1 0 R 0 -1 R 0 -1 R 1 -1 R 1 -1 R 1 -1 R D
%%PageTrailer
end
%%PageResources: font Helvetica
%%Trailer
%%Pages: 1
%%DocumentNeededResources: font Helvetica
%%EOF
