%!PS-Adobe-3.0 EPSF-3.0
%%BoundingBox: 0 0 566 340
%%Title: Graphics produced by IDL
%%For: giada@acidrain.astro.washington.edu, /astro/users/giada/fractal
%%Creator: IDL Version 7.0 (linux x86_64 m64)
%%CreationDate: Tue Feb 25 16:55:26 2014
%%DocumentData: Clean7bit
%%Requirements: color
%%LanguageLevel: 1
%%PageOrder: Ascend
%%Pages: (atend)
%%DocumentNeededResources: (atend)
%%EndComments
%%BeginProlog
%+ prolog.ps -- Prolog for IDL generated PostScript files
%+ Copyright (c) 1988-2007 ITT Visual Information Solutions. All Rights Reserved.
%v 5
/$IDL_DICT 40 dict def $IDL_DICT begin /bdef { bind def } bind def /C
{currentpoint newpath moveto} bdef /CP {currentpoint} bdef /D {currentpoint
stroke moveto} bdef /F {closepath fill} bdef /K { setgray } bdef /M {moveto}
bdef /N {rmoveto} bdef /P {lineto} bdef /R {rlineto} bdef /S {gsave show
grestore} bdef /X {currentpoint pop} bdef /Z {gsave currentpoint lineto 20
setlinewidth 1 setlinecap stroke grestore} bdef /L0 {[] 0 setdash} bdef /L1
{[40 100] 0 setdash} bdef /L2 {[200 200] 0 setdash} bdef /L3 {[200 100 50
100] 0 setdash} bdef /L4 {[300 100 50 100 50 100 50 100] 0 setdash} bdef /L5
{[400 200] 0 setdash} bdef /STDFONT { findfont exch scalefont setfont } bdef
/ISOFONT { findfont dup length dict begin { 1 index /FID ne {def} {pop pop}
ifelse } forall /Encoding ISOLatin1Encoding def currentdict end /idltmpfont
exch definefont exch scalefont setfont } bdef /ISOBULLET { gsave /Helvetica
findfont exch scalefont setfont (\267) show currentpoint grestore moveto}
bdef /MITERLIMIT { 2.5 setmiterlimit } bdef end
%%EndProlog
%%Page: 0 1
%%PageRequirements: color
%%PageResources: (atend)
%%PageOrientation: Portrait
%%PageBoundingBox: 0 0 566 340
%%BeginPageSetup
$IDL_DICT begin 0.0283465 dup scale MITERLIMIT
%%IncludeResource: font Helvetica
423.333 /Helvetica STDFONT
%%EndPageSetup
0.000 0.000 0.000 setrgbcolor gsave 10777 10099 translate 0 0 M
1.25 dup scale -1823.3 0 N
(Qext mie scattering) show grestore 19 setlinewidth L0 2664 2112 M 16226 0 R
D 2664 2112 M 0 389 R D gsave 2664 1584 translate 0 0 M -529.59 0 N
(0.001) show grestore 6721 2112 M 0 389 R D gsave 6721 1584 translate 0 0 M
-529.59 0 N
(0.010) show grestore 10777 2112 M 0 389 R D
gsave 10777 1584 translate 0 0 M -529.59 0 N
(0.100) show grestore 14834 2112 M 0 389 R D
gsave 14834 1584 translate 0 0 M -529.59 0 N
(1.000) show grestore 18890 2112 M 0 389 R D
gsave 18890 1584 translate 0 0 M -647.277 0 N
(10.000) show grestore gsave 10777 1126 translate 0 0 M -1787.95 0 N
(particle radius [um]) show grestore 2664 9888 M 16226 0 R D 2664 9888 M
0 -389 R D 6721 9888 M 0 -389 R D 10777 9888 M 0 -389 R D 14834 9888 M
0 -389 R D 18890 9888 M 0 -389 R D 2664 2112 M 0 7776 R D 2664 2112 M
325 0 R D gsave 2553 2112 translate 0 0 M -1529.93 0 N
(0.00001) show grestore 2664 3408 M 325 0 R D
gsave 2553 3267 translate 0 0 M -1529.93 0 N
(0.00010) show grestore 2664 4704 M 325 0 R D
gsave 2553 4563 translate 0 0 M -1529.93 0 N
(0.00100) show grestore 2664 6000 M 325 0 R D
gsave 2553 5859 translate 0 0 M -1529.93 0 N
(0.01000) show grestore 2664 7296 M 325 0 R D
gsave 2553 7155 translate 0 0 M -1529.93 0 N
(0.10000) show grestore 2664 8592 M 325 0 R D
gsave 2553 8451 translate 0 0 M -1529.93 0 N
(1.00000) show grestore 2664 9888 M 325 0 R D
gsave 2553 9642 translate 0 0 M -1765.3 0 N
(10.00000) show grestore 2664 2502 M 162 0 R D 2664 2730 M 162 0 R D
2664 2892 M 162 0 R D 2664 3018 M 162 0 R D 2664 3121 M 162 0 R D
2664 3207 M 162 0 R D 2664 3282 M 162 0 R D 2664 3349 M 162 0 R D
2664 3798 M 162 0 R D 2664 4026 M 162 0 R D 2664 4188 M 162 0 R D
2664 4314 M 162 0 R D 2664 4417 M 162 0 R D 2664 4503 M 162 0 R D
2664 4578 M 162 0 R D 2664 4645 M 162 0 R D 2664 5094 M 162 0 R D
2664 5322 M 162 0 R D 2664 5484 M 162 0 R D 2664 5610 M 162 0 R D
2664 5713 M 162 0 R D 2664 5799 M 162 0 R D 2664 5874 M 162 0 R D
2664 5941 M 162 0 R D 2664 6390 M 162 0 R D 2664 6618 M 162 0 R D
2664 6780 M 162 0 R D 2664 6906 M 162 0 R D 2664 7009 M 162 0 R D
2664 7095 M 162 0 R D 2664 7170 M 162 0 R D 2664 7237 M 162 0 R D
2664 7686 M 162 0 R D 2664 7914 M 162 0 R D 2664 8076 M 162 0 R D
2664 8202 M 162 0 R D 2664 8305 M 162 0 R D 2664 8391 M 162 0 R D
2664 8466 M 162 0 R D 2664 8533 M 162 0 R D 2664 8982 M 162 0 R D
2664 9210 M 162 0 R D 2664 9372 M 162 0 R D 2664 9498 M 162 0 R D
2664 9601 M 162 0 R D 2664 9687 M 162 0 R D 2664 9762 M 162 0 R D
2664 9829 M 162 0 R D gsave 455 6000 translate 0 0 M 90 rotate -447.04 0 N
(Qext) show grestore 18890 2112 M 0 7776 R D 18890 2112 M -324 0 R D
18890 3408 M -324 0 R D 18890 4704 M -324 0 R D 18890 6000 M -324 0 R D
18890 7296 M -324 0 R D 18890 8592 M -324 0 R D 18890 9888 M -324 0 R D
18890 2502 M -162 0 R D 18890 2730 M -162 0 R D 18890 2892 M -162 0 R D
18890 3018 M -162 0 R D 18890 3121 M -162 0 R D 18890 3207 M -162 0 R D
18890 3282 M -162 0 R D 18890 3349 M -162 0 R D 18890 3798 M -162 0 R D
18890 4026 M -162 0 R D 18890 4188 M -162 0 R D 18890 4314 M -162 0 R D
18890 4417 M -162 0 R D 18890 4503 M -162 0 R D 18890 4578 M -162 0 R D
18890 4645 M -162 0 R D 18890 5094 M -162 0 R D 18890 5322 M -162 0 R D
18890 5484 M -162 0 R D 18890 5610 M -162 0 R D 18890 5713 M -162 0 R D
18890 5799 M -162 0 R D 18890 5874 M -162 0 R D 18890 5941 M -162 0 R D
18890 6390 M -162 0 R D 18890 6618 M -162 0 R D 18890 6780 M -162 0 R D
18890 6906 M -162 0 R D 18890 7009 M -162 0 R D 18890 7095 M -162 0 R D
18890 7170 M -162 0 R D 18890 7237 M -162 0 R D 18890 7686 M -162 0 R D
18890 7914 M -162 0 R D 18890 8076 M -162 0 R D 18890 8202 M -162 0 R D
18890 8305 M -162 0 R D 18890 8391 M -162 0 R D 18890 8466 M -162 0 R D
18890 8533 M -162 0 R D 18890 8982 M -162 0 R D 18890 9210 M -162 0 R D
18890 9372 M -162 0 R D 18890 9498 M -162 0 R D 18890 9601 M -162 0 R D
18890 9687 M -162 0 R D 18890 9762 M -162 0 R D 18890 9829 M -162 0 R D
10 setlinewidth 2664 2174 M 1221 390 R 715 229 R 506 163 R 393 127 R
322 106 R 271 90 R 235 80 R 208 73 R 186 66 R 168 63 R 153 60 R 141 57 R
130 56 R 122 54 R 114 54 R 106 53 R 101 53 R 95 52 R 91 53 R 86 52 R 82 53 R
78 52 R 75 52 R 72 53 R 69 52 R 66 52 R 64 52 R 62 52 R 60 51 R 58 51 R
56 51 R 54 50 R 53 50 R 51 50 R 49 48 R 49 49 R 46 48 R 46 47 R 45 47 R
43 46 R 43 45 R 41 45 R 41 45 R 39 44 R 39 43 R 38 42 R 37 42 R 36 42 R
36 41 R 35 40 R 34 40 R 34 39 R 33 39 R 32 38 R 32 38 R 31 37 R 30 37 R
31 36 R 29 36 R 29 35 R 29 35 R 28 34 R 28 34 R 27 33 R 27 33 R 27 33 R
26 32 R 25 32 R 26 31 R 25 31 R 24 31 R 25 30 R 24 30 R 23 30 R 24 29 R
23 29 R 22 28 R 23 28 R 22 28 R 22 28 R 21 27 R 22 27 R 21 26 R 21 27 R
20 26 R 21 26 R 20 25 R 20 25 R 19 25 R 20 25 R 19 25 R 19 24 R 19 24 R
19 23 R 18 24 R 18 23 R 19 23 R 17 23 R 18 22 R 18 23 R 17 22 R 17 22 R
17 21 R 17 22 R 17 21 R 16 21 R 17 21 R 16 20 R 16 21 R 16 20 R 16 20 R
15 20 R 16 20 R 15 19 R 16 20 R 15 19 R 15 19 R 15 18 R 14 19 R 15 18 R
14 19 R 15 18 R 14 18 R 14 17 R 14 18 R 14 18 R 14 17 R 14 17 R 13 17 R
14 17 R 13 16 R 14 17 R 13 16 R 13 16 R 13 16 R 13 16 R 13 16 R 12 15 R
13 16 R 12 15 R 13 15 R 12 15 R 12 15 R 13 15 R 12 14 R 12 15 R 12 14 R
12 14 R 11 14 R 12 14 R 12 13 R 11 14 R 12 14 R 11 13 R 12 13 R 11 13 R
11 13 R 11 13 R 11 12 R 11 13 R 11 12 R 11 13 R 11 12 R 10 12 R 11 12 R
11 11 R 10 12 R 11 12 R 10 11 R 10 11 R 11 11 R 10 11 R 10 11 R 10 11 R
10 11 R 10 11 R 10 10 R 10 10 R 10 11 R 9 10 R 10 10 R 10 10 R 9 10 R
10 10 R 9 9 R 10 10 R 9 10 R 10 9 R 9 9 R 9 10 R 9 9 R 9 9 R 10 9 R 9 9 R
9 9 R 9 9 R 9 8 R 8 9 R 9 9 R 9 8 R 9 9 R 8 8 R 9 9 R 9 8 R 8 8 R 9 9 R
8 8 R 9 8 R 8 8 R 9 9 R 8 8 R 8 8 R 8 8 R 9 8 R 8 8 R 8 8 R 8 9 R 8 8 R
8 8 R 8 8 R 8 8 R 8 8 R 8 8 R 8 9 R 8 8 R 7 8 R 8 8 R 8 8 R 7 9 R 8 8 R
8 8 R 7 9 R 8 8 R 7 9 R 8 8 R 7 9 R 8 8 R 7 9 R 7 8 R 8 9 R 7 8 R 7 9 R
8 9 R 7 8 R 7 9 R 7 8 R 7 9 R 7 9 R 7 8 R 7 9 R 7 8 R 7 9 R 7 8 R 7 9 R
7 8 R 7 8 R 7 9 R 7 8 R 6 8 R 7 8 R 7 8 R 7 7 R 6 8 R 7 7 R 7 8 R 6 7 R
7 7 R 6 7 R 7 7 R 6 7 R 7 6 R 6 6 R 7 6 R 6 6 R 7 6 R 6 6 R 6 5 R 7 5 R
6 5 R 6 5 R 7 5 R 6 4 R 6 5 R 6 4 R 6 4 R 6 4 R 7 3 R 6 4 R 6 3 R 6 3 R
6 3 R 6 3 R 6 2 R 6 3 R 6 2 R 6 2 R 6 3 R 6 2 R 6 1 R 5 2 R 6 2 R 6 1 R
6 2 R 6 1 R 5 2 R 6 1 R 6 1 R 6 1 R 5 1 R 6 1 R 6 1 R 5 1 R 6 1 R 5 1 R
6 1 R 6 1 R 5 1 R 6 1 R 5 0 R 6 1 R 5 1 R 6 1 R 5 1 R 6 1 R 5 1 R 5 1 R
6 1 R 5 1 R 5 1 R 6 1 R 5 1 R 5 2 R 6 1 R 5 1 R 5 2 R 5 1 R 6 2 R 5 1 R
5 2 R 5 2 R 5 2 R 6 1 R 5 2 R 5 3 R 5 2 R 5 2 R 5 2 R 5 3 R 5 2 R 5 3 R
5 3 R 5 3 R 5 2 R 5 3 R 5 4 R 5 3 R 5 3 R 5 4 R 5 3 R 5 4 R 5 3 R 4 4 R
5 4 R 5 4 R 5 4 R 5 4 R 4 4 R 5 4 R 5 4 R 5 5 R 5 4 R 4 4 R 5 5 R 5 4 R
4 5 R 5 4 R 5 5 R 4 4 R 5 5 R 5 4 R 4 4 R 5 4 R 4 5 R 5 4 R 5 4 R 4 4 R
5 4 R 4 3 R 5 4 R 4 4 R 5 3 R 4 3 R 5 3 R 4 3 R 5 3 R 4 3 R 5 2 R 4 3 R
4 2 R 5 2 R 4 2 R 5 2 R 4 1 R 4 2 R 5 1 R 4 1 R 4 1 R 5 1 R 4 1 R 4 0 R
4 1 R 5 0 R 4 0 R 4 0 R 4 0 R 5 0 R 4 0 R 4 0 R 4 -1 R 5 0 R 4 -1 R 4 0 R
4 -1 R 4 -1 R 4 -1 R 4 0 R 5 -1 R 4 -1 R 4 -1 R 4 -1 R 4 -1 R 4 -1 R 4 -1 R
4 -1 R 4 -1 R 4 -2 R 4 -1 R 4 -1 R 4 -1 R 4 -1 R 4 -1 R 4 -1 R 4 -1 R 4 -1 R
4 -1 R 4 -1 R 4 -1 R 4 -1 R 4 -1 R 4 -1 R 4 -1 R 4 -1 R 3 0 R 4 -1 R 4 0 R
4 -1 R 4 0 R 4 -1 R 4 0 R 3 0 R 4 -1 R 4 0 R 4 0 R 4 0 R 3 1 R 4 0 R 4 0 R
4 1 R 3 0 R 4 1 R 4 1 R 4 1 R 3 1 R 4 1 R 4 1 R 4 1 R 3 2 R 4 1 R 4 2 R
3 2 R 4 2 R 4 2 R 3 2 R 4 2 R 3 3 R 4 2 R 4 3 R 3 3 R 4 2 R 3 3 R 4 3 R
4 3 R 3 3 R 4 3 R 3 3 R 4 3 R 3 3 R 4 3 R 3 3 R 4 2 R 4 3 R 3 3 R 4 3 R
3 2 R 3 3 R 4 2 R 3 2 R 4 2 R 3 2 R 4 1 R 3 2 R 4 1 R 3 1 R 4 1 R 3 1 R
3 1 R 4 0 R 3 0 R 4 0 R 3 0 R 3 0 R 4 0 R 3 -1 R 3 0 R 4 -1 R 3 -1 R 3 -1 R
4 -1 R 3 -2 R 3 -1 R 4 -2 R 3 -1 R 3 -2 R 4 -1 R 3 -2 R 3 -2 R 4 -2 R 3 -2 R
3 -2 R 3 -2 R 4 -2 R 3 -2 R 3 -2 R 3 -3 R 4 -2 R 3 -2 R 3 -2 R 3 -3 R 3 -2 R
4 -2 R 3 -2 R 3 -3 R 3 -2 R 3 -2 R 3 -3 R 4 -2 R 3 -2 R 3 -3 R 3 -2 R 3 -2 R
3 -3 R 4 -2 R 3 -2 R 3 -3 R 3 -2 R 3 -2 R 3 -2 R 3 -2 R 3 -3 R 3 -2 R 3 -2 R
4 -2 R 3 -2 R 3 -2 R 3 -2 R 3 -1 R 3 -2 R 3 -2 R 3 -2 R 3 -1 R 3 -2 R 3 -1 R
3 -1 R 3 -1 R 3 -1 R 3 -1 R 3 -1 R 3 -1 R 3 -1 R 3 0 R 3 0 R 3 -1 R 3 0 R
3 0 R 3 1 R 3 0 R 3 1 R 3 1 R 3 0 R 3 2 R 3 1 R 2 1 R 3 2 R 3 2 R 3 2 R
3 2 R 3 2 R 3 2 R 3 3 R 3 2 R 3 3 R 2 2 R 3 3 R 3 2 R 3 3 R 3 2 R 3 2 R
3 3 R 2 2 R 3 2 R 3 1 R 3 2 R 3 1 R 3 1 R 2 1 R 3 1 R 3 0 R 3 0 R 3 0 R
2 0 R 3 -1 R 3 -1 R 3 -1 R 3 -1 R 2 -2 R 3 -1 R 3 -2 R 3 -2 R 2 -2 R 3 -2 R
3 -3 R 3 -2 R 2 -3 R 3 -2 R 3 -3 R 3 -3 R 2 -2 R 3 -3 R 3 -3 R 2 -3 R 3 -3 R
3 -3 R 2 -3 R 3 -3 R 3 -3 R 3 -3 R 2 -3 R 3 -3 R 3 -3 R 2 -3 R 3 -3 R 3 -3 R
2 -3 R 3 -3 R 3 -3 R 2 -3 R 3 -3 R 2 -3 R 3 -4 R 3 -3 R 2 -3 R 3 -3 R 3 -3 R
2 -4 R 3 -3 R 2 -3 R 3 -3 R 3 -4 R 2 -3 R 3 -3 R 2 -4 R 3 -3 R 3 -3 R 2 -4 R
3 -3 R 2 -3 R 3 -4 R 2 -3 R 3 -3 R 2 -3 R 3 -4 R 3 -3 R 2 -3 R 3 -3 R 2 -3 R
3 -3 R 2 -3 R 3 -3 R 2 -2 R 3 -3 R 2 -2 R 3 -3 R 2 -2 R 3 -2 R 2 -2 R 3 -2 R
2 -1 R 3 -2 R 2 -1 R 3 -1 R 2 0 R 3 -1 R 2 0 R 3 0 R 2 1 R 3 0 R 2 1 R 2 2 R
3 1 R 2 2 R 3 2 R 2 3 R 3 3 R 2 2 R 2 3 R 3 4 R 2 3 R 3 3 R 2 3 R 3 4 R
2 3 R 2 3 R 3 2 R 2 2 R 3 2 R 2 2 R 2 1 R 3 1 R 2 0 R 3 0 R 2 0 R 2 -1 R
3 -2 R 2 -2 R 2 -2 R 3 -2 R 2 -3 R 2 -3 R 3 -3 R 2 -3 R D 14329 9218 M
2 -4 R 3 -3 R 2 -4 R 2 -3 R 3 -4 R 2 -3 R 2 -4 R 3 -3 R 2 -4 R 2 -3 R 3 -4 R
2 -3 R 2 -3 R 3 -3 R 2 -3 R 2 -3 R 3 -3 R 2 -3 R 2 -3 R 2 -2 R 3 -3 R 2 -3 R
2 -2 R 3 -3 R 2 -3 R 2 -2 R 2 -3 R 3 -3 R 2 -3 R 2 -2 R 2 -3 R 3 -3 R 2 -3 R
2 -3 R 2 -3 R 3 -3 R 2 -3 R 2 -3 R 2 -3 R 3 -4 R 2 -3 R 2 -4 R 2 -3 R 2 -4 R
3 -4 R 2 -4 R 2 -4 R 2 -3 R 2 -4 R 3 -5 R 2 -4 R 2 -4 R 2 -4 R 2 -4 R 3 -4 R
2 -5 R 2 -4 R 2 -4 R 2 -4 R 3 -4 R 2 -4 R 2 -4 R 2 -4 R 2 -4 R 2 -4 R 3 -4 R
2 -3 R 2 -3 R 2 -3 R 2 -3 R 2 -3 R 2 -2 R 3 -2 R 2 -1 R 2 -2 R 2 0 R 2 -1 R
2 0 R 2 1 R 2 1 R 3 2 R 2 2 R 2 2 R 2 4 R 2 4 R 2 4 R 2 5 R 2 5 R 2 6 R
3 6 R 2 6 R 2 6 R 2 6 R 2 6 R 2 5 R 2 5 R 2 5 R 2 3 R 2 3 R 2 2 R 2 1 R
2 0 R 3 -1 R 2 -1 R 2 -3 R 2 -3 R 2 -4 R 2 -4 R 2 -5 R 2 -5 R 2 -5 R 2 -5 R
2 -5 R 2 -5 R 2 -5 R 2 -5 R 2 -5 R 2 -4 R 2 -4 R 2 -4 R 2 -3 R 2 -3 R 2 -2 R
2 -3 R 2 -2 R 2 -1 R 2 -2 R 2 -1 R 2 0 R 2 -1 R 2 0 R 2 0 R 2 0 R 2 0 R
2 0 R 2 1 R 2 0 R 2 1 R 2 0 R 2 1 R 2 0 R 2 1 R 2 0 R 2 0 R 2 0 R 2 0 R
2 0 R 2 0 R 2 -1 R 2 0 R 2 -1 R 2 -2 R 2 -1 R 2 -2 R 2 -1 R 2 -2 R 2 -3 R
2 -2 R 1 -3 R 2 -2 R 2 -3 R 2 -3 R 2 -4 R 2 -3 R 2 -4 R 2 -3 R 2 -4 R 2 -4 R
2 -4 R 2 -3 R 2 -4 R 1 -4 R 2 -4 R 2 -4 R 2 -4 R 2 -4 R 2 -3 R 2 -4 R 2 -3 R
2 -3 R 2 -3 R 1 -3 R 2 -3 R 2 -2 R 2 -2 R 2 -2 R 2 -1 R 2 -1 R 2 0 R 1 0 R
2 1 R 2 2 R 2 2 R 2 2 R 2 4 R 2 4 R 2 5 R 1 6 R 2 7 R 2 7 R 2 9 R 2 9 R
2 9 R 1 10 R 2 10 R 2 9 R 2 10 R 2 9 R 2 7 R 2 7 R 1 5 R 2 4 R 2 2 R 2 0 R
2 -1 R 1 -3 R 2 -4 R 2 -5 R 2 -6 R 2 -6 R 2 -7 R 1 -6 R 2 -7 R 2 -6 R 2 -6 R
2 -6 R 1 -5 R 2 -5 R 2 -4 R 2 -3 R 2 -3 R 1 -2 R 2 -2 R 2 -1 R 2 -1 R 2 0 R
1 1 R 2 1 R 2 1 R 2 2 R 1 3 R 2 2 R 2 4 R 2 3 R 2 4 R 1 4 R 2 4 R 2 4 R
2 5 R 1 4 R 2 5 R 2 5 R 2 5 R 1 4 R 2 5 R 2 4 R 2 5 R 1 4 R 2 3 R 2 4 R
2 3 R 1 3 R 2 2 R 2 2 R 2 2 R 1 1 R 2 1 R 2 0 R 1 0 R 2 0 R 2 -1 R 2 -1 R
1 -1 R 2 -2 R 2 -1 R 2 -2 R 1 -3 R 2 -2 R 2 -2 R 1 -3 R 2 -3 R 2 -2 R 2 -3 R
1 -3 R 2 -3 R 2 -2 R 1 -3 R 2 -3 R 2 -2 R 1 -2 R 2 -3 R 2 -2 R 1 -1 R 2 -2 R
2 -2 R 2 -1 R 1 -1 R 2 -1 R 2 0 R 1 0 R 2 0 R 2 0 R 1 1 R 2 2 R 2 2 R 1 2 R
2 3 R 2 4 R 1 5 R 2 5 R 2 6 R 1 8 R 2 7 R 2 9 R 1 10 R 2 10 R 2 11 R 1 11 R
2 10 R 1 10 R 2 9 R 2 7 R 1 5 R 2 3 R 2 0 R 1 -1 R 2 -4 R 2 -5 R 1 -6 R
2 -6 R 1 -7 R 2 -7 R 2 -7 R 1 -6 R 2 -6 R 2 -5 R 1 -5 R 2 -4 R 1 -3 R 2 -3 R
2 -2 R 1 -1 R 2 -1 R 1 -1 R 2 0 R 2 0 R 1 1 R 2 1 R 2 2 R 1 2 R 2 2 R 1 3 R
2 3 R 2 3 R 1 4 R 2 4 R 1 4 R 2 4 R 1 5 R 2 5 R 2 5 R 1 5 R 2 5 R 1 6 R
2 6 R 2 6 R 1 5 R 2 6 R 1 6 R 2 6 R 1 5 R 2 5 R 2 5 R 1 5 R 2 4 R 1 3 R
2 4 R 1 2 R 2 2 R 1 2 R 2 0 R 2 1 R 1 0 R 2 -1 R 1 -1 R 2 -1 R 1 -2 R 2 -2 R
1 -2 R 2 -3 R 2 -2 R 1 -3 R 2 -3 R 1 -2 R 2 -3 R 1 -3 R 2 -2 R 1 -3 R 2 -2 R
1 -2 R 2 -2 R 1 -2 R 2 -2 R 1 -2 R 2 -1 R 2 -1 R 1 -1 R 2 -1 R 1 -1 R 2 -1 R
1 0 R 2 0 R 1 0 R 2 0 R 1 1 R 2 1 R 1 1 R 2 2 R 1 2 R 2 3 R 1 3 R 2 4 R
1 5 R 2 6 R 1 6 R 2 8 R 1 8 R 2 9 R 1 10 R 2 11 R 1 9 R 2 9 R 1 7 R 2 5 R
1 1 R 2 -1 R 1 -4 R 2 -6 R 1 -6 R 2 -8 R 1 -7 R 1 -7 R 2 -7 R 1 -5 R 2 -5 R
1 -5 R 2 -4 R 1 -3 R 2 -2 R 1 -2 R 2 -2 R 1 -1 R 2 -1 R 1 0 R 2 0 R 1 0 R
2 1 R 1 0 R 1 1 R 2 1 R 1 1 R 2 2 R 1 2 R 2 1 R 1 2 R 2 3 R 1 2 R 1 2 R
2 3 R 1 3 R 2 3 R 1 3 R 2 4 R 1 3 R 2 4 R 1 4 R 1 5 R 2 4 R 1 5 R 2 5 R
1 5 R 2 6 R 1 5 R 1 5 R 2 5 R 1 6 R 2 4 R 1 5 R 2 3 R 1 3 R 1 3 R 2 2 R
1 0 R 2 0 R 1 0 R 1 -2 R 2 -2 R 1 -2 R 2 -3 R 1 -4 R 2 -3 R 1 -4 R 1 -4 R
2 -3 R 1 -4 R 2 -3 R 1 -4 R 1 -3 R 2 -3 R 1 -3 R 2 -2 R 1 -3 R 1 -2 R 2 -2 R
1 -2 R 2 -2 R 1 -2 R 1 -1 R 2 -2 R 1 -1 R 1 -1 R 2 -1 R 1 -1 R 2 0 R 1 0 R
1 -1 R 2 1 R 1 0 R 1 1 R 2 1 R 1 1 R 2 2 R 1 2 R 1 3 R 2 4 R 1 5 R 1 6 R
2 7 R 1 9 R 2 9 R 1 11 R 1 9 R 2 8 R 1 5 R 1 1 R 2 -3 R 1 -6 R 1 -8 R 2 -9 R
1 -8 R 2 -8 R 1 -7 R 1 -6 R 2 -6 R 1 -4 R 1 -3 R 2 -3 R 1 -3 R 1 -1 R 2 -2 R
1 -1 R 1 -1 R 2 -1 R 1 0 R 1 0 R 2 0 R 1 0 R 1 0 R 2 0 R 1 1 R 1 0 R 2 1 R
1 1 R 1 0 R 2 1 R 1 1 R 1 1 R 2 1 R 1 1 R 1 2 R 2 1 R 1 1 R 1 2 R 2 2 R
1 2 R 1 2 R 2 2 R 1 2 R 1 3 R 2 3 R 1 3 R 1 4 R 1 4 R 2 4 R 1 4 R 1 5 R
2 5 R 1 5 R 1 6 R 2 5 R 1 4 R 1 4 R 2 3 R 1 1 R 1 1 R 1 -2 R 2 -2 R 1 -3 R
1 -4 R 2 -5 R 1 -5 R 1 -6 R 1 -5 R 2 -6 R 1 -5 R 1 -5 R 2 -5 R 1 -4 R 1 -5 R
1 -3 R 2 -4 R 1 -3 R 1 -4 R 2 -2 R 1 -3 R 1 -3 R 1 -2 R 2 -2 R 1 -2 R 1 -2 R
2 -2 R 1 -1 R 1 -2 R 1 -1 R 2 -1 R 1 -1 R 1 -1 R 1 -1 R 2 0 R 1 0 R 1 0 R
2 1 R 1 1 R 1 1 R 1 3 R 2 3 R 1 5 R 1 6 R 1 8 R 2 10 R 1 12 R 1 11 R 1 8 R
2 3 R 1 -4 R 1 -8 R 1 -12 R 2 -11 R 1 -11 R 1 -8 R 1 -8 R 2 -6 R 1 -5 R
1 -4 R 1 -3 R 2 -2 R 1 -3 R 1 -1 R 1 -2 R 2 -1 R 1 -1 R 1 -1 R 1 -1 R 2 0 R
1 0 R 1 -1 R 1 0 R 1 0 R 2 0 R 1 1 R 1 0 R 1 0 R 2 0 R 1 1 R 1 0 R 1 0 R
2 1 R 1 0 R 1 1 R 1 0 R 1 1 R 2 0 R 1 1 R 1 0 R 1 1 R 2 1 R 1 1 R 1 1 R
1 1 R 1 1 R 2 2 R 1 1 R 1 3 R 1 2 R 1 3 R 2 4 R 1 4 R 1 4 R 1 6 R 2 6 R
1 6 R 1 6 R 1 6 R 1 5 R 2 3 R 1 1 R 1 -2 R 1 -4 R 1 -6 R 2 -7 R 1 -8 R
1 -8 R 1 -8 R 1 -8 R 1 -7 R 2 -7 R 1 -6 R 1 -6 R 1 -5 R 1 -5 R 2 -4 R 1 -4 R
1 -4 R 1 -3 R 1 -3 R 2 -4 R 1 -2 R 1 -3 R 1 -3 R 1 -2 R 1 -2 R 2 -3 R 1 -2 R
1 -1 R 1 -2 R 1 -2 R 2 -1 R 1 -2 R 1 -1 R 1 0 R D 15549 9093 M 1 -1 R 1 0 R
2 0 R 1 2 R 1 2 R 1 3 R 1 5 R 1 8 R 2 10 R 1 14 R 1 14 R 1 11 R 1 1 R 1 -9 R
2 -15 R 1 -16 R 1 -13 R 1 -10 R 1 -8 R 1 -7 R 2 -5 R 1 -4 R 1 -3 R 1 -3 R
1 -2 R 1 -2 R 1 -1 R 2 -1 R 1 -1 R 1 -1 R 1 -1 R 1 0 R 1 -1 R 2 0 R 1 0 R
1 0 R 1 0 R 1 0 R 1 1 R 1 0 R 2 1 R 1 0 R 1 1 R 1 0 R 1 1 R 1 0 R 1 1 R
2 1 R 1 0 R 1 1 R 1 0 R 1 1 R 1 0 R 1 1 R 1 1 R 2 0 R 1 1 R 1 0 R 1 1 R
1 1 R 1 1 R 1 1 R 2 1 R 1 1 R 1 2 R 1 3 R 1 3 R 1 3 R 1 5 R 1 6 R 2 7 R
1 8 R 1 9 R 1 9 R 1 8 R 1 4 R 1 0 R 1 -5 R 1 -9 R 2 -11 R 1 -11 R 1 -11 R
1 -11 R 1 -9 R 1 -8 R 1 -7 R 1 -7 R 1 -5 R 2 -5 R 1 -5 R 1 -4 R 1 -4 R
1 -4 R 1 -3 R 1 -3 R 1 -3 R 1 -3 R 2 -2 R 1 -3 R 1 -2 R 1 -3 R 1 -2 R 1 -2 R
1 -2 R 1 -2 R 1 -1 R 1 -2 R 1 -1 R 2 -1 R 1 -1 R 1 0 R 1 0 R 1 1 R 1 1 R
1 4 R 1 6 R 1 9 R 1 14 R 1 18 R 2 17 R 1 3 R 1 -14 R 1 -20 R 1 -18 R 1 -13 R
1 -10 R 1 -7 R 1 -5 R 1 -4 R 1 -3 R 2 -2 R 1 -2 R 1 -2 R 1 -1 R 1 -1 R
1 -1 R 1 -1 R 1 0 R 1 0 R 1 0 R 1 0 R 1 0 R 1 0 R 1 1 R 2 0 R 1 1 R 1 1 R
1 1 R 1 1 R 1 2 R 1 1 R 1 1 R 1 2 R 1 2 R 1 1 R 1 2 R 1 2 R 1 1 R 1 2 R
2 2 R 1 2 R 1 1 R 1 2 R 1 1 R 1 2 R 1 1 R 1 2 R 1 1 R 1 2 R 1 1 R 1 1 R
1 2 R 1 1 R 1 2 R 1 2 R 1 2 R 1 3 R 2 3 R 1 5 R 1 6 R 1 8 R 1 10 R 1 12 R
1 13 R 1 11 R 1 5 R 1 -3 R 1 -9 R 1 -14 R 1 -14 R 1 -13 R 1 -10 R 1 -9 R
1 -7 R 1 -6 R 1 -5 R 1 -5 R 1 -3 R 1 -4 R 1 -3 R 1 -2 R 2 -3 R 1 -2 R 1 -2 R
1 -2 R 1 -2 R 1 -2 R 1 -1 R 1 -2 R 1 -2 R 1 -1 R 1 -1 R 1 -2 R 1 -1 R 1 -1 R
1 -1 R 1 0 R 1 -1 R 1 0 R 1 0 R 1 1 R 1 1 R 1 3 R 1 6 R 1 9 R 1 15 R 1 20 R
1 15 R 1 -9 R 1 -20 R 1 -19 R 1 -12 R 1 -8 R 1 -6 R 1 -4 R 1 -2 R 1 -2 R
1 -2 R 1 -1 R 1 -1 R 1 -1 R 1 0 R 1 0 R 1 -1 R 1 0 R 1 1 R 1 0 R 1 0 R 1 1 R
1 1 R 1 0 R 2 1 R 1 1 R 1 2 R 1 1 R 1 2 R 1 1 R 1 2 R 1 2 R 1 2 R 1 2 R
1 3 R 1 2 R 1 3 R 1 2 R 1 3 R 1 3 R 1 3 R 1 3 R 0 3 R 1 3 R 1 3 R 1 3 R
1 2 R 1 3 R 1 3 R 1 3 R 1 2 R 1 2 R 1 3 R 1 2 R 1 2 R 1 3 R 1 2 R 1 2 R
1 3 R 1 3 R 1 4 R 1 5 R 1 7 R 1 9 R 1 12 R 1 15 R 1 14 R 1 6 R 1 -5 R
1 -14 R 1 -14 R 1 -12 R 1 -9 R 1 -7 R 1 -5 R 1 -4 R 1 -3 R 1 -2 R 1 -2 R
1 -2 R 1 -1 R 1 -1 R 1 -1 R 1 -1 R 1 -1 R 1 -1 R 1 0 R 1 -1 R 1 0 R 1 -1 R
1 0 R 1 -1 R 1 0 R 1 0 R 0 -1 R 1 0 R 1 0 R 1 0 R 1 0 R 1 0 R 1 1 R 1 1 R
1 2 R 1 3 R 1 6 R 1 11 R 1 17 R 1 13 R 1 -10 R 1 -17 R 1 -13 R 1 -7 R 1 -4 R
1 -3 R 1 -2 R 1 -1 R 1 -1 R 1 -1 R 1 -1 R 1 0 R 1 0 R 1 0 R 1 0 R 1 0 R
1 0 R 1 0 R 1 0 R 1 1 R 1 0 R 1 1 R 1 1 R 1 0 R 1 1 R 1 1 R 1 1 R 1 1 R
1 2 R 0 1 R 1 2 R 1 1 R 1 2 R 1 2 R 1 2 R 1 2 R 1 3 R 1 2 R 1 3 R 1 3 R
1 3 R 1 3 R 1 3 R 1 3 R 1 3 R 1 3 R 0 4 R 1 3 R 1 3 R 1 3 R 1 3 R 1 3 R
1 3 R 1 3 R 1 3 R 1 2 R 1 3 R 1 2 R 1 3 R 1 3 R 1 4 R 0 4 R 1 6 R 1 9 R
1 13 R 1 14 R 1 8 R 1 -6 R 1 -13 R 1 -12 R 1 -8 R 1 -6 R 1 -3 R 1 -3 R
0 -1 R 1 -2 R 1 -1 R 1 0 R 1 -1 R 1 0 R 1 0 R 1 -1 R 1 0 R 1 0 R 1 0 R 1 0 R
1 0 R 1 1 R 1 0 R 1 0 R 1 0 R 1 0 R 1 0 R 1 0 R 1 1 R 1 0 R 1 0 R 0 1 R
1 1 R 1 2 R 1 2 R 1 5 R 1 10 R 1 13 R 1 0 R 1 -13 R 1 -10 R 1 -5 R 0 -3 R
1 -2 R 1 -1 R 1 -1 R 1 0 R 1 -1 R 1 -1 R 1 0 R 1 0 R 1 -1 R 1 0 R 1 -1 R
1 0 R 1 0 R 1 0 R 1 0 R 1 -1 R 1 0 R 1 0 R 1 0 R 1 0 R 1 0 R 1 1 R 1 0 R
1 0 R 1 0 R 1 1 R 1 1 R 1 1 R 1 1 R 1 0 R 1 1 R 1 2 R 1 1 R 1 1 R 0 2 R
1 2 R 1 2 R 1 2 R 1 2 R 1 2 R 1 2 R 1 3 R 1 3 R 0 2 R 1 3 R 1 3 R 1 3 R
1 3 R 1 3 R 1 2 R 1 3 R 0 3 R 1 2 R 1 3 R 1 3 R 1 3 R 1 4 R 1 5 R 1 8 R
1 12 R 0 11 R 1 -2 R 1 -11 R 1 -10 R 1 -7 R 1 -4 R 1 -2 R 1 -2 R 0 -1 R
1 -1 R 1 -1 R 1 -1 R 1 0 R 1 0 R 1 -1 R 1 0 R 1 0 R 1 0 R 1 0 R 1 0 R 1 0 R
1 0 R 1 0 R 1 1 R 1 0 R 1 0 R 1 0 R 1 0 R 0 1 R 1 0 R 1 1 R 1 1 R 1 1 R
1 3 R 1 7 R 1 9 R 0 -2 R 1 -9 R 1 -6 R 1 -3 R 1 -2 R 1 -1 R 1 -1 R 1 -1 R
1 -1 R 1 0 R 1 -1 R 1 -1 R 1 0 R 0 -1 R 1 -1 R 1 0 R 1 -1 R 1 -1 R 1 -1 R
1 -1 R 1 -1 R 1 -1 R 1 0 R 1 -1 R 1 -1 R 1 -1 R 1 -1 R 1 -1 R 1 0 R 1 -1 R
1 0 R 0 -1 R 1 0 R 1 -1 R 1 0 R 1 -1 R 1 0 R 1 0 R 1 0 R 1 0 R 1 0 R 1 0 R
0 1 R 1 0 R 1 1 R 1 1 R 1 1 R 1 1 R 1 1 R 0 2 R 1 2 R 1 1 R 1 3 R 1 2 R
1 2 R 0 2 R 1 3 R 1 2 R 1 3 R 1 3 R 1 3 R 0 4 R 1 4 R 1 7 R 1 11 R 1 8 R
1 -5 R 0 -10 R 1 -6 R 1 -4 R 1 -3 R 1 -2 R 1 -1 R 0 -2 R 1 -1 R 1 -1 R
1 -1 R 1 -2 R 0 -1 R 1 0 R 1 -1 R 1 -1 R 1 -1 R 1 0 R 0 -1 R 1 0 R 1 0 R
1 -1 R 1 0 R 1 0 R 1 0 R 1 0 R 1 1 R 1 0 R 1 1 R 1 1 R 1 1 R 1 3 R 1 6 R
0 4 R 1 -5 R 1 -6 R 1 -2 R 1 -2 R 0 -1 R 1 -1 R 1 0 R 1 -1 R 1 -1 R 1 0 R
0 -1 R 1 -1 R 1 -1 R 1 -1 R 1 -1 R 0 -1 R 1 -1 R 1 -1 R 1 -1 R 1 -1 R 1 -1 R
0 -1 R 1 -2 R 1 -1 R 1 -1 R 1 -2 R 0 -1 R 1 -1 R 1 -2 R 1 -1 R 1 -2 R 0 -1 R
1 -1 R 1 -2 R 1 -1 R 1 -2 R 0 -1 R 1 -1 R 1 -2 R 1 -1 R 1 -1 R 0 -1 R 1 -1 R
1 -2 R 1 -1 R 1 -1 R 0 -1 R 1 0 R 1 -1 R 1 -1 R 1 0 R 0 -1 R 1 0 R 1 0 R
1 0 R 1 0 R 1 1 R 1 0 R 1 1 R 1 2 R 0 1 R 1 2 R 1 2 R 1 3 R 1 3 R 0 4 R
1 5 R 1 9 R 1 10 R 1 -1 R 0 -7 R 1 -3 R 1 -2 R 1 -1 R 0 -1 R 1 -1 R 1 -1 R
1 -2 R 1 -1 R 0 -2 R 1 -2 R 1 -2 R 1 -2 R 1 -2 R 0 -2 R 1 -2 R 1 -2 R 1 -2 R
1 -1 R 0 -1 R 1 -1 R 1 -1 R 1 -1 R 0 -1 R 1 0 R 1 0 R 1 -1 R 1 0 R 0 1 R
1 0 R 1 1 R 1 2 R 0 4 R 1 5 R 1 -3 R 1 -4 R 1 -2 R 1 0 R 1 -1 R 1 0 R D
16275 9103 M 1 0 R 1 0 R 1 0 R 1 0 R 0 -1 R 1 0 R 1 -1 R 1 0 R 0 -1 R 1 -1 R
1 -1 R 1 -1 R 1 -1 R 0 -1 R 1 -2 R 1 -1 R 1 -2 R 0 -1 R 1 -2 R 1 -2 R 1 -1 R
1 -2 R 0 -2 R 1 -2 R 1 -2 R 1 -2 R 0 -2 R 1 -1 R 1 -2 R 1 -2 R 0 -2 R 1 -2 R
1 -2 R 1 -2 R 0 -2 R 1 -1 R 1 -2 R 1 -2 R 1 -2 R 0 -1 R 1 -2 R 1 -2 R 1 -1 R
0 -2 R 1 -1 R 1 -2 R 1 -1 R 0 -1 R 1 -1 R 1 -1 R 1 -1 R 1 -1 R 1 0 R 1 0 R
1 0 R 1 1 R 1 2 R 1 3 R 0 4 R 1 8 R 1 7 R 1 -3 R 0 -4 R 1 0 R 1 1 R 1 2 R
0 2 R 1 2 R 1 1 R 1 2 R 1 0 R 1 -1 R 1 -1 R 0 -2 R 1 -2 R 1 -3 R 1 -3 R
0 -3 R 1 -3 R 1 -3 R 1 -2 R 0 -3 R 1 -2 R 1 -2 R 1 -2 R 0 -2 R 1 -1 R 1 -1 R
1 -1 R 1 0 R 1 1 R 1 3 R 0 3 R 1 -3 R 1 -2 R 1 -1 R 1 1 R 1 1 R 1 1 R 0 1 R
1 1 R 1 1 R 0 1 R 1 2 R 1 1 R 1 1 R 0 1 R 1 1 R 1 0 R 1 1 R 1 1 R 1 0 R
1 0 R 0 -1 R 1 0 R 1 -1 R 1 -1 R 0 -1 R 1 -1 R 1 -1 R 1 -2 R 0 -1 R 1 -2 R
1 -2 R 0 -1 R 1 -2 R 1 -2 R 1 -2 R 0 -2 R 1 -2 R 1 -3 R 1 -2 R 0 -2 R 1 -2 R
1 -2 R 1 -2 R 0 -2 R 1 -2 R 1 -2 R 0 -2 R 1 -1 R 1 -2 R 1 -2 R 0 -2 R 1 -1 R
1 -2 R 1 -1 R 0 -2 R 1 -1 R 1 -2 R 0 -1 R 1 -1 R 1 -1 R 1 -1 R 0 -1 R 1 0 R
1 -1 R 1 0 R 0 1 R 1 2 R 1 3 R 0 6 R 1 -2 R 1 -4 R 1 -2 R 1 1 R 1 2 R 0 3 R
1 2 R 1 4 R 1 3 R 0 4 R 1 4 R 1 4 R 1 3 R 0 3 R 1 1 R 1 1 R 1 -2 R 1 -2 R
1 -3 R 0 -3 R 1 -3 R 1 -4 R 0 -3 R 1 -4 R 1 -3 R 1 -2 R 0 -3 R 1 -2 R 1 -1 R
1 2 R 1 -2 R 1 -3 R 0 -1 R 1 -1 R 1 0 R 1 1 R 1 1 R 1 1 R 0 1 R 1 2 R 1 2 R
0 2 R 1 2 R 1 2 R 1 2 R 0 2 R 1 3 R 1 2 R 0 3 R 1 3 R 1 2 R 0 3 R 1 2 R
1 2 R 1 2 R 0 2 R 1 1 R 1 1 R 0 1 R 1 1 R 1 0 R 1 1 R 0 -1 R 1 0 R 1 -1 R
0 -1 R 1 -1 R 1 -2 R 0 -1 R 1 -2 R 1 -2 R 1 -2 R 0 -2 R 1 -1 R 1 -2 R 0 -2 R
1 -2 R 1 -2 R 0 -2 R 1 -2 R 1 -2 R 1 -1 R 0 -2 R 1 -2 R 1 -1 R 0 -1 R 1 -2 R
1 -1 R 0 -1 R 1 -1 R 1 -2 R 1 -1 R 1 -1 R 1 -1 R 0 -1 R 1 0 R 1 0 R 0 1 R
1 2 R 1 3 R 1 -2 R 0 -3 R 1 -2 R 1 0 R 1 0 R 1 1 R 1 2 R 1 1 R 0 2 R 1 2 R
1 3 R 0 3 R 1 4 R 1 4 R 1 5 R 0 5 R 1 5 R 1 5 R 0 4 R 1 3 R 1 1 R 1 -1 R
1 -2 R 0 -3 R 1 -4 R 1 -3 R 0 -3 R 1 -3 R 1 -2 R 1 -2 R 0 -4 R 1 -2 R 1 -2 R
0 -2 R 1 -1 R 1 0 R 1 0 R 1 0 R 1 1 R 1 1 R 0 1 R 1 2 R 1 1 R 0 2 R 1 2 R
1 2 R 1 2 R 0 2 R 1 3 R 1 3 R 0 3 R 1 3 R 1 3 R 0 3 R 1 3 R 1 3 R 0 4 R
1 3 R 1 4 R 0 3 R 1 3 R 1 3 R 0 3 R 1 2 R 1 2 R 0 2 R 1 1 R 1 1 R 1 0 R
1 0 R 0 -1 R 1 -1 R 1 -1 R 0 -2 R 1 -1 R 1 -2 R 0 -2 R 1 -2 R 1 -2 R 0 -2 R
1 -1 R 1 -2 R 0 -2 R 1 -1 R 1 -2 R 0 -1 R 1 -2 R 1 -1 R 0 -1 R 1 -1 R 1 -1 R
1 -1 R 0 -1 R 1 0 R 1 -1 R 1 0 R 1 2 R 1 -2 R 1 -2 R 0 -1 R 1 0 R 1 0 R
1 0 R 1 0 R 1 0 R 0 1 R 1 0 R 1 1 R 0 1 R 1 1 R 1 2 R 0 1 R 1 2 R 1 3 R
0 3 R 1 3 R 1 4 R 0 5 R 1 5 R 1 5 R 0 5 R 1 5 R 1 3 R 0 2 R 1 0 R 1 -1 R
0 -3 R 1 -4 R 1 -4 R 0 -4 R 1 -4 R 1 -3 R 0 -2 R 1 -2 R 1 -1 R 0 -2 R 1 0 R
1 -1 R 1 0 R 1 0 R 1 1 R 1 1 R 0 1 R 1 1 R 0 1 R 1 1 R 1 2 R 0 1 R 1 2 R
1 2 R 0 2 R 1 2 R 1 2 R 0 3 R 1 2 R 1 3 R 0 2 R 1 3 R 1 3 R 0 3 R 1 3 R
1 4 R 0 3 R 1 3 R 0 4 R 1 3 R 1 4 R 0 3 R 1 3 R 1 3 R 0 2 R 1 2 R 1 1 R
0 1 R 1 0 R 1 0 R 0 -1 R 1 -1 R 1 -2 R 0 -2 R 1 -2 R 0 -2 R 1 -2 R 1 -3 R
0 -2 R 1 -2 R 1 -2 R 0 -2 R 1 -1 R 1 -2 R 0 -1 R 1 -2 R 1 -1 R 0 -1 R 1 0 R
0 -1 R 1 0 R 1 -1 R 0 -2 R 1 -1 R 1 -1 R 0 -1 R 1 0 R 1 -1 R 1 -1 R 1 0 R
1 0 R 1 0 R 1 -1 R 0 1 R 1 0 R 1 0 R 1 1 R 1 0 R 0 1 R 1 1 R 0 1 R 1 1 R
1 2 R 0 2 R 1 3 R 1 4 R 0 4 R 1 5 R 1 5 R 0 4 R 1 4 R 0 2 R 1 1 R 1 -2 R
0 -4 R 1 -4 R 1 -4 R 0 -4 R 1 -3 R 0 -3 R 1 -2 R 1 -2 R 0 -1 R 1 -1 R 1 -1 R
0 -1 R 1 0 R 1 0 R 1 0 R 1 1 R 1 0 R 0 1 R 1 1 R 1 1 R 0 1 R 1 1 R 0 1 R
1 1 R 1 2 R 0 1 R 1 2 R 1 2 R 0 1 R 1 2 R 0 2 R 1 2 R 1 2 R 0 2 R 1 2 R
1 3 R 0 2 R 1 3 R 0 3 R 1 3 R 1 3 R 0 3 R 1 3 R 1 3 R 0 4 R 1 3 R 0 2 R
1 3 R 1 1 R 0 1 R 1 0 R 1 -2 R 1 -2 R 0 -2 R 1 -3 R 1 -3 R 0 -3 R 1 -3 R
0 -2 R 1 -3 R 1 -2 R 0 -2 R 1 -2 R 1 -1 R 0 -2 R 1 -3 R 0 -1 R 1 -2 R 1 -1 R
0 -2 R 1 -1 R 0 -1 R 1 -1 R 1 -1 R 0 -1 R 1 -1 R 1 -1 R 0 -1 R 1 0 R 0 -1 R
1 -1 R 1 0 R 0 -1 R 1 0 R 0 -1 R 1 0 R 1 -1 R 1 0 R 1 0 R 1 0 R 1 0 R 1 1 R
0 1 R 1 1 R 0 1 R 1 2 R 1 3 R 0 4 R 1 4 R 0 5 R 1 4 R 1 2 R 0 1 R 1 -3 R
0 -4 R 1 -5 R 1 -5 R 0 -4 R 1 -4 R 1 -2 R 0 -3 R 1 -2 R 0 -1 R 1 -1 R 1 -1 R
0 -1 R 1 -1 R 1 -1 R 1 0 R 1 0 R 1 0 R 1 1 R 1 1 R 1 1 R 1 1 R 0 1 R 1 0 R
0 2 R 1 1 R 1 1 R 0 1 R 1 1 R 0 2 R 1 1 R 1 2 R 0 1 R 1 2 R 0 2 R 1 1 R
1 2 R 0 2 R 1 2 R 0 3 R 1 2 R 1 3 R 0 3 R 1 3 R 0 3 R 1 4 R 1 3 R 0 2 R
1 2 R 0 1 R 1 0 R 1 -2 R 0 -2 R 1 -3 R 0 -3 R 1 -4 R 1 -4 R 0 -3 R 1 -4 R
0 -3 R 1 -3 R 1 -3 R 0 -3 R 1 -2 R 0 -2 R 1 -2 R 1 -2 R 0 -1 R 1 -2 R 0 -2 R
1 -1 R 1 -1 R 0 -2 R 1 -1 R 0 -1 R 1 -1 R 0 -1 R 1 -1 R 1 -1 R 0 -1 R 1 -1 R
0 -1 R 1 -1 R 1 -1 R 0 -1 R 1 -1 R 1 -1 R 1 -1 R 0 -1 R 1 0 R 0 -1 R 1 0 R
1 0 R 1 0 R 0 1 R 1 1 R 0 2 R 1 3 R 1 4 R 0 5 R 1 4 R 0 2 R 1 -1 R 1 -5 R
0 -5 R 1 -6 R 0 -5 R 1 -4 R 0 -3 R 1 -3 R 1 -2 R 0 -2 R 1 -2 R 0 -1 R 1 -2 R
1 -1 R 0 -1 R 1 0 R 0 -1 R 1 -1 R 1 -1 R 1 0 R 1 0 R 1 0 R 1 0 R 1 1 R 1 1 R
1 1 R 1 1 R 0 1 R 1 1 R 0 1 R 1 1 R 1 2 R 0 1 R 1 1 R 0 2 R 1 1 R 0 2 R
1 1 R 1 2 R 0 2 R 1 1 R 0 3 R 1 2 R 0 2 R 1 3 R 1 3 R 0 4 R 1 4 R 0 4 R
1 3 R 1 2 R 1 -1 R 0 -3 R D 16806 9103 M 1 -4 R 0 -5 R 1 -4 R 1 -5 R 0 -4 R
1 -4 R 0 -3 R 1 -3 R 0 -3 R 1 -3 R 1 -2 R 0 -2 R 1 -2 R 0 -2 R 1 -1 R 0 -2 R
1 -2 R 1 -1 R 0 -1 R 1 -2 R 0 -1 R 1 -1 R 0 -1 R 1 -1 R 1 -1 R 0 -1 R 1 -1 R
0 -2 R 1 -1 R 0 -1 R 1 -1 R 1 -1 R 0 -1 R 1 0 R 0 -1 R 1 -1 R 0 -1 R 1 -1 R
1 0 R 0 -1 R 1 0 R 1 1 R 0 1 R 1 2 R 0 3 R 1 4 R 1 5 R 0 3 R 1 0 R 0 -4 R
1 -6 R 0 -6 R 1 -6 R 1 -4 R 0 -3 R 1 -3 R 0 -2 R 1 -2 R 0 -2 R 1 -2 R 1 -1 R
0 -1 R 1 -1 R 0 -1 R 1 -1 R 0 -1 R 1 -1 R 0 -1 R 1 0 R 1 -1 R 1 0 R 0 -1 R
1 0 R 1 0 R 1 1 R 1 0 R 0 1 R 1 1 R 1 1 R 0 1 R 1 2 R 1 1 R 0 1 R 1 2 R
0 1 R 1 2 R 0 1 R 1 2 R 0 2 R 1 2 R 1 1 R 0 2 R 1 2 R 0 2 R 1 3 R 0 2 R
1 3 R 0 3 R 1 4 R 1 4 R 0 4 R 1 5 R 0 3 R 1 1 R 0 -1 R 1 -4 R 0 -5 R 1 -5 R
1 -5 R 0 -5 R 1 -4 R 0 -3 R 1 -3 R 0 -3 R 1 -2 R 0 -2 R 1 -1 R 1 -2 R 0 -1 R
1 -1 R 0 -1 R 1 -1 R 0 -1 R 1 -1 R 0 -1 R 1 -1 R 1 -1 R 0 -1 R 1 0 R 0 -1 R
1 -1 R 1 -1 R 0 -1 R 1 0 R 0 -1 R 1 -1 R 1 0 R 0 -1 R 1 -1 R 1 -1 R 1 0 R
1 0 R 1 0 R 0 1 R 1 1 R 0 3 R 1 4 R 0 4 R 1 4 R 0 1 R 1 -5 R 0 -6 R 1 -5 R
1 -5 R 0 -3 R 1 -3 R 0 -2 R 1 -2 R 0 -2 R 1 -1 R 0 -1 R 1 -1 R 0 -1 R 1 -1 R
1 -1 R 0 -1 R 1 -1 R 1 -1 R 1 -1 R 1 0 R 0 -1 R 1 0 R 1 0 R 1 0 R 0 1 R
1 0 R 0 1 R 1 0 R 0 1 R 1 1 R 0 1 R 1 1 R 0 1 R 1 2 R 1 1 R 0 2 R 1 2 R
0 2 R 1 2 R 0 2 R 1 2 R 0 3 R 1 2 R 0 2 R 1 2 R 0 2 R 1 3 R 1 2 R 0 3 R
1 3 R 0 3 R 1 4 R 0 5 R 1 6 R 0 5 R 1 3 R 1 -3 R 0 -5 R 1 -5 R 1 -5 R 0 -4 R
1 -4 R 0 -2 R 1 -2 R 0 -2 R 1 -1 R 0 -1 R 1 -1 R 0 -1 R 1 0 R 0 -1 R 1 0 R
1 -1 R 1 0 R 1 0 R 1 0 R 1 0 R 1 0 R 1 0 R 1 0 R 1 0 R 1 0 R 1 0 R 1 0 R
0 1 R 1 0 R 0 1 R 1 1 R 0 1 R 1 3 R 0 3 R 1 5 R 0 3 R 1 -1 R 0 -5 R 1 -5 R
1 -4 R 0 -3 R 1 -2 R 0 -1 R 1 -2 R 0 -1 R 1 -1 R 1 -1 R 0 -1 R 1 0 R 0 -1 R
1 0 R 0 -1 R 1 0 R 1 -1 R 1 0 R 1 0 R 0 -1 R 1 0 R 1 0 R 1 1 R 1 0 R 1 1 R
0 1 R 1 0 R 0 1 R 1 1 R 0 1 R 1 2 R 0 1 R 1 1 R 0 2 R 1 2 R 1 2 R 0 2 R
1 2 R 0 3 R 1 2 R 0 2 R 1 3 R 0 3 R 1 2 R 0 3 R 1 2 R 0 3 R 1 3 R 0 3 R
1 4 R 0 4 R 1 5 R 0 5 R 1 4 R 1 -3 R 0 -5 R 1 -5 R 1 -3 R 0 -3 R 1 -2 R
0 -2 R 1 -1 R 0 -1 R 1 -1 R 1 0 R 1 0 R 1 0 R 0 1 R 1 0 R 0 1 R 1 0 R 0 1 R
1 0 R 0 1 R 1 0 R 0 1 R 1 1 R 1 1 R 1 1 R 1 1 R 1 1 R 1 0 R 1 1 R 1 1 R
0 1 R 1 1 R 0 2 R 1 2 R 0 4 R 1 3 R 1 -3 R 0 -3 R 1 -3 R 0 -2 R 1 -2 R
0 -1 R 1 -1 R 0 -1 R 1 0 R 0 -1 R 1 0 R 0 -1 R 1 0 R 1 -1 R 1 0 R 0 -1 R
1 0 R 1 0 R 0 -1 R 1 0 R 1 0 R 1 0 R 1 0 R 1 0 R 1 0 R 0 1 R 1 0 R 1 1 R
1 1 R 1 1 R 0 1 R 1 1 R 0 1 R 1 2 R 0 1 R 1 2 R 0 2 R 1 2 R 0 2 R 1 2 R
0 3 R 1 2 R 0 2 R 1 3 R 0 3 R 1 2 R 0 3 R 1 3 R 0 3 R 1 4 R 0 5 R 1 4 R
0 2 R 1 -2 R 0 -4 R 1 -4 R 0 -4 R 1 -2 R 0 -2 R 1 -2 R 0 -1 R 1 -1 R 1 -1 R
1 0 R 1 0 R 0 1 R 1 0 R 0 1 R 1 0 R 0 1 R 1 1 R 1 1 R 0 1 R 1 1 R 0 1 R
1 1 R 1 1 R 0 1 R 1 1 R 1 1 R 0 1 R 1 0 R 0 1 R 1 0 R 0 1 R 1 1 R 0 1 R
1 1 R 0 2 R 1 2 R 0 2 R 1 0 R 0 -2 R 1 -3 R 0 -2 R 1 -1 R 0 -1 R 1 -1 R
0 -1 R 1 -1 R 1 -1 R 0 -1 R 1 0 R 0 -1 R 1 0 R 0 -1 R 1 0 R 0 -1 R 1 0 R
0 -1 R 1 0 R 0 -1 R 1 -1 R 1 -1 R 1 0 R 0 -1 R 1 0 R 1 -1 R 1 0 R 1 0 R
1 -1 R 1 1 R 1 0 R 1 1 R 1 1 R 1 1 R 0 1 R 1 1 R 0 2 R 1 1 R 0 2 R 1 2 R
0 2 R 1 2 R 0 2 R 1 3 R 0 2 R 1 3 R 0 3 R 1 4 R 0 4 R 1 4 R 0 1 R 1 -2 R
0 -4 R 1 -3 R 0 -3 R 1 -3 R 0 -2 R 1 -1 R 0 -2 R 0 -1 R 1 -1 R 0 -1 R 1 -1 R
1 -1 R 1 0 R 1 0 R 0 1 R 1 0 R 1 1 R 0 1 R 1 1 R 1 1 R 0 1 R 1 1 R 0 1 R
1 1 R 0 1 R 1 0 R 0 1 R 1 1 R 0 1 R 1 0 R 0 1 R 1 1 R 0 1 R 1 1 R 0 1 R
0 2 R 1 1 R 1 -3 R 0 -2 R 1 -1 R 0 -1 R 1 -1 R 0 -1 R 1 -1 R 0 -1 R 1 -1 R
0 -1 R 1 -1 R 0 -1 R 1 -1 R 1 -1 R 0 -1 R 1 -1 R 0 -1 R 1 -1 R 0 -1 R 1 -1 R
0 -1 R 0 -1 R 1 0 R 0 -1 R 1 -1 R 0 -1 R 1 -1 R 1 -1 R 0 -1 R 1 -1 R 1 -1 R
0 -1 R 1 0 R 0 -1 R 1 0 R 0 -1 R 1 0 R 0 -1 R 1 0 R 1 0 R 0 -1 R 1 0 R 1 1 R
1 0 R 0 1 R 1 1 R 0 1 R 1 1 R 0 2 R 1 1 R 0 2 R 1 3 R 0 2 R 1 3 R 0 4 R
1 4 R 0 4 R 1 -2 R 0 -3 R 1 -2 R 0 -2 R 1 -3 R 0 -2 R 1 -2 R 0 -2 R 1 -1 R
0 -2 R 1 -2 R 0 -1 R 1 -1 R 0 -2 R 1 -1 R 1 -1 R 0 -1 R 1 0 R 1 0 R 0 1 R
1 0 R 0 1 R 1 0 R 0 1 R 1 1 R 0 1 R 1 1 R 0 1 R 1 1 R 0 1 R 1 1 R 0 1 R
0 1 R 1 1 R 0 1 R 1 2 R 0 2 R 1 1 R 0 1 R 1 -1 R 0 -2 R 1 -1 R 0 -1 R 1 -1 R
0 -1 R 1 -1 R 0 -1 R 0 -1 R 1 -1 R 0 -1 R 1 -1 R 0 -1 R 1 -2 R 0 -1 R 1 -1 R
0 -2 R 1 -1 R 0 -1 R 1 -2 R 0 -1 R 1 -1 R 0 -2 R 0 -1 R 1 -1 R 0 -1 R 1 -2 R
0 -1 R 1 -1 R 0 -1 R 1 -1 R 0 -2 R 1 -1 R 0 -1 R 1 -1 R 0 -1 R 0 -1 R 1 -1 R
0 -1 R 1 0 R 0 -1 R 1 -1 R 0 -1 R 1 -1 R 1 -1 R 0 -1 R 1 0 R 0 -1 R 1 0 R
1 -1 R 1 1 R 1 0 R 0 1 R 1 1 R 0 2 R 1 1 R 0 3 R 1 3 R 0 4 R 0 4 R 1 2 R
1 -1 R 0 -1 R 1 -1 R 1 -2 R 0 -1 R 1 -2 R 0 -2 R 0 -3 R 1 -2 R 0 -2 R 1 -3 R
0 -2 R 1 -1 R 0 -2 R 1 -2 R 0 -1 R 1 -1 R 0 -1 R 1 0 R 0 -1 R 1 0 R 1 0 R
1 1 R 1 1 R 0 1 R 1 1 R 0 1 R 0 2 R 1 1 R 0 2 R 1 1 R 0 2 R 1 3 R 0 2 R
1 2 R 1 0 R 1 1 R 1 0 R 1 -1 R 1 -1 R 0 -1 R 1 -1 R 0 -1 R 0 -2 R 1 -1 R
0 -2 R 1 -1 R 0 -2 R 1 -1 R 0 -2 R 1 -2 R 0 -1 R 1 -2 R 0 -2 R 0 -1 R 1 -2 R
0 -1 R 1 -2 R 0 -1 R 1 -2 R 0 -1 R 1 -2 R 0 -1 R 1 -1 R 0 -1 R 0 -2 R 1 -1 R
0 -1 R 1 -1 R 0 -1 R 1 -1 R 0 -1 R 1 -1 R 0 -1 R 0 -1 R 1 0 R 0 -1 R 1 -1 R
D 17240 9001 M 1 -1 R 0 -1 R 1 0 R 1 -1 R 1 0 R 1 0 R 0 1 R 1 1 R 0 2 R
1 2 R 0 3 R 0 3 R 1 1 R 1 1 R 0 1 R 1 2 R 0 1 R 1 1 R 0 1 R 1 -1 R 0 -2 R
1 -2 R 0 -2 R 1 -3 R 0 -2 R 1 -3 R 0 -2 R 0 -2 R 1 -2 R 0 -2 R 1 -1 R 0 -1 R
1 -1 R 0 -1 R 1 0 R 0 -1 R 1 0 R 1 1 R 1 1 R 0 1 R 1 1 R 0 1 R 0 1 R 1 2 R
0 2 R 1 2 R 0 3 R 1 2 R 0 1 R 1 1 R 0 2 R 0 2 R 1 1 R 0 2 R 1 2 R 0 2 R
1 1 R 0 1 R 1 1 R 0 1 R 0 1 R 1 0 R 1 -1 R 0 -1 R 1 -1 R 0 -1 R 1 -1 R
0 -2 R 0 -1 R 1 -2 R 0 -2 R 1 -1 R 0 -2 R 1 -2 R 0 -1 R 0 -2 R 1 -2 R 0 -1 R
1 -2 R 0 -1 R 1 -1 R 0 -2 R 1 -1 R 0 -1 R 0 -1 R 1 -1 R 0 -1 R 1 -1 R 0 -1 R
1 -1 R 0 -1 R 1 -1 R 0 -1 R 1 -1 R 1 -1 R 0 -1 R 1 0 R 0 -1 R 1 0 R 1 -1 R
1 0 R 1 0 R 0 1 R 1 1 R 0 2 R 1 2 R 0 1 R 1 0 R 0 1 R 1 1 R 0 2 R 1 2 R
0 3 R 1 3 R 0 2 R 0 2 R 1 2 R 1 -1 R 0 -2 R 1 -2 R 0 -2 R 1 -3 R 0 -2 R
0 -2 R 1 -2 R 0 -2 R 1 -1 R 0 -2 R 1 0 R 0 -1 R 0 -1 R 1 0 R 1 0 R 1 0 R
0 1 R 1 1 R 0 1 R 1 2 R 0 1 R 1 2 R 0 2 R 0 1 R 1 1 R 0 2 R 1 1 R 0 2 R
1 2 R 0 3 R 0 2 R 1 3 R 0 2 R 1 3 R 0 3 R 1 2 R 0 3 R 0 2 R 1 3 R 0 2 R
1 1 R 0 1 R 1 1 R 0 1 R 1 -1 R 0 -1 R 1 -1 R 0 -1 R 1 -2 R 0 -1 R 1 -2 R
0 -1 R 0 -2 R 1 -1 R 0 -2 R 1 -1 R 0 -2 R 1 -1 R 0 -1 R 0 -1 R 1 -1 R 0 -1 R
1 -1 R 0 -1 R 0 -1 R 1 -1 R 1 -1 R 0 -1 R 1 0 R 0 -1 R 1 -1 R 1 0 R 1 -1 R
1 0 R 1 0 R 1 0 R 1 1 R 0 1 R 1 1 R 0 1 R 1 0 R 0 -1 R 1 1 R 1 2 R 0 1 R
1 2 R 0 2 R 0 2 R 1 3 R 0 3 R 1 3 R 0 2 R 0 2 R 1 0 R 0 -1 R 1 -2 R 0 -2 R
1 -3 R 0 -2 R 0 -2 R 1 -2 R 0 -1 R 1 -1 R 0 -1 R 1 -1 R 1 -1 R 1 1 R 1 0 R
0 1 R 0 1 R 1 1 R 0 1 R 1 1 R 0 1 R 1 2 R 0 1 R 1 1 R 0 2 R 1 2 R 0 1 R
0 2 R 1 3 R 0 2 R 1 2 R 0 3 R 0 2 R 1 3 R 0 3 R 1 3 R 0 3 R 1 3 R 0 3 R
0 2 R 1 3 R 0 2 R 1 2 R 0 1 R 1 1 R 1 -1 R 0 -1 R 1 -1 R 0 -2 R 0 -1 R
1 -2 R 0 -2 R 1 -1 R 0 -2 R 1 -1 R 0 -1 R 0 -1 R 1 -1 R 0 -1 R 1 -1 R 0 -1 R
0 -1 R 1 0 R 0 -1 R 1 -1 R 1 0 R 0 -1 R 1 0 R 0 -1 R 1 0 R 1 -1 R 1 0 R
1 0 R 1 1 R 1 1 R 1 -1 R 1 0 R 0 1 R 1 0 R 0 1 R 1 0 R 0 1 R 1 2 R 0 1 R
0 2 R 1 2 R 0 3 R 1 3 R 0 2 R 0 2 R 1 1 R 0 -1 R 1 -1 R 0 -3 R 0 -2 R 1 -2 R
0 -2 R 1 -2 R 0 -2 R 1 -1 R 0 -1 R 1 -1 R 1 0 R 1 0 R 0 1 R 1 0 R 0 1 R
1 0 R 0 1 R 1 0 R 0 1 R 0 1 R 1 1 R 0 1 R 1 1 R 0 1 R 1 2 R 0 1 R 0 2 R
1 2 R 0 1 R 1 2 R 0 2 R 0 3 R 1 2 R 0 2 R 1 3 R 0 2 R 0 3 R 1 3 R 0 3 R
1 3 R 0 2 R 0 3 R 1 2 R 0 1 R 1 1 R 1 0 R 0 -1 R 0 -1 R 1 -2 R 0 -2 R 1 -2 R
0 -2 R 0 -1 R 1 -2 R 0 -1 R 1 -2 R 0 -1 R 0 -1 R 1 -1 R 0 -1 R 1 -1 R 0 -1 R
1 -1 R 1 -1 R 0 -1 R 1 0 R 1 -1 R 1 0 R 0 -1 R 1 0 R 1 0 R 1 0 R 1 -1 R
1 -1 R 1 0 R 1 0 R 1 1 R 0 1 R 1 0 R 0 2 R 1 1 R 0 2 R 0 2 R 1 2 R 0 2 R
1 1 R 0 -1 R 0 -1 R 1 -3 R 0 -3 R 1 -2 R 0 -2 R 0 -2 R 1 -1 R 0 -2 R 1 -1 R
0 -1 R 1 -1 R 1 0 R 0 -1 R 1 0 R 0 -1 R 1 0 R 0 1 R 1 0 R 1 0 R 0 1 R 1 1 R
1 1 R 0 1 R 0 1 R 1 1 R 0 1 R 1 1 R 0 2 R 0 1 R 1 2 R 0 1 R 1 2 R 0 2 R
0 2 R 1 2 R 0 2 R 1 3 R 0 2 R 0 3 R 1 2 R 0 3 R 1 2 R 0 2 R 0 2 R 1 1 R
0 -1 R 1 0 R 0 -2 R 0 -2 R 1 -2 R 0 -3 R 0 -2 R 1 -2 R 0 -2 R 1 -1 R 0 -2 R
0 -1 R 1 -2 R 0 -1 R 1 -1 R 0 -1 R 0 -1 R 1 0 R 0 -1 R 1 -1 R 0 -1 R 1 0 R
0 -1 R 1 0 R 0 -1 R 1 0 R 0 -1 R 1 0 R 0 -1 R 1 0 R 0 -1 R 1 0 R 0 -1 R
1 0 R 0 -1 R 1 0 R 0 -1 R 1 0 R 0 -1 R 1 0 R 1 0 R 1 1 R 0 1 R 1 1 R 0 1 R
0 2 R 1 2 R 1 -1 R 0 -2 R 0 -3 R 1 -3 R 0 -2 R 1 -3 R 0 -1 R 0 -2 R 1 -1 R
0 -2 R 0 -1 R 1 -1 R 0 -1 R 1 -1 R 0 -1 R 1 -1 R 1 -1 R 0 -1 R 1 0 R 1 0 R
0 -1 R 1 0 R 1 1 R 1 1 R 0 1 R 1 1 R 1 1 R 0 2 R 0 1 R 1 1 R 0 1 R 1 2 R
0 1 R 0 2 R 1 2 R 0 2 R 0 2 R 1 2 R 0 3 R 1 2 R 0 3 R 0 2 R 1 2 R 0 1 R
1 0 R 0 -2 R 1 -3 R 0 -2 R 1 -3 R 0 -2 R 0 -3 R 1 -2 R 0 -2 R 0 -2 R 1 -1 R
0 -1 R 1 -2 R 0 -1 R 0 -1 R 1 0 R 0 -1 R 1 -1 R 0 -1 R 1 -1 R 0 -1 R 1 0 R
1 -1 R 0 -1 R 1 0 R 0 -1 R 1 0 R 0 -1 R 1 -1 R 0 -1 R 1 0 R 0 -1 R 1 0 R
0 -1 R 1 -1 R 1 0 R 0 -1 R 1 0 R 1 1 R 0 1 R 1 1 R 0 2 R 0 1 R 1 0 R 0 -2 R
1 -3 R 0 -3 R 0 -3 R 1 -2 R 0 -2 R 0 -2 R 1 -2 R 0 -1 R 1 -1 R 0 -2 R 0 -1 R
1 -1 R 0 -1 R 0 -1 R 1 -1 R 1 -1 R 0 -1 R 0 -1 R 1 0 R 0 -1 R 1 0 R 0 -1 R
1 -1 R 1 0 R 1 0 R 1 0 R 0 1 R 1 1 R 0 1 R 1 1 R 0 1 R 0 1 R 1 1 R 0 1 R
1 2 R 0 1 R 0 2 R 1 2 R 0 2 R 0 2 R 1 2 R 0 3 R 1 2 R 0 3 R 0 2 R 1 2 R
0 1 R 0 -1 R 1 -2 R 0 -3 R 1 -3 R 0 -3 R 0 -2 R 1 -3 R 0 -2 R 0 -2 R 1 -1 R
0 -2 R 1 -1 R 0 -1 R 0 -1 R 1 0 R 0 -1 R 1 -1 R 1 -1 R 1 -1 R 1 0 R 0 -1 R
1 0 R 1 0 R 0 -1 R 1 0 R 1 -1 R 1 -1 R 1 -1 R 1 0 R 1 0 R 1 1 R 0 2 R 1 1 R
0 1 R 0 -1 R 1 -2 R 0 -3 R 0 -3 R 1 -2 R 0 -2 R 1 -2 R 0 -1 R 0 -2 R 1 -1 R
0 -1 R 0 -1 R 1 -1 R 0 -1 R 1 -1 R 0 -1 R 1 -1 R 0 -1 R 1 -1 R 0 -1 R 1 0 R
0 -1 R 1 -1 R 1 -1 R 1 0 R 1 0 R 0 1 R 1 0 R 0 1 R 1 1 R 0 1 R 1 1 R 0 1 R
0 2 R 1 1 R 0 2 R 0 2 R 1 2 R 0 2 R 1 2 R 0 2 R 0 2 R 1 3 R 0 3 R 0 3 R
1 2 R 0 2 R 0 1 R 1 -1 R 0 -3 R 1 -2 R 0 -3 R 0 -3 R 1 -2 R 0 -2 R 0 -2 R
1 -1 R 0 -1 R 1 -1 R 0 -1 R 1 -1 R 1 0 R 1 0 R 1 0 R 1 1 R 1 1 R 1 0 R 0 1 R
1 0 R 1 0 R 1 0 R 1 0 R 1 0 R 0 1 R 1 1 R 0 2 R 1 1 R 0 1 R 1 0 R 0 -2 R
0 -2 R 1 -2 R 0 -2 R 0 -2 R 1 -1 R 0 -1 R 0 -1 R 1 -1 R 0 -1 R 1 0 R 0 -1 R
1 -1 R 0 -1 R 1 -1 R 0 -1 R 1 0 R 1 -1 R 1 -1 R D 17616 8986 M 1 0 R 1 0 R
1 0 R 1 1 R 0 1 R 1 0 R 0 1 R 0 1 R 1 1 R 0 1 R 1 1 R 0 2 R 0 2 R 1 1 R
0 2 R 0 2 R 1 3 R 0 2 R 0 2 R 1 3 R 0 3 R 1 3 R 0 3 R 0 2 R 1 2 R 0 -2 R
1 -2 R 0 -3 R 0 -2 R 1 -2 R 0 -2 R 1 -1 R 0 -1 R 0 -1 R 1 -1 R 1 -1 R 1 1 R
1 1 R 1 1 R 0 1 R 0 1 R 1 0 R 0 1 R 0 1 R 1 1 R 0 1 R 1 1 R 0 1 R 1 1 R
0 1 R 1 0 R 0 1 R 1 0 R 0 1 R 1 0 R 0 1 R 1 0 R 0 1 R 0 1 R 1 1 R 0 1 R
1 1 R 0 -2 R 1 -1 R 0 -2 R 0 -1 R 1 -1 R 0 -1 R 0 -1 R 1 0 R 0 -1 R 1 -1 R
1 -1 R 1 -1 R 1 0 R 0 -1 R 1 0 R 1 -1 R 1 0 R 1 0 R 1 0 R 0 1 R 1 0 R 0 1 R
1 0 R 0 1 R 1 1 R 0 1 R 1 1 R 0 1 R 0 1 R 1 2 R 0 1 R 0 2 R 1 2 R 0 2 R
0 2 R 1 2 R 0 3 R 0 3 R 1 2 R 0 3 R 1 3 R 0 2 R 1 -1 R 0 -2 R 0 -2 R 1 -2 R
0 -2 R 0 -1 R 1 -2 R 0 -1 R 1 -1 R 0 -1 R 1 0 R 1 1 R 1 0 R 0 1 R 0 1 R
1 1 R 0 1 R 1 1 R 0 1 R 0 1 R 1 2 R 0 1 R 0 1 R 1 1 R 0 1 R 0 1 R 1 1 R
0 1 R 1 0 R 0 1 R 0 1 R 1 0 R 0 1 R 1 1 R 0 1 R 1 0 R 0 1 R 0 1 R 1 1 R
0 -1 R 1 -1 R 0 -1 R 0 -1 R 1 -1 R 0 -1 R 1 -1 R 0 -1 R 1 -1 R 0 -1 R 1 0 R
0 -1 R 1 0 R 0 -1 R 1 0 R 0 -1 R 1 0 R 0 -1 R 1 0 R 1 -1 R 1 0 R 1 0 R 1 0 R
1 0 R 0 1 R 1 0 R 0 1 R 1 0 R 0 1 R 1 1 R 0 1 R 0 1 R 1 2 R 0 1 R 0 2 R
1 1 R 0 2 R 1 3 R 0 2 R 0 3 R 1 3 R 0 2 R 0 2 R 1 0 R 0 -1 R 0 -2 R 1 -2 R
0 -1 R 0 -2 R 1 -1 R 0 -2 R 0 -1 R 1 -1 R 0 -1 R 1 -1 R 0 -1 R 1 0 R 1 1 R
1 1 R 0 1 R 1 0 R 0 1 R 0 1 R 1 1 R 0 1 R 0 2 R 1 1 R 0 1 R 0 1 R 1 1 R
0 1 R 0 1 R 1 1 R 0 1 R 0 1 R 1 1 R 0 1 R 1 1 R 0 1 R 1 0 R 0 1 R 1 0 R
0 -1 R 0 -1 R 1 -1 R 0 -1 R 0 -1 R 1 -1 R 0 -1 R 0 -1 R 1 -1 R 0 -1 R 1 -1 R
0 -1 R 1 0 R 0 -1 R 0 -1 R 1 0 R 0 -1 R 0 -1 R 1 0 R 0 -1 R 1 -1 R 0 -1 R
1 0 R 0 -1 R 1 -1 R 1 -1 R 1 -1 R 1 0 R 0 -1 R 1 0 R 1 0 R 1 0 R 0 1 R 1 0 R
0 1 R 0 1 R 1 1 R 0 1 R 0 1 R 1 1 R 0 2 R 0 2 R 1 3 R 0 2 R 0 3 R 1 1 R
0 -1 R 1 -2 R 0 -1 R 0 -1 R 1 -2 R 0 -1 R 1 -2 R 0 -1 R 0 -2 R 1 -1 R 0 -1 R
0 -1 R 1 -1 R 0 -1 R 1 -1 R 1 0 R 1 0 R 0 1 R 1 1 R 0 1 R 0 1 R 1 1 R 0 1 R
0 1 R 1 1 R 0 1 R 0 1 R 1 2 R 0 1 R 0 1 R 1 1 R 0 1 R 0 1 R 1 1 R 0 1 R
0 1 R 1 1 R 1 0 R 0 -1 R 0 -1 R 1 -1 R 0 -1 R 0 -1 R 1 -1 R 0 -1 R 0 -2 R
1 -1 R 0 -1 R 0 -1 R 1 -1 R 0 -1 R 0 -1 R 1 -1 R 0 -1 R 0 -1 R 1 -1 R 0 -1 R
0 -1 R 1 -1 R 0 -1 R 0 -1 R 1 -1 R 0 -1 R 1 -1 R 0 -1 R 0 -1 R 1 0 R 0 -1 R
0 -1 R 1 0 R 0 -1 R 1 -1 R 0 -1 R 1 0 R 0 -1 R 1 -1 R 1 0 R 0 -1 R 1 0 R
1 0 R 1 1 R 0 1 R 1 1 R 0 2 R 0 1 R 1 2 R 0 2 R 0 2 R 1 0 R 1 0 R 0 -1 R
0 -1 R 1 -2 R 0 -1 R 0 -2 R 1 -2 R 0 -1 R 0 -2 R 1 -2 R 0 -1 R 0 -1 R 1 -1 R
0 -1 R 0 -1 R 1 -1 R 1 -1 R 1 0 R 0 1 R 1 1 R 0 1 R 1 1 R 0 1 R 0 1 R 1 2 R
0 1 R 0 1 R 1 2 R 0 1 R 0 2 R 1 1 R 0 2 R 0 2 R 1 1 R 0 1 R 1 0 R 1 -1 R
0 -1 R 0 -1 R 1 0 R 0 -2 R 0 -1 R 1 -1 R 0 -1 R 0 -2 R 1 -1 R 0 -1 R 0 -2 R
1 -1 R 0 -1 R 0 -2 R 1 -1 R 0 -1 R 0 -2 R 1 -1 R 0 -1 R 0 -1 R 1 -1 R 0 -1 R
0 -1 R 1 -1 R 0 -1 R 0 -1 R 1 -1 R 0 -1 R 1 -1 R 0 -1 R 1 -1 R 0 -1 R 0 -1 R
1 0 R 0 -1 R 0 -1 R 1 0 R 0 -1 R 1 0 R 0 -1 R 1 0 R 0 -1 R 1 0 R 1 0 R 0 1 R
1 1 R 0 1 R 0 1 R 1 2 R 0 1 R 1 1 R 0 1 R 1 1 R 0 -1 R 1 -1 R 0 -1 R 0 -2 R
1 -2 R 0 -2 R 0 -2 R 0 -1 R 1 -2 R 0 -1 R 0 -2 R 1 -1 R 0 -1 R 1 -1 R 0 -1 R
1 0 R 1 0 R 1 1 R 0 1 R 1 0 R 0 1 R 0 1 R 1 2 R 0 1 R 0 1 R 1 2 R 0 2 R
0 2 R 1 2 R 0 2 R 0 2 R 0 1 R 1 2 R 0 1 R 0 1 R 1 1 R 0 1 R 1 0 R 1 -1 R
0 -1 R 0 -1 R 1 -1 R 0 -2 R 0 -1 R 1 -1 R 0 -2 R 0 -1 R 1 -2 R 0 -1 R 0 -1 R
1 -2 R 0 -1 R 0 -1 R 1 -1 R 0 -1 R 0 -1 R 0 -1 R 1 -1 R 0 -1 R 0 -1 R 1 -1 R
0 -1 R 1 -1 R 0 -1 R 1 -1 R 0 -1 R 1 0 R 0 -1 R 1 -1 R 1 -1 R 0 -1 R 1 0 R
1 -1 R 1 0 R 0 1 R 1 1 R 0 1 R 1 1 R 0 1 R 1 0 R 0 1 R 0 1 R 1 2 R 0 1 R
0 1 R 1 0 R 0 -1 R 0 -2 R 1 -2 R 0 -2 R 0 -1 R 1 -2 R 0 -1 R 0 -2 R 1 -1 R
0 -1 R 0 -1 R 1 0 R 0 -1 R 1 -1 R 1 0 R 0 1 R 1 0 R 0 1 R 1 1 R 0 1 R 0 1 R
1 1 R 0 1 R 0 1 R 1 2 R 0 2 R 0 2 R 1 2 R 0 1 R 0 2 R 1 2 R 0 2 R 0 3 R
0 2 R 1 2 R 0 2 R 0 2 R 1 1 R 0 1 R 0 1 R 1 0 R 0 -1 R 1 0 R 0 -1 R 0 -2 R
1 -1 R 0 -1 R 0 -1 R 1 -2 R 0 -1 R 0 -1 R 0 -1 R 1 -1 R 0 -1 R 0 -1 R 1 -1 R
0 -1 R 0 -1 R 1 0 R 0 -1 R 0 -1 R 1 0 R 0 -1 R 1 0 R 0 -1 R 1 -1 R 1 0 R
0 -1 R 1 0 R 1 0 R 1 0 R 1 0 R 1 0 R 0 1 R 0 1 R 1 0 R 1 0 R 0 1 R 0 1 R
1 1 R 0 1 R 0 1 R 0 2 R 1 1 R 0 1 R 0 1 R 1 -1 R 0 -1 R 0 -1 R 1 -2 R 0 -1 R
0 -2 R 1 -1 R 0 -1 R 0 -1 R 1 -1 R 0 -1 R 0 -1 R 1 0 R 1 0 R 1 0 R 0 1 R
1 0 R 0 1 R 0 1 R 1 1 R 0 1 R 0 2 R 1 1 R 0 1 R 0 1 R 1 2 R 0 1 R 0 2 R
1 2 R 0 2 R 0 2 R 0 2 R 1 3 R 0 2 R 0 3 R 1 2 R 0 2 R 0 3 R 1 2 R 0 1 R
0 1 R 1 1 R 0 -1 R 1 0 R 0 -1 R 0 -1 R 0 -1 R 1 -2 R 0 -1 R 0 -1 R 1 -1 R
0 -1 R 0 -1 R 1 0 R 0 -1 R 0 -1 R 1 0 R 0 -1 R 1 -1 R 1 0 R 0 -1 R 1 0 R
1 0 R 1 0 R 0 1 R 1 0 R 1 0 R 1 0 R 0 1 R 1 1 R 1 0 R 1 0 R 0 1 R 0 1 R
1 1 R 0 2 R 0 1 R 1 1 R 0 2 R 1 0 R 0 -2 R 1 -1 R 0 -2 R 0 -1 R 0 -1 R
1 -1 R 0 -1 R 0 -1 R 1 0 R 0 -1 R 1 0 R 0 -1 R 1 0 R 0 1 R 1 0 R 1 1 R 0 1 R
1 1 R 0 1 R 0 1 R 1 0 R 0 1 R 0 1 R 1 2 R 0 1 R 0 1 R 1 2 R 0 2 R 0 2 R
0 2 R 1 2 R 0 2 R 0 2 R 1 3 R 0 2 R 0 3 R 1 2 R 0 2 R 0 1 R 1 2 R 1 -1 R
0 -1 R 0 -2 R 1 -1 R 0 -1 R 0 -1 R 1 -1 R 0 -1 R D 17940 9054 M 0 -1 R
1 -1 R 0 -1 R 1 0 R 0 -1 R 1 0 R 0 -1 R 1 0 R 1 0 R 0 1 R 1 0 R 1 0 R 1 0 R
0 1 R 1 0 R 1 0 R 1 0 R 1 0 R 0 1 R 1 0 R 0 1 R 0 1 R 1 1 R 0 1 R 0 1 R
1 1 R 0 -1 R 0 -1 R 1 -2 R 0 -1 R 0 -2 R 1 -1 R 0 -1 R 0 -1 R 1 0 R 0 -1 R
0 -1 R 1 0 R 0 -1 R 1 0 R 0 -1 R 1 0 R 1 0 R 0 1 R 1 0 R 1 1 R 0 1 R 1 1 R
0 1 R 0 1 R 1 1 R 0 1 R 0 1 R 1 2 R 0 1 R 0 2 R 0 2 R 1 2 R 0 2 R 0 2 R
1 2 R 0 2 R 0 2 R 0 2 R 1 1 R 0 1 R 1 0 R 0 -1 R 0 -1 R 1 -2 R 0 -1 R 0 -1 R
0 -2 R 1 -1 R 0 -1 R 0 -1 R 1 0 R 0 -1 R 0 -1 R 1 0 R 0 -1 R 1 -1 R 1 0 R
1 0 R 1 0 R 1 0 R 1 0 R 1 0 R 1 -1 R 1 0 R 0 -1 R 1 0 R 1 1 R 0 1 R 1 0 R
0 1 R 0 1 R 1 -1 R 0 -2 R 0 -1 R 1 -2 R 0 -1 R 0 -2 R 1 -1 R 0 -1 R 0 -1 R
0 -1 R 1 0 R 0 -1 R 0 -1 R 1 0 R 0 -1 R 1 -1 R 0 -1 R 1 0 R 0 -1 R 1 0 R
1 0 R 1 0 R 0 1 R 1 0 R 0 1 R 1 1 R 0 1 R 0 1 R 1 1 R 0 1 R 0 2 R 0 1 R
1 2 R 0 1 R 0 2 R 1 2 R 0 2 R 0 2 R 0 1 R 1 1 R 0 1 R 0 -1 R 1 -1 R 0 -1 R
0 -2 R 1 -2 R 0 -1 R 0 -2 R 0 -1 R 1 -1 R 0 -1 R 0 -1 R 1 -1 R 0 -1 R 0 -1 R
1 0 R 0 -1 R 1 0 R 0 -1 R 1 0 R 1 0 R 1 0 R 1 0 R 1 0 R 0 -1 R 1 0 R 0 -1 R
1 0 R 0 -1 R 1 0 R 0 -1 R 1 0 R 1 1 R 1 0 R 0 -1 R 0 -2 R 0 -1 R 1 -2 R
0 -1 R 0 -2 R 1 -1 R 0 -1 R 0 -1 R 0 -1 R 1 -1 R 0 -1 R 1 -1 R 0 -1 R 0 -1 R
1 -1 R 0 -1 R 1 0 R 0 -1 R 0 -1 R 1 0 R 0 -1 R 1 0 R 0 -1 R 1 0 R 1 0 R
0 1 R 1 0 R 0 1 R 0 1 R 1 1 R 0 1 R 0 1 R 1 1 R 0 2 R 0 1 R 0 2 R 1 2 R
0 2 R 0 1 R 1 2 R 0 1 R 1 -1 R 0 -2 R 0 -2 R 1 -2 R 0 -1 R 0 -2 R 0 -1 R
1 -2 R 0 -1 R 0 -1 R 1 -1 R 0 -1 R 0 -1 R 1 0 R 0 -1 R 1 0 R 1 0 R 1 0 R
1 0 R 0 1 R 1 0 R 0 -1 R 1 0 R 1 0 R 0 -1 R 1 0 R 0 -1 R 1 0 R 1 0 R 1 0 R
0 -1 R 0 -1 R 1 -1 R 0 -2 R 0 -2 R 0 -1 R 1 -1 R 0 -1 R 0 -1 R 1 -1 R 0 -1 R
0 -1 R 1 -1 R 0 -1 R 1 -1 R 0 -1 R 0 -1 R 1 -1 R 0 -1 R 1 0 R 0 -1 R 1 -1 R
1 0 R 0 -1 R 1 0 R 1 0 R 0 1 R 1 1 R 0 1 R 0 1 R 1 1 R 0 2 R 0 1 R 1 2 R
0 1 R 0 2 R 0 2 R 1 2 R 0 2 R 0 1 R 1 0 R 0 -1 R 0 -2 R 1 -2 R 0 -1 R 0 -2 R
1 -2 R 0 -1 R 0 -1 R 0 -1 R 1 -1 R 0 -1 R 1 -1 R 0 -1 R 1 0 R 1 1 R 1 1 R
0 1 R 1 0 R 0 1 R 1 1 R 0 1 R 1 0 R 1 0 R 1 0 R 1 0 R 1 0 R 1 0 R 0 -1 R
0 -1 R 1 -2 R 0 -1 R 0 -1 R 0 -1 R 1 -1 R 0 -1 R 0 -1 R 1 -1 R 0 -1 R 1 -1 R
0 -1 R 1 0 R 0 -1 R 1 -1 R 0 -1 R 1 0 R 0 -1 R 1 0 R 1 0 R 1 0 R 1 1 R 0 1 R
1 1 R 0 1 R 0 1 R 1 2 R 0 1 R 0 2 R 1 1 R 0 2 R 0 2 R 0 2 R 1 2 R 0 2 R
0 1 R 1 1 R 0 -1 R 0 -1 R 0 -1 R 1 -2 R 0 -1 R 0 -2 R 0 -1 R 1 -1 R 0 -1 R
0 -1 R 1 0 R 0 -1 R 0 -1 R 1 0 R 0 1 R 1 0 R 0 1 R 1 0 R 0 1 R 0 1 R 1 1 R
0 1 R 0 1 R 1 1 R 0 1 R 0 1 R 1 1 R 0 1 R 0 1 R 1 0 R 0 1 R 1 1 R 1 0 R
0 1 R 1 0 R 0 1 R 1 0 R 0 -1 R 0 -1 R 1 -1 R 0 -1 R 0 -1 R 0 -1 R 1 0 R
0 -1 R 1 -1 R 0 -1 R 1 -1 R 0 -1 R 1 0 R 0 -1 R 1 0 R 1 0 R 0 -1 R 1 0 R
1 0 R 0 1 R 1 0 R 1 1 R 0 1 R 1 0 R 0 1 R 0 1 R 1 1 R 0 1 R 0 1 R 0 2 R
1 1 R 0 2 R 0 2 R 1 2 R 0 2 R 0 2 R 0 2 R 1 1 R 0 -1 R 0 -1 R 1 -1 R 0 -1 R
0 -1 R 1 -1 R 0 -1 R 0 -1 R 1 -1 R 0 -1 R 1 0 R 1 0 R 0 1 R 1 1 R 0 1 R
0 1 R 1 1 R 0 1 R 0 1 R 1 1 R 0 1 R 0 2 R 0 1 R 1 1 R 0 1 R 0 1 R 0 1 R
1 1 R 0 1 R 0 1 R 1 1 R 0 1 R 1 0 R 0 1 R 1 0 R 1 0 R 0 -1 R 0 -1 R 1 0 R
0 -1 R 0 -1 R 0 -1 R 1 0 R 0 -1 R 0 -1 R 1 0 R 0 -1 R 1 -1 R 1 0 R 0 -1 R
1 0 R 0 -1 R 1 0 R 1 0 R 1 0 R 0 1 R 1 0 R 1 1 R 1 1 R 0 1 R 1 1 R 0 1 R
0 1 R 0 1 R 1 1 R 0 2 R 0 2 R 0 2 R 1 2 R 0 1 R 0 2 R 1 0 R 0 -1 R 1 -1 R
0 -1 R 0 -1 R 0 -1 R 1 -1 R 0 -1 R 0 -1 R 1 -1 R 1 0 R 0 -1 R 0 1 R 1 0 R
0 1 R 1 1 R 0 1 R 0 1 R 1 1 R 0 1 R 0 1 R 1 1 R 0 1 R 0 2 R 0 1 R 1 1 R
0 1 R 0 2 R 0 1 R 1 1 R 0 1 R 0 1 R 1 1 R 0 1 R 1 0 R 0 1 R 1 0 R 0 -1 R
0 -1 R 1 -1 R 0 -1 R 0 -1 R 1 -1 R 0 -1 R 0 -1 R 1 0 R 0 -1 R 0 -1 R 1 0 R
0 -1 R 0 -1 R 1 0 R 0 -1 R 1 -1 R 1 -1 R 1 0 R 0 -1 R 1 0 R 1 0 R 1 0 R
1 0 R 0 1 R 1 0 R 0 1 R 1 1 R 0 1 R 0 1 R 0 1 R 1 2 R 0 1 R 0 1 R 0 1 R
1 1 R 1 -1 R 0 -1 R 0 -1 R 1 -1 R 0 -1 R 0 -1 R 0 -1 R 1 -1 R 0 -1 R 0 -1 R
1 0 R 0 -1 R 1 0 R 1 0 R 0 1 R 0 1 R 1 0 R 0 1 R 0 1 R 1 1 R 0 1 R 0 1 R
0 1 R 1 1 R 0 1 R 0 2 R 0 1 R 1 1 R 0 1 R 0 2 R 0 1 R 1 1 R 0 1 R 0 1 R
1 0 R 1 -1 R 0 -1 R 0 -1 R 1 -1 R 0 -1 R 0 -1 R 1 -1 R 0 -1 R 0 -1 R 0 -1 R
1 0 R 0 -1 R 0 -1 R 0 -1 R 1 -1 R 0 -1 R 0 -1 R 1 0 R 0 -1 R 0 -1 R 1 0 R
0 -1 R 1 -1 R 0 -1 R 1 0 R 0 -1 R 1 -1 R 0 -1 R 1 0 R 1 -1 R 1 0 R 1 0 R
1 1 R 0 1 R 0 1 R 1 1 R 0 1 R 0 1 R 1 0 R 1 -1 R 0 -1 R 0 -1 R 0 -1 R 1 -2 R
0 -1 R 0 -1 R 0 -1 R 1 -1 R 0 -1 R 0 -1 R 1 -1 R 0 -1 R 1 0 R 1 0 R 1 0 R
0 1 R 0 1 R 1 1 R 0 1 R 0 1 R 0 1 R 1 1 R 0 1 R 0 1 R 0 2 R 1 1 R 0 2 R
0 1 R 0 1 R 1 1 R 0 1 R 0 1 R 1 0 R 0 -1 R 1 -1 R 0 -1 R 0 -1 R 0 -1 R
1 -1 R 0 -1 R 0 -1 R 1 -1 R 0 -1 R 0 -1 R 0 -1 R 1 -1 R 0 -1 R 0 -1 R 1 -1 R
0 -1 R 0 -1 R 0 -1 R 1 0 R 0 -1 R 0 -1 R 1 -1 R 0 -1 R 0 -1 R 1 0 R 0 -1 R
1 -1 R 0 -1 R 1 0 R 0 -1 R 1 -1 R 0 -1 R 1 0 R 0 -1 R 1 0 R 1 0 R 0 1 R
1 0 R 0 1 R 1 1 R 0 1 R 1 0 R 0 -1 R 0 -1 R 0 -1 R 1 -1 R 0 -2 R 0 -1 R
0 -1 R 1 -2 R 0 -1 R 0 -1 R 0 -1 R 1 0 R 0 -1 R 0 -1 R 1 -1 R 0 -1 R 1 0 R
1 0 R 0 1 R 1 0 R 0 1 R 0 1 R 0 1 R 1 1 R 0 1 R 0 1 R 0 1 R 1 2 R 0 1 R
0 2 R 0 1 R D 18254 9022 M 1 2 R 0 1 R 0 2 R 0 1 R 1 0 R 0 1 R 1 0 R 0 -1 R
0 -1 R 0 -1 R 1 -1 R 0 -1 R 0 -1 R 0 -1 R 1 -1 R 0 -1 R 0 -1 R 0 -1 R 1 -1 R
0 -1 R 0 -1 R 0 -1 R 1 -1 R 0 -1 R 0 -1 R 1 0 R 0 -1 R 0 -1 R 1 -1 R 0 -1 R
1 0 R 0 -1 R 1 0 R 0 -1 R 1 -1 R 1 -1 R 1 -1 R 1 0 R 0 -1 R 1 1 R 1 0 R
0 1 R 1 0 R 0 1 R 1 0 R 0 -1 R 0 -1 R 1 -1 R 0 -2 R 0 -1 R 0 -1 R 1 -1 R
0 -1 R 0 -1 R 0 -1 R 1 -1 R 0 -1 R 0 -1 R 1 0 R 0 -1 R 1 0 R 1 0 R 0 1 R
1 1 R 0 1 R 0 1 R 1 1 R 0 1 R 0 1 R 0 1 R 1 2 R 0 1 R 0 2 R 0 1 R 1 2 R
0 2 R 0 2 R 0 1 R 1 2 R 0 1 R 0 1 R 1 0 R 0 -1 R 0 -1 R 1 -1 R 0 -1 R 0 -1 R
1 -1 R 0 -1 R 0 -1 R 0 -1 R 1 -1 R 0 -1 R 0 -1 R 1 0 R 0 -1 R 0 -1 R 1 0 R
0 -1 R 1 0 R 0 -1 R 1 0 R 1 0 R 1 0 R 1 0 R 1 0 R 1 0 R 1 0 R 0 1 R 1 0 R
0 1 R 0 1 R 1 0 R 0 1 R 0 -1 R 1 0 R 0 -1 R 0 -2 R 0 -1 R 1 -1 R 0 -1 R
0 -1 R 1 -1 R 0 -1 R 0 -1 R 1 0 R 0 -1 R 1 0 R 1 0 R 0 1 R 1 1 R 0 1 R 1 1 R
0 1 R 0 1 R 0 1 R 1 1 R 0 2 R 0 1 R 0 2 R 1 1 R 0 2 R 0 2 R 0 2 R 1 2 R
0 2 R 0 2 R 0 1 R 1 1 R 0 1 R 1 0 R 0 -1 R 0 -1 R 1 -1 R 0 -1 R 0 -1 R
1 -1 R 0 -1 R 0 -1 R 1 0 R 0 -1 R 1 0 R 0 -1 R 1 0 R 0 1 R 1 0 R 1 0 R 0 1 R
1 0 R 0 1 R 1 0 R 1 1 R 1 0 R 0 1 R 1 0 R 1 1 R 0 1 R 0 1 R 1 1 R 0 -1 R
1 0 R 0 -1 R 0 -1 R 0 -1 R 1 -1 R 0 -1 R 0 -1 R 1 0 R 0 -1 R 1 0 R 0 -1 R
1 0 R 1 1 R 1 1 R 0 1 R 1 1 R 0 1 R 0 1 R 1 1 R 0 1 R 0 2 R 0 1 R 1 1 R
0 2 R 0 2 R 0 2 R 1 2 R 0 2 R 0 1 R 0 2 R 1 2 R 0 1 R 0 1 R 1 0 R 0 -1 R
0 -1 R 0 -1 R 1 -1 R 0 -1 R 0 -1 R 1 0 R 0 -1 R 1 0 R 0 -1 R 1 0 R 1 0 R
0 1 R 1 0 R 0 1 R 1 1 R 1 1 R 1 1 R 1 1 R 1 0 R 1 0 R 0 1 R 0 1 R 1 0 R
0 1 R 1 0 R 0 -1 R 0 -1 R 1 0 R 0 -1 R 0 -1 R 0 -1 R 1 0 R 0 -1 R 0 -1 R
1 0 R 0 -1 R 1 0 R 1 0 R 1 0 R 0 1 R 1 0 R 0 1 R 1 0 R 0 1 R 0 1 R 0 1 R
1 1 R 0 1 R 0 1 R 0 1 R 1 1 R 0 2 R 0 2 R 0 1 R 1 2 R 0 2 R 0 1 R 0 2 R
1 0 R 0 1 R 0 -1 R 1 0 R 0 -1 R 0 -1 R 0 -1 R 0 -1 R 1 0 R 0 -1 R 0 -1 R
1 -1 R 0 -1 R 1 0 R 1 0 R 1 1 R 0 1 R 1 0 R 0 1 R 1 0 R 1 1 R 1 0 R 1 0 R
1 0 R 1 0 R 0 1 R 1 0 R 0 -1 R 0 -1 R 1 -1 R 0 -1 R 0 -1 R 0 -1 R 1 0 R
0 -1 R 0 -1 R 1 0 R 0 -1 R 1 -1 R 0 -1 R 1 0 R 1 -1 R 1 0 R 1 0 R 0 1 R
0 1 R 1 0 R 0 1 R 0 1 R 1 1 R 0 1 R 0 1 R 0 1 R 1 2 R 0 1 R 0 2 R 0 1 R
0 1 R 1 1 R 0 1 R 0 -1 R 1 -1 R 0 -1 R 0 -1 R 0 -1 R 1 -1 R 0 -1 R 0 -1 R
1 -1 R 0 -1 R 0 -1 R 1 0 R 0 -1 R 1 0 R 1 0 R 0 1 R 1 0 R 0 1 R 1 0 R 0 1 R
1 0 R 1 0 R 0 -1 R 1 0 R 0 -1 R 1 0 R 1 0 R 0 -1 R 1 -1 R 0 -1 R 0 -1 R
0 -1 R 1 -1 R 0 -1 R 0 -1 R 1 -1 R 0 -1 R 0 -1 R 1 -1 R 0 -1 R 1 0 R 0 -1 R
0 -1 R 1 0 R 0 -1 R 1 0 R 0 -1 R 1 0 R 1 -1 R 0 1 R 1 0 R 0 1 R 0 1 R 1 1 R
0 1 R 0 1 R 0 1 R 1 1 R 0 1 R 0 2 R 0 1 R 0 1 R 1 0 R 0 -1 R 0 -1 R 1 -1 R
0 -1 R 0 -1 R 0 -1 R 1 -1 R 0 -2 R 0 -1 R 0 -1 R 1 -1 R 0 -1 R 1 0 R 0 -1 R
1 0 R 0 1 R 1 0 R 0 1 R 1 0 R 0 1 R 1 0 R 1 0 R 1 0 R 0 -1 R 1 0 R 0 -1 R
1 -1 R 1 0 R 0 -1 R 0 -1 R 0 -1 R 0 -1 R 1 -1 R 0 -1 R 0 -1 R 0 -1 R 1 -1 R
0 -1 R 0 -1 R 1 0 R 0 -1 R 0 -1 R 1 -1 R 0 -1 R 1 -1 R 0 -1 R 1 0 R 0 -1 R
1 0 R 0 -1 R 1 0 R 1 0 R 0 1 R 1 0 R 0 1 R 0 1 R 1 1 R 0 1 R 0 1 R 0 1 R
0 2 R 1 1 R 0 1 R 1 -1 R 0 -1 R 0 -1 R 0 -1 R 0 -1 R 1 -1 R 0 -1 R 0 -1 R
0 -1 R 1 -1 R 0 -1 R 0 -1 R 1 0 R 0 -1 R 1 0 R 1 1 R 0 1 R 1 1 R 0 1 R 1 1 R
0 1 R 1 0 R 0 1 R 1 0 R 0 -1 R 1 0 R 0 -1 R 1 0 R 1 -1 R 0 -1 R 0 -1 R
0 -1 R 1 -1 R 0 -1 R 0 -1 R 0 -1 R 1 0 R 0 -1 R 0 -1 R 0 -1 R 1 0 R 0 -1 R
0 -1 R 1 0 R 0 -1 R 0 -1 R 1 0 R 0 -1 R 1 0 R 1 -1 R 1 0 R 1 0 R 0 1 R 1 1 R
0 1 R 0 1 R 1 1 R 0 1 R 0 1 R 0 2 R 0 1 R 1 1 R 0 1 R 1 0 R 0 -1 R 0 -1 R
0 -1 R 1 -1 R 0 -1 R 0 -1 R 0 -1 R 1 -1 R 0 -1 R 0 -1 R 1 0 R 1 0 R 0 1 R
0 1 R 1 0 R 0 1 R 0 1 R 1 1 R 0 1 R 0 1 R 0 1 R 1 1 R 0 1 R 0 1 R 1 1 R
0 1 R 0 1 R 1 0 R 1 0 R 1 0 R 0 -1 R 0 -1 R 1 0 R 0 -1 R 0 -1 R 0 -1 R 1 0 R
0 -1 R 0 -1 R 1 -1 R 0 -1 R 1 -1 R 0 -1 R 1 0 R 0 -1 R 1 0 R 1 0 R 1 0 R
1 0 R 0 1 R 1 1 R 0 1 R 1 1 R 0 1 R 0 1 R 0 1 R 1 1 R 0 2 R 0 1 R 0 1 R
1 1 R 0 1 R 0 -1 R 1 0 R 0 -1 R 0 -1 R 0 -1 R 1 0 R 0 -1 R 0 -1 R 0 -1 R
1 0 R 0 -1 R 1 0 R 0 1 R 1 1 R 0 1 R 1 1 R 0 1 R 0 1 R 0 1 R 0 1 R 1 1 R
0 1 R 0 1 R 0 1 R 1 1 R 0 1 R 0 1 R 0 1 R 0 1 R 1 1 R 0 1 R 0 1 R 1 1 R
1 0 R 0 -1 R 1 0 R 0 -1 R 0 -1 R 1 0 R 0 -1 R 0 -1 R 1 -1 R 0 -1 R 1 0 R
0 -1 R 1 0 R 0 -1 R 1 0 R 1 0 R 1 0 R 0 1 R 1 0 R 1 1 R 0 1 R 1 0 R 0 1 R
0 1 R 1 1 R 0 1 R 0 1 R 0 2 R 0 1 R 1 1 R 0 1 R 1 0 R 0 -1 R 0 -1 R 1 -1 R
0 -1 R 0 -1 R 1 0 R 0 -1 R 1 0 R 0 -1 R 0 1 R 1 0 R 0 1 R 1 1 R 0 1 R 0 1 R
0 1 R 1 1 R 0 1 R 0 1 R 0 1 R 1 2 R 0 1 R 0 1 R 0 1 R 0 2 R 1 1 R 0 1 R
0 1 R 0 1 R 1 1 R 0 1 R 1 0 R 0 -1 R 1 0 R 0 -1 R 0 -1 R 1 -1 R 0 -1 R
1 -1 R 0 -1 R 1 -1 R 0 -1 R 1 0 R 1 -1 R 1 0 R 1 0 R 1 0 R 1 0 R 0 1 R 1 0 R
0 1 R 0 1 R 1 0 R 0 1 R 0 1 R 0 1 R 1 1 R 0 1 R 1 0 R 0 -1 R 0 -1 R 1 -1 R
0 -1 R 0 -1 R 0 -1 R 1 0 R 0 -1 R 1 0 R 0 -1 R 1 0 R 0 1 R 1 1 R 0 1 R 0 1 R
1 0 R 0 1 R 0 1 R 0 1 R 0 1 R 1 1 R 0 1 R 0 2 R 0 1 R 0 1 R 1 1 R 0 1 R
0 1 R 0 1 R 1 1 R 0 1 R 1 0 R 0 -1 R 0 -1 R 1 -1 R 0 -1 R 1 -1 R 0 -1 R
0 -1 R 1 -1 R 0 -1 R D 18555 9044 M 0 -1 R 1 0 R 0 -1 R 1 0 R 0 -1 R 1 -1 R
1 0 R 0 -1 R 1 0 R 1 -1 R 1 0 R 1 0 R 0 1 R 1 0 R 0 1 R 0 1 R 1 0 R 0 -1 R
1 0 R 0 -1 R 0 -1 R 0 -1 R 1 -1 R 0 -1 R 0 -1 R 0 -1 R 1 0 R 0 -1 R 0 -1 R
1 0 R 0 -1 R 1 0 R 0 1 R 1 0 R 0 1 R 1 1 R 0 1 R 0 1 R 0 1 R 0 1 R 1 1 R
0 1 R 0 1 R 0 1 R 0 1 R 1 2 R 0 1 R 0 1 R 1 0 R 0 1 R 0 -1 R 1 -1 R 0 -1 R
0 -1 R 1 -1 R 0 -1 R 0 -1 R 0 -1 R 1 -1 R 0 -1 R 1 -1 R 0 -1 R 0 -1 R 1 0 R
0 -1 R 0 -1 R 1 0 R 0 -1 R 1 -1 R 1 -1 R 1 -1 R 1 -1 R 1 0 R 1 0 R 1 0 R
1 0 R 0 -1 R 0 -1 R 0 -1 R 0 -1 R 1 -1 R 0 -1 R 0 -1 R 0 -1 R 1 -1 R 0 -1 R
0 -1 R 1 0 R 0 -1 R 0 -1 R 1 0 R 0 -1 R 1 0 R 0 1 R 1 0 R 0 1 R 0 1 R 0 1 R
1 0 R 0 1 R 0 1 R 0 1 R 1 2 R 0 1 R 0 1 R 0 1 R 0 1 R 1 1 R 0 1 R 1 0 R
0 -1 R 0 -1 R 0 -1 R 1 0 R 0 -1 R 0 -1 R 0 -1 R 0 -1 R 1 0 R 0 -1 R 0 -1 R
1 -1 R 0 -1 R 0 -1 R 1 -1 R 0 -1 R 1 0 R 0 -1 R 1 0 R 0 -1 R 1 0 R 0 -1 R
1 0 R 0 -1 R 1 0 R 1 -1 R 1 0 R 1 0 R 1 -1 R 0 -1 R 0 -1 R 0 -1 R 1 -1 R
0 -1 R 0 -1 R 0 -1 R 1 0 R 0 -1 R 0 -1 R 0 -1 R 1 0 R 0 -1 R 0 -1 R 1 0 R
0 -1 R 1 0 R 0 1 R 1 0 R 0 1 R 0 1 R 1 1 R 0 1 R 0 1 R 0 1 R 0 1 R 1 1 R
0 1 R 0 1 R 0 2 R 0 1 R 1 1 R 0 1 R 1 0 R 0 -1 R 0 -1 R 1 0 R 0 -1 R 0 -1 R
0 -1 R 1 -1 R 0 -1 R 0 -1 R 1 -1 R 0 -1 R 1 0 R 0 -1 R 1 0 R 1 0 R 1 0 R
1 0 R 1 0 R 1 0 R 1 0 R 1 0 R 1 -1 R 0 -1 R 0 -1 R 0 -1 R 1 -1 R 0 -1 R
0 -1 R 1 0 R 0 -1 R 0 -1 R 1 0 R 0 -1 R 1 0 R 1 1 R 1 1 R 0 1 R 0 1 R 1 1 R
0 1 R 0 1 R 0 1 R 0 1 R 1 1 R 0 1 R 0 2 R 0 1 R 0 2 R 1 1 R 0 1 R 0 1 R
1 -1 R 0 -1 R 0 -1 R 1 0 R 0 -1 R 0 -1 R 0 -1 R 1 0 R 0 -1 R 1 0 R 0 -1 R
1 1 R 1 0 R 0 1 R 1 0 R 0 1 R 1 0 R 0 1 R 1 0 R 0 1 R 1 0 R 0 1 R 1 0 R
1 0 R 0 1 R 1 0 R 0 -1 R 0 -1 R 1 -1 R 0 -1 R 0 -1 R 1 0 R 0 -1 R 1 0 R
0 -1 R 1 0 R 0 1 R 1 0 R 0 1 R 1 0 R 0 1 R 0 1 R 1 1 R 0 1 R 0 1 R 0 1 R
1 1 R 0 1 R 0 1 R 0 2 R 0 1 R 1 2 R 0 1 R 0 1 R 0 1 R 0 1 R 1 0 R 0 -1 R
1 -1 R 0 -1 R 0 -1 R 1 0 R 0 -1 R 1 0 R 1 0 R 0 1 R 1 0 R 0 1 R 0 1 R 1 0 R
0 1 R 1 1 R 0 1 R 1 0 R 0 1 R 1 0 R 0 1 R 1 0 R 1 1 R 1 0 R 0 -1 R 1 -1 R
0 -1 R 0 -1 R 1 0 R 0 -1 R 1 0 R 1 0 R 1 0 R 0 1 R 1 0 R 0 1 R 1 1 R 0 1 R
0 1 R 1 1 R 0 1 R 0 2 R 0 1 R 1 1 R 0 1 R 0 2 R 0 1 R 0 1 R 1 0 R 0 1 R
0 -1 R 1 0 R 0 -1 R 0 -1 R 1 -1 R 0 -1 R 1 0 R 0 -1 R 1 1 R 0 1 R 1 0 R
0 1 R 1 1 R 0 1 R 1 1 R 0 1 R 1 0 R 0 1 R 1 0 R 1 0 R 1 0 R 1 -1 R 0 -1 R
0 -1 R 1 0 R 0 -1 R 0 -1 R 1 0 R 0 -1 R 1 -1 R 1 0 R 1 0 R 1 0 R 1 1 R 0 1 R
1 1 R 0 1 R 0 1 R 0 1 R 1 2 R 0 1 R 0 1 R 0 1 R 1 0 R 0 -1 R 1 0 R 0 -1 R
0 -1 R 0 -1 R 0 -1 R 1 0 R 0 -1 R 0 -1 R 1 0 R 1 0 R 0 1 R 1 0 R 0 1 R 0 1 R
1 0 R 0 1 R 1 1 R 1 0 R 1 0 R 0 -1 R 1 0 R 1 -1 R 0 -1 R 0 -1 R 1 0 R 0 -1 R
0 -1 R 0 -1 R 1 0 R 0 -1 R 0 -1 R 1 0 R 0 -1 R 0 -1 R 1 0 R 0 -1 R 1 0 R
0 -1 R 1 0 R 1 0 R 1 0 R 0 1 R 1 1 R 0 1 R 0 1 R 0 1 R 0 1 R 1 1 R 1 0 R
0 -1 R 0 -1 R 0 -1 R 1 -1 R 0 -1 R 0 -1 R 0 -1 R 1 0 R 0 -1 R 0 -1 R 1 0 R
1 0 R 0 1 R 1 1 R 0 1 R 1 1 R 0 1 R 1 0 R 1 0 R 0 -1 R 1 -1 R 0 -1 R 1 0 R
0 -1 R 0 -1 R 1 -1 R 0 -1 R 0 -1 R 0 -1 R 1 -1 R 0 -1 R 0 -1 R 1 -1 R 0 -1 R
0 -1 R 1 0 R 0 -1 R 0 -1 R 1 0 R 0 -1 R 1 0 R 0 -1 R 1 0 R 1 0 R 1 1 R 0 1 R
0 1 R 1 1 R 0 1 R 0 1 R 1 0 R 0 -1 R 0 -1 R 0 -1 R 1 -1 R 0 -1 R 0 -1 R
0 -1 R 1 -1 R 0 -1 R 0 -1 R 1 0 R 0 -1 R 1 1 R 0 1 R 1 0 R 0 1 R 0 1 R 1 1 R
0 1 R 0 1 R 1 0 R 0 1 R 1 0 R 0 -1 R 1 0 R 0 -1 R 1 -1 R 0 -1 R 0 -1 R
1 -1 R 0 -1 R 0 -1 R 0 -1 R 1 -1 R 0 -1 R 0 -1 R 1 0 R 0 -1 R 0 -1 R 1 -1 R
0 -1 R 1 0 R 0 -1 R 1 0 R 0 -1 R 1 0 R 1 0 R 0 1 R 1 0 R 0 1 R 0 1 R 1 1 R
0 1 R 0 1 R 1 0 R 0 -1 R 0 -1 R 0 -1 R 1 0 R 0 -1 R 0 -1 R 0 -1 R 1 -1 R
0 -1 R 1 -1 R 1 1 R 0 1 R 1 1 R 0 1 R 0 1 R 1 1 R 0 1 R 0 1 R 0 1 R 0 1 R
1 1 R 0 1 R 1 0 R 0 1 R 1 -1 R 0 -1 R 1 0 R 0 -1 R 0 -1 R 0 -1 R 1 0 R
0 -1 R 0 -1 R 1 -1 R 0 -1 R 0 -1 R 1 0 R 0 -1 R 1 0 R 0 -1 R 1 0 R 1 0 R
1 0 R 1 1 R 0 1 R 1 0 R 0 1 R 0 1 R 1 1 R 0 1 R 0 1 R 0 -1 R 1 0 R 0 -1 R
0 -1 R 1 0 R 0 -1 R 0 -1 R 1 -1 R 0 -1 R 1 0 R 0 1 R 1 0 R 0 1 R 0 1 R 0 1 R
1 1 R 0 1 R 0 1 R 0 1 R 0 1 R 1 1 R 0 1 R 0 1 R 0 1 R 0 1 R 1 0 R 0 1 R
0 1 R 0 1 R 0 1 R 1 0 R 1 0 R 0 -1 R 1 -1 R 0 -1 R 1 -1 R 0 -1 R 1 0 R
0 -1 R 1 0 R 0 -1 R 1 0 R 1 0 R 0 1 R 1 0 R 1 1 R 1 1 R 0 1 R 1 1 R 0 1 R
0 1 R 1 1 R 1 -1 R 0 -1 R 0 -1 R 1 -1 R 0 -1 R 1 0 R 1 0 R 0 1 R 0 1 R 1 0 R
0 1 R 0 1 R 0 1 R 0 1 R 1 1 R 0 1 R 0 1 R 0 1 R 0 1 R 1 1 R 0 1 R 0 1 R
0 1 R 0 1 R 0 1 R 1 1 R 0 1 R 0 1 R 1 0 R 0 -1 R 1 0 R 0 -1 R 0 -1 R 1 0 R
0 -1 R 1 0 R 0 -1 R 1 0 R 0 -1 R 1 0 R 1 0 R 0 1 R 1 0 R 1 0 R 0 1 R 1 0 R
0 1 R 1 1 R 0 1 R 1 0 R 0 1 R 1 0 R 0 -1 R 0 -1 R 1 -1 R 0 -1 R 0 -1 R 1 0 R
0 -1 R 1 0 R 0 1 R 1 0 R 0 1 R 0 1 R 1 0 R 0 1 R 0 1 R 0 1 R 0 1 R 1 1 R
0 1 R 0 1 R 0 2 R 0 1 R 1 1 R 0 1 R 0 1 R 0 1 R 1 0 R 0 1 R 0 -1 R 1 0 R
0 -1 R 0 -1 R 1 0 R 0 -1 R 0 -1 R 1 0 R 0 -1 R 1 0 R 0 -1 R 1 0 R 1 0 R
1 0 R 1 0 R 1 0 R 1 0 R 0 1 R 1 0 R 1 0 R 0 -1 R 0 -1 R 0 -1 R 1 0 R 0 -1 R
0 -1 R 0 -1 R 1 0 R 0 -1 R 1 0 R 0 -1 R 1 0 R 0 1 R 1 0 R 0 1 R 0 1 R 0 1 R
D 18862 9031 M 1 0 R 0 1 R 0 1 R 0 1 R 0 1 R 0 1 R 1 1 R 0 1 R 0 1 R 0 1 R
1 0 R 0 -1 R 1 0 R 0 -1 R 0 -1 R 1 -1 R 0 -1 R 0 -1 R 1 0 R 0 -1 R 0 -1 R
1 0 R 0 -1 R 1 0 R 0 -1 R 1 0 R 1 0 R 1 0 R 0 -1 R 1 0 R 1 0 R 0 -1 R 1 0 R
0 -1 R 1 -1 R 0 -1 R 0 -1 R 1 -1 R 0 -1 R 0 -1 R 0 -1 R 1 0 R 0 -1 R 0 -1 R
1 0 R 0 -1 R 1 0 R 0 1 R 1 0 R 0 1 R 1 1 R 0 1 R 0 1 R 0 1 R 0 1 R 1 1 R
0 1 R 0 1 R 1 0 R 0 -1 R 1 -1 R 0 -1 R 0 -1 R 0 -1 R 1 0 R 0 -1 R 0 -1 R
0 -1 R 1 0 R 0 -1 R 1 0 R 0 -1 R 1 0 R 0 -1 R D
%%PageTrailer
end
%%PageResources: font Helvetica
%%Trailer
%%Pages: 1
%%DocumentNeededResources: font Helvetica
%%EOF
