%!PS-Adobe-3.0 EPSF-3.0
%%BoundingBox: 0 0 566 340
%%Title: Graphics produced by IDL
%%For: giada@acidrain.astro.washington.edu, /astro/users/giada/fractal
%%Creator: IDL Version 7.0 (linux x86_64 m64)
%%CreationDate: Tue Feb 25 16:30:45 2014
%%DocumentData: Clean7bit
%%Requirements: color
%%LanguageLevel: 1
%%PageOrder: Ascend
%%Pages: (atend)
%%DocumentNeededResources: (atend)
%%EndComments
%%BeginProlog
%+ prolog.ps -- Prolog for IDL generated PostScript files
%+ Copyright (c) 1988-2007 ITT Visual Information Solutions. All Rights Reserved.
%v 5
/$IDL_DICT 40 dict def $IDL_DICT begin /bdef { bind def } bind def /C
{currentpoint newpath moveto} bdef /CP {currentpoint} bdef /D {currentpoint
stroke moveto} bdef /F {closepath fill} bdef /K { setgray } bdef /M {moveto}
bdef /N {rmoveto} bdef /P {lineto} bdef /R {rlineto} bdef /S {gsave show
grestore} bdef /X {currentpoint pop} bdef /Z {gsave currentpoint lineto 20
setlinewidth 1 setlinecap stroke grestore} bdef /L0 {[] 0 setdash} bdef /L1
{[40 100] 0 setdash} bdef /L2 {[200 200] 0 setdash} bdef /L3 {[200 100 50
100] 0 setdash} bdef /L4 {[300 100 50 100 50 100 50 100] 0 setdash} bdef /L5
{[400 200] 0 setdash} bdef /STDFONT { findfont exch scalefont setfont } bdef
/ISOFONT { findfont dup length dict begin { 1 index /FID ne {def} {pop pop}
ifelse } forall /Encoding ISOLatin1Encoding def currentdict end /idltmpfont
exch definefont exch scalefont setfont } bdef /ISOBULLET { gsave /Helvetica
findfont exch scalefont setfont (\267) show currentpoint grestore moveto}
bdef /MITERLIMIT { 2.5 setmiterlimit } bdef end
%%EndProlog
%%Page: 0 1
%%PageRequirements: color
%%PageResources: (atend)
%%PageOrientation: Portrait
%%PageBoundingBox: 0 0 566 340
%%BeginPageSetup
$IDL_DICT begin 0.0283465 dup scale MITERLIMIT
%%IncludeResource: font Helvetica
423.333 /Helvetica STDFONT
%%EndPageSetup
0.000 0.000 0.000 setrgbcolor gsave 5999 10099 translate 0 0 M
1.25 dup scale -2341.03 0 N
(photochem mass density) show grestore 19 setlinewidth L0 2664 2112 M
6670 0 R D 2664 2112 M 0 389 R D gsave 2664 1584 translate 0 0 M
-117.687 0 N
(0) show grestore 3998 2112 M 0 389 R D gsave 3998 1584 translate 0 0 M
-235.373 0 N
(20) show grestore 5332 2112 M 0 389 R D gsave 5332 1584 translate 0 0 M
-235.373 0 N
(40) show grestore 6666 2112 M 0 389 R D gsave 6666 1584 translate 0 0 M
-235.373 0 N
(60) show grestore 8000 2112 M 0 389 R D gsave 8000 1584 translate 0 0 M
-235.373 0 N
(80) show grestore 9334 2112 M 0 389 R D gsave 9334 1584 translate 0 0 M
-353.06 0 N
(100) show grestore gsave 5999 1126 translate 0 0 M -1035.26 0 N
(height [km]) show grestore 2664 9888 M 6670 0 R D 2664 9888 M 0 -389 R D
3998 9888 M 0 -389 R D 5332 9888 M 0 -389 R D 6666 9888 M 0 -389 R D
8000 9888 M 0 -389 R D 9334 9888 M 0 -389 R D 2664 2112 M 0 7776 R D
2664 2112 M 134 0 R D gsave 2553 2112 translate 0 0 M -850.011 0 N
(10) show X 192.937 M
%%IncludeResource: font Helvetica
262.467 /Helvetica STDFONT
(-20) show grestore
%%IncludeResource: font Helvetica
423.333 /Helvetica STDFONT 2664 3667 M 134 0 R D
gsave 2553 3526 translate 0 0 M -850.011 0 N
(10) show X 192.937 M
%%IncludeResource: font Helvetica
262.467 /Helvetica STDFONT
(-18) show grestore
%%IncludeResource: font Helvetica
423.333 /Helvetica STDFONT 2664 5222 M 134 0 R D
gsave 2553 5082 translate 0 0 M -850.011 0 N
(10) show X 192.937 M
%%IncludeResource: font Helvetica
262.467 /Helvetica STDFONT
(-16) show grestore
%%IncludeResource: font Helvetica
423.333 /Helvetica STDFONT 2664 6778 M 134 0 R D
gsave 2553 6637 translate 0 0 M -850.011 0 N
(10) show X 192.937 M
%%IncludeResource: font Helvetica
262.467 /Helvetica STDFONT
(-14) show grestore
%%IncludeResource: font Helvetica
423.333 /Helvetica STDFONT 2664 8333 M 134 0 R D
gsave 2553 8192 translate 0 0 M -850.011 0 N
(10) show X 192.937 M
%%IncludeResource: font Helvetica
262.467 /Helvetica STDFONT
(-12) show grestore
%%IncludeResource: font Helvetica
423.333 /Helvetica STDFONT 2664 9888 M 134 0 R D
gsave 2553 9642 translate 0 0 M -850.011 0 N
(10) show X 192.937 M
%%IncludeResource: font Helvetica
262.467 /Helvetica STDFONT
(-10) show grestore
%%IncludeResource: font Helvetica
423.333 /Helvetica STDFONT 2664 2890 M 67 0 R D 2664 4445 M 67 0 R D
2664 6000 M 67 0 R D 2664 7555 M 67 0 R D 2664 9110 M 67 0 R D
gsave 1370 6000 translate 0 0 M 90 rotate -741.045 0 N
(g/cm**3) show grestore 9334 2112 M 0 7776 R D 9334 2112 M -133 0 R D
9334 3667 M -133 0 R D 9334 5222 M -133 0 R D 9334 6778 M -133 0 R D
9334 8333 M -133 0 R D 9334 9888 M -133 0 R D 9334 2890 M -67 0 R D
9334 4445 M -67 0 R D 9334 6000 M -67 0 R D 9334 7555 M -67 0 R D
9334 9110 M -67 0 R D 10 setlinewidth 2681 7153 M 66 31 R 67 90 R 67 101 R
67 94 R 66 83 R 67 73 R 67 66 R 66 59 R 67 52 R 67 53 R 66 95 R 67 175 R
67 199 R 67 203 R 66 157 R 67 133 R 67 109 R 66 90 R 67 73 R 67 55 R 66 40 R
67 27 R 67 16 R 67 7 R 66 -2 R 67 -10 R 67 -14 R 66 -21 R 67 -23 R 67 -27 R
66 -30 R 67 -32 R 67 -33 R 67 -35 R 66 -36 R 67 -37 R 67 -37 R 66 -37 R
67 -37 R 67 -38 R 66 -36 R 67 -37 R 67 -35 R 67 -36 R 66 -35 R 67 -34 R
67 -35 R 66 -33 R 67 -33 R 67 -33 R 66 -32 R 67 -32 R 67 -31 R 67 -32 R
66 -32 R 67 -33 R 67 -34 R 66 -135 R 67 -112 R 67 -72 R 66 -53 R 67 -45 R
67 -43 R 67 -41 R 66 -42 R 67 -43 R 67 -43 R 66 -44 R 67 -43 R 67 -44 R
66 -44 R 67 -46 R 67 -49 R 67 -52 R 66 -54 R 67 -59 R 67 -63 R 66 -67 R
67 -73 R 67 -78 R 66 -84 R 67 -90 R 67 -97 R 67 -103 R 66 -110 R 67 -118 R
67 -126 R 66 -134 R 67 -141 R 67 -165 R 66 -217 R 67 -241 R 67 -249 R
67 -253 R 66 -255 R 67 -257 R 67 -261 R 66 -281 R 67 -344 R D
gsave 15555 10099 translate 0 0 M 1.25 dup scale -1140.88 0 N
(particle radii) show grestore 19 setlinewidth 12220 2112 M 6670 0 R D
12220 2112 M 0 389 R D gsave 12220 1584 translate 0 0 M -117.687 0 N
(0) show grestore 13554 2112 M 0 389 R D gsave 13554 1584 translate 0 0 M
-235.373 0 N
(20) show grestore 14888 2112 M 0 389 R D gsave 14888 1584 translate 0 0 M
-235.373 0 N
(40) show grestore 16222 2112 M 0 389 R D gsave 16222 1584 translate 0 0 M
-235.373 0 N
(60) show grestore 17556 2112 M 0 389 R D gsave 17556 1584 translate 0 0 M
-235.373 0 N
(80) show grestore 18890 2112 M 0 389 R D gsave 18890 1584 translate 0 0 M
-353.06 0 N
(100) show grestore gsave 15555 1126 translate 0 0 M -1035.26 0 N
(height [km]) show grestore 12220 9888 M 6670 0 R D 12220 9888 M 0 -389 R D
13554 9888 M 0 -389 R D 14888 9888 M 0 -389 R D 16222 9888 M 0 -389 R D
17556 9888 M 0 -389 R D 18890 9888 M 0 -389 R D 12220 2112 M 0 7776 R D
12220 2112 M 134 0 R D gsave 12109 2112 translate 0 0 M -1059.18 0 N
(0.001) show grestore 12220 4704 M 134 0 R D
gsave 12109 4563 translate 0 0 M -1059.18 0 N
(0.010) show grestore 12220 7296 M 134 0 R D
gsave 12109 7155 translate 0 0 M -1059.18 0 N
(0.100) show grestore 12220 9888 M 134 0 R D
gsave 12109 9642 translate 0 0 M -1059.18 0 N
(1.000) show grestore 12220 2892 M 67 0 R D 12220 3349 M 67 0 R D
12220 3673 M 67 0 R D 12220 3924 M 67 0 R D 12220 4129 M 67 0 R D
12220 4303 M 67 0 R D 12220 4453 M 67 0 R D 12220 4585 M 67 0 R D
12220 5484 M 67 0 R D 12220 5941 M 67 0 R D 12220 6265 M 67 0 R D
12220 6516 M 67 0 R D 12220 6721 M 67 0 R D 12220 6895 M 67 0 R D
12220 7045 M 67 0 R D 12220 7177 M 67 0 R D 12220 8076 M 67 0 R D
12220 8533 M 67 0 R D 12220 8857 M 67 0 R D 12220 9108 M 67 0 R D
12220 9313 M 67 0 R D 12220 9487 M 67 0 R D 12220 9637 M 67 0 R D
12220 9769 M 67 0 R D gsave 10717 6000 translate 0 0 M 90 rotate -1046.9 0 N
(radius [um]) show grestore 18890 2112 M 0 7776 R D 18890 2112 M -133 0 R D
18890 4704 M -133 0 R D 18890 7296 M -133 0 R D 18890 9888 M -133 0 R D
18890 2892 M -67 0 R D 18890 3349 M -67 0 R D 18890 3673 M -67 0 R D
18890 3924 M -67 0 R D 18890 4129 M -67 0 R D 18890 4303 M -67 0 R D
18890 4453 M -67 0 R D 18890 4585 M -67 0 R D 18890 5484 M -67 0 R D
18890 5941 M -67 0 R D 18890 6265 M -67 0 R D 18890 6516 M -67 0 R D
18890 6721 M -67 0 R D 18890 6895 M -67 0 R D 18890 7045 M -67 0 R D
18890 7177 M -67 0 R D 18890 8076 M -67 0 R D 18890 8533 M -67 0 R D
18890 8857 M -67 0 R D 18890 9108 M -67 0 R D 18890 9313 M -67 0 R D
18890 9487 M -67 0 R D 18890 9637 M -67 0 R D 18890 9769 M -67 0 R D
10 setlinewidth 12237 9253 M 66 0 R 67 0 R 67 0 R 67 0 R 66 0 R 67 0 R
67 0 R 66 0 R 67 0 R 67 0 R 66 0 R 67 0 R 67 0 R 67 0 R 66 0 R 67 0 R 67 0 R
66 0 R 67 0 R 67 0 R 66 0 R 67 0 R 67 0 R 67 0 R 66 0 R 67 0 R 67 -10 R
66 -15 R 67 -16 R 67 -19 R 66 -21 R 67 -22 R 67 -24 R 67 -24 R 66 -26 R
67 -26 R 67 -27 R 66 -28 R 67 -28 R 67 -28 R 66 -29 R 67 -29 R 67 -31 R
67 -31 R 66 -31 R 67 -33 R 67 -35 R 66 -36 R 67 -37 R 67 -41 R 66 -43 R
67 -46 R 67 -51 R 67 -58 R 66 -66 R 67 -81 R 67 -104 R 66 -1756 R 67 -166 R
67 -127 R 66 -110 R 67 -102 R 67 -100 R 67 -98 R 66 -99 R 67 -100 R
67 -100 R 66 -100 R 67 -101 R 67 -100 R 66 -101 R 67 -103 R 67 -105 R
67 -108 R 66 -111 R 67 -115 R 67 -119 R 66 -123 R 67 -128 R 67 -133 R
66 -138 R 67 -145 R 67 -151 R 67 -157 R 66 -163 R 67 -171 R 67 -178 R
66 -186 R 67 -193 R 67 -63 R 66 0 R 67 0 R 67 0 R 67 0 R 66 0 R 67 0 R
67 0 R 66 0 R 67 0 R D
%%PageTrailer
end
%%PageResources: font Helvetica
%%Trailer
%%Pages: 1
%%DocumentNeededResources: font Helvetica
%%EOF
