HC FRACTAL OPTICAL PROPERTIES, CHEM GRID
 rpar =    0.00200000 um
 fractal properties
 rmon =     0.0500000 um
 df =       3.00000
 nmon =        1
  WAVMIN     WAVMAX      W0         QEXT        gf
   1754.0   1770.0  0.0003535  0.0294207  0.0010748
   1770.0   1786.0  0.0003452  0.0290354  0.0010556
   1786.0   1802.0  0.0003371  0.0286570  0.0010370
   1802.0   1818.0  0.0003388  0.0280608  0.0010239
   1818.0   1835.0  0.0003311  0.0276951  0.0010061
   1835.0   1852.0  0.0003232  0.0273172  0.0009877
   1852.0   1869.0  0.0003155  0.0269463  0.0009698
   1869.0   1887.0  0.0003076  0.0265644  0.0009514
   1887.0   1905.0  0.0003001  0.0261864  0.0009335
   1905.0   1923.0  0.0002928  0.0258155  0.0009161
   1923.0   1942.0  0.0002853  0.0254360  0.0008983
   1942.0   1961.0  0.0002786  0.0250724  0.0008819
   1961.0   1980.0  0.0002717  0.0247129  0.0008650
   1980.0   2000.0  0.0002640  0.0244110  0.0008478
   2000.0   2020.0  0.0002567  0.0241140  0.0008310
   2020.0   2041.0  0.0002496  0.0238219  0.0008147
   2041.0   2062.0  0.0002425  0.0235218  0.0007982
   2062.0   2083.0  0.0002425  0.0230439  0.0007860
   2083.0   2105.0  0.0002354  0.0227462  0.0007696
   2105.0   2128.0  0.0002286  0.0224527  0.0007538
   2128.0   2151.0  0.0002217  0.0221538  0.0007377
   2151.0   2174.0  0.0002152  0.0218603  0.0007221
   2174.0   2200.0  0.0002083  0.0215512  0.0007057
   2200.0   2222.0  0.0002021  0.0212589  0.0006905
   2222.0   2247.0  0.0001963  0.0209832  0.0006764
   2247.0   2273.0  0.0001901  0.0206817  0.0006610
   2273.0   2299.0  0.0001894  0.0202233  0.0006493
   2299.0   2326.0  0.0001835  0.0199349  0.0006348
   2326.0   2353.0  0.0001777  0.0196436  0.0006202
   2353.0   2381.0  0.0001719  0.0193498  0.0006057
   2381.0   2410.0  0.0001671  0.0189627  0.0005917
   2410.0   2439.0  0.0001634  0.0184297  0.0005778
   2439.0   2469.0  0.0001597  0.0178957  0.0005639
   2469.0   2500.0  0.0001563  0.0173651  0.0005504
   2500.0   2532.0  0.0001528  0.0168232  0.0005367
   2532.0   2564.0  0.0001496  0.0162899  0.0005234
   2564.0   2597.0  0.0001466  0.0157647  0.0005106
   2597.0   2632.0  0.0001436  0.0152265  0.0004976
   2632.0   2667.0  0.0001404  0.0147016  0.0004842
   2667.0   2703.0  0.0001373  0.0142356  0.0004718
   2703.0   2740.0  0.0001303  0.0138791  0.0004572
   2740.0   2778.0  0.0001273  0.0134036  0.0004448
   2778.0   2817.0  0.0001246  0.0129332  0.0004329
   2817.0   2857.0  0.0001219  0.0124596  0.0004208
   2857.0   2899.0  0.0001158  0.0120795  0.0004070
   2899.0   2941.0  0.0001135  0.0116023  0.0003955
   2941.0   2985.0  0.0001110  0.0111527  0.0003841
   2985.0   3030.0  0.0001081  0.0107792  0.0003730
   3030.0   3077.0  0.0001019  0.0104819  0.0003599
   3077.0   3125.0  0.0000993  0.0101038  0.0003491
   3125.0   3175.0  0.0000967  0.0097236  0.0003384
   3175.0   3225.0  0.0000914  0.0094217  0.0003263
   3225.0   3275.0  0.0000892  0.0090548  0.0003164
   3275.0   3325.0  0.0000873  0.0086799  0.0003070
   3325.0   3375.0  0.0000857  0.0083096  0.0002979
   3375.0   3425.0  0.0000842  0.0079507  0.0002893
   3425.0   3450.0  0.0000806  0.0077479  0.0002815
   3450.0   3550.0  0.0000792  0.0073207  0.0002717
   3550.0   3650.0  0.0000793  0.0066661  0.0002581
   3650.0   3750.0  0.0000770  0.0061383  0.0002444
   3750.0   3850.0  0.0000776  0.0055933  0.0002329
   3850.0   3950.0  0.0000786  0.0050811  0.0002223
   3950.0   4050.0  0.0000801  0.0045970  0.0002124
   4050.0   4150.0  0.0000848  0.0041086  0.0002042
   4150.0   4250.0  0.0000873  0.0036960  0.0001956
   4250.0   4350.0  0.0000905  0.0033125  0.0001876
   4350.0   4450.0  0.0000945  0.0029514  0.0001800
   4450.0   4550.0  0.0000940  0.0027108  0.0001721
   4550.0   4650.0  0.0000928  0.0025115  0.0001648
   4650.0   4750.0  0.0000921  0.0023202  0.0001578
   4750.0   4850.0  0.0000892  0.0021545  0.0001506
   4850.0   4950.0  0.0000895  0.0019772  0.0001445
   4950.0   5050.0  0.0000902  0.0018075  0.0001388
   5050.0   5150.0  0.0000916  0.0016439  0.0001334
   5150.0   5250.0  0.0000937  0.0014867  0.0001283
   5250.0   5350.0  0.0000966  0.0013358  0.0001235
   5350.0   5450.0  0.0000976  0.0011997  0.0001184
   5450.0   5550.0  0.0001027  0.0010585  0.0001141
   5550.0   5650.0  0.0001097  0.0009220  0.0001101
   5650.0   5750.0  0.0001125  0.0008377  0.0001063
   5750.0   5850.0  0.0001124  0.0007815  0.0001026
   5850.0   5950.0  0.0001128  0.0007271  0.0000992
   5950.0   6050.0  0.0001104  0.0006797  0.0000954
   6050.0   6150.0  0.0001117  0.0006285  0.0000923
   6150.0   6250.0  0.0001136  0.0005789  0.0000894
   6250.0   6350.0  0.0001163  0.0005306  0.0000866
   6350.0   6450.0  0.0001197  0.0004841  0.0000839
   6450.0   6550.0  0.0001240  0.0004391  0.0000813
   6550.0   6650.0  0.0001257  0.0003983  0.0000785
   6650.0   6750.0  0.0001326  0.0003556  0.0000762
   6750.0   6850.0  0.0001414  0.0003141  0.0000739
   6850.0   6950.0  0.0001514  0.0002767  0.0000718
   6950.0   7050.0  0.0001511  0.0002619  0.0000698
   7050.0   7150.0  0.0001511  0.0002474  0.0000678
   7150.0   7250.0  0.0001512  0.0002337  0.0000660
   7250.0   7350.0  0.0001520  0.0002200  0.0000642
   7350.0   7450.0  0.0001485  0.0002084  0.0000621
   7450.0   7550.0  0.0001501  0.0001954  0.0000605
   7550.0   7650.0  0.0001520  0.0001830  0.0000589
   7650.0   7750.0  0.0001547  0.0001706  0.0000574
   7750.0   7850.0  0.0001581  0.0001586  0.0000559
   7850.0   7950.0  0.0001620  0.0001471  0.0000545
   7950.0   8050.0  0.0001670  0.0001357  0.0000532
   8050.0   8150.0  0.0001732  0.0001245  0.0000519
   8150.0   8250.0  0.0001807  0.0001136  0.0000506
   8250.0   8350.0  0.0001835  0.0001041  0.0000491
   8350.0   8450.0  0.0001945  0.0000936  0.0000480
   8450.0   8550.0  0.0002083  0.0000834  0.0000469
