HC FRACTAL OPTICAL PROPERTIES, CHEM GRID
 rpar =     0.0300000 um
 fractal properties
 rmon =     0.0500000 um
 df =       3.00000
 nmon =        1
  WAVMIN     WAVMAX      W0         QEXT        gf
   1754.0   1770.0  0.3958112  1.0797280  0.2688955
   1770.0   1786.0  0.3930248  1.0583791  0.2630600
   1786.0   1802.0  0.3902161  1.0374980  0.2574149
   1802.0   1818.0  0.3932131  1.0286061  0.2534494
   1818.0   1835.0  0.3904098  1.0081660  0.2481230
   1835.0   1852.0  0.3873874  0.9870195  0.2426533
   1852.0   1869.0  0.3843491  0.9663727  0.2373703
   1869.0   1887.0  0.3810934  0.9451147  0.2319725
   1887.0   1905.0  0.3778515  0.9243209  0.2267662
   1905.0   1923.0  0.3746014  0.9040513  0.2217439
   1923.0   1942.0  0.3711321  0.8833029  0.2166344
   1942.0   1961.0  0.3679254  0.8639338  0.2119639
   1961.0   1980.0  0.3644122  0.8443705  0.2072117
   1980.0   2000.0  0.3601890  0.8257667  0.2024080
   2000.0   2020.0  0.3559820  0.8076823  0.1977822
   2020.0   2041.0  0.3517943  0.7901022  0.1933257
   2041.0   2062.0  0.3474088  0.7722031  0.1888198
   2062.0   2083.0  0.3488749  0.7614184  0.1854847
   2083.0   2105.0  0.3442971  0.7435160  0.1810828
   2105.0   2128.0  0.3397617  0.7261457  0.1768488
   2128.0   2151.0  0.3350385  0.7086111  0.1725929
   2151.0   2174.0  0.3303583  0.6916415  0.1685017
   2174.0   2200.0  0.3252900  0.6738958  0.1642321
   2200.0   2222.0  0.3204888  0.6574152  0.1602967
   2222.0   2247.0  0.3159431  0.6421267  0.1566676
   2247.0   2273.0  0.3108308  0.6255177  0.1527243
   2273.0   2299.0  0.3113840  0.6135252  0.1497140
   2299.0   2326.0  0.3063852  0.5978187  0.1460575
   2326.0   2353.0  0.3012491  0.5821484  0.1424118
   2353.0   2381.0  0.2959856  0.5665536  0.1387849
   2381.0   2410.0  0.2917010  0.5495207  0.1352969
   2410.0   2439.0  0.2886501  0.5296689  0.1318207
   2439.0   2469.0  0.2855681  0.5099977  0.1283758
   2469.0   2500.0  0.2826975  0.4908872  0.1250744
   2500.0   2532.0  0.2796657  0.4715111  0.1217033
   2532.0   2564.0  0.2768252  0.4528126  0.1184767
   2564.0   2597.0  0.2741812  0.4347585  0.1153861
   2597.0   2632.0  0.2714673  0.4164717  0.1122431
   2632.0   2667.0  0.2684254  0.3985308  0.1090646
   2667.0   2703.0  0.2652631  0.3824511  0.1061125
   2703.0   2740.0  0.2568203  0.3651808  0.1026982
   2740.0   2778.0  0.2536461  0.3494897  0.0997831
   2778.0   2817.0  0.2507466  0.3343444  0.0969972
   2817.0   2857.0  0.2477815  0.3192722  0.0941962
   2857.0   2899.0  0.2397356  0.3034805  0.0910106
   2899.0   2941.0  0.2371183  0.2891033  0.0883455
   2941.0   2985.0  0.2343027  0.2755406  0.0857430
   2985.0   3030.0  0.2305461  0.2636984  0.0832049
   3030.0   3077.0  0.2215030  0.2511911  0.0802329
   3077.0   3125.0  0.2179359  0.2398423  0.0777846
   3125.0   3175.0  0.2143986  0.2286365  0.0753538
   3175.0   3225.0  0.2060346  0.2173740  0.0726437
   3225.0   3275.0  0.2029047  0.2071133  0.0704065
   3275.0   3325.0  0.2003142  0.1970013  0.0682739
   3325.0   3375.0  0.1980701  0.1872437  0.0662393
   3375.0   3425.0  0.1960479  0.1779472  0.0642968
   3425.0   3450.0  0.1898076  0.1710171  0.0625794
   3450.0   3550.0  0.1879232  0.1604254  0.0603769
   3550.0   3650.0  0.1892285  0.1456084  0.0573405
   3650.0   3750.0  0.1857308  0.1325302  0.0542867
   3750.0   3850.0  0.1877447  0.1205278  0.0517218
   3850.0   3950.0  0.1905846  0.1094066  0.0493504
   3950.0   4050.0  0.1944188  0.0990464  0.0471526
   4050.0   4150.0  0.2040724  0.0894345  0.0453321
   4150.0   4250.0  0.2096502  0.0807042  0.0434242
   4250.0   4350.0  0.2162713  0.0726695  0.0416451
   4350.0   4450.0  0.2243663  0.0651868  0.0399833
   4450.0   4550.0  0.2240865  0.0595373  0.0382391
   4550.0   4650.0  0.2226422  0.0547817  0.0366073
   4650.0   4750.0  0.2219875  0.0503277  0.0350783
   4750.0   4850.0  0.2171662  0.0461682  0.0334778
   4850.0   4950.0  0.2181907  0.0422486  0.0321361
   4950.0   5050.0  0.2201489  0.0385657  0.0308736
   5050.0   5150.0  0.2232491  0.0350853  0.0296842
   5150.0   5250.0  0.2276303  0.0317966  0.0285624
   5250.0   5350.0  0.2334770  0.0286905  0.0275031
   5350.0   5450.0  0.2358691  0.0257334  0.0263714
   5450.0   5550.0  0.2456832  0.0229323  0.0254283
   5550.0   5650.0  0.2584665  0.0202617  0.0245350
   5650.0   5750.0  0.2636659  0.0184887  0.0236881
   5750.0   5850.0  0.2640101  0.0172105  0.0228844
   5850.0   5950.0  0.2650681  0.0159971  0.0221209
   5950.0   6050.0  0.2611891  0.0148244  0.0212900
   6050.0   6150.0  0.2638572  0.0137267  0.0206026
   6150.0   6250.0  0.2674830  0.0126800  0.0199479
   6250.0   6350.0  0.2723283  0.0116753  0.0193239
   6350.0   6450.0  0.2783209  0.0107203  0.0187288
   6450.0   6550.0  0.2858024  0.0098066  0.0181607
   6550.0   6650.0  0.2889466  0.0089107  0.0175316
   6650.0   6750.0  0.3002659  0.0080703  0.0170154
   6750.0   6850.0  0.3142784  0.0072635  0.0165216
   6850.0   6950.0  0.3294469  0.0065332  0.0160490
   6950.0   7050.0  0.3291608  0.0061706  0.0155965
   7050.0   7150.0  0.3293830  0.0058241  0.0151628
   7150.0   7250.0  0.3298580  0.0054973  0.0147469
   7250.0   7350.0  0.3311825  0.0051795  0.0143479
   7350.0   7450.0  0.3262945  0.0048608  0.0138964
   7450.0   7550.0  0.3288856  0.0045690  0.0135302
   7550.0   7650.0  0.3318587  0.0042931  0.0131783
   7650.0   7750.0  0.3359702  0.0040233  0.0128400
   7750.0   7850.0  0.3409841  0.0037637  0.0125145
   7850.0   7950.0  0.3465872  0.0035179  0.0122012
   7950.0   8050.0  0.3537438  0.0032767  0.0118996
   8050.0   8150.0  0.3622304  0.0030441  0.0116089
   8150.0   8250.0  0.3722663  0.0028194  0.0113288
   8250.0   8350.0  0.3761251  0.0025948  0.0110045
   8350.0   8450.0  0.3900042  0.0023849  0.0107452
   8450.0   8550.0  0.4065154  0.0021818  0.0104949
