HC FRACTAL OPTICAL PROPERTIES, CHEM GRID
 rpar =     0.0700000 um
 fractal properties
 rmon =     0.0500000 um
 df =       1.50493
 nmon =       2.74400
  WAVMIN     WAVMAX      W0         QEXT        gf
   1754.0   1770.0  0.5948659  3.8150389  0.6768431
   1770.0   1786.0  0.5956849  3.8047090  0.6745176
   1786.0   1802.0  0.5964944  3.7941971  0.6722354
   1802.0   1818.0  0.6001425  3.8256929  0.6687348
   1818.0   1835.0  0.6010148  3.8155229  0.6665429
   1835.0   1852.0  0.6019241  3.8041210  0.6642132
   1852.0   1869.0  0.6028568  3.7920361  0.6618577
   1869.0   1887.0  0.6038454  3.7783000  0.6593106
   1887.0   1905.0  0.6049023  3.7635660  0.6566827
   1905.0   1923.0  0.6060018  3.7476830  0.6539507
   1923.0   1942.0  0.6071693  3.7295160  0.6509295
   1942.0   1961.0  0.6084248  3.7110989  0.6479183
   1961.0   1980.0  0.6096378  3.6899979  0.6445584
   1980.0   2000.0  0.6102933  3.6654201  0.6407843
   2000.0   2020.0  0.6109954  3.6392930  0.6367701
   2020.0   2041.0  0.6117387  3.6116581  0.6325085
   2041.0   2062.0  0.6125407  3.5810730  0.6277640
   2062.0   2083.0  0.6165934  3.6067140  0.6234160
   2083.0   2105.0  0.6175658  3.5727119  0.6180800
   2105.0   2128.0  0.6184911  3.5364740  0.6124089
   2128.0   2151.0  0.6194794  3.4974740  0.6062077
   2151.0   2174.0  0.6204650  3.4571390  0.5997272
   2174.0   2200.0  0.6214756  3.4119811  0.5923955
   2200.0   2222.0  0.6224329  3.3675530  0.5851107
   2222.0   2247.0  0.6233211  3.3241580  0.5779356
   2247.0   2273.0  0.6242214  3.2743411  0.5696366
   2273.0   2299.0  0.6290113  3.2840891  0.5631265
   2299.0   2326.0  0.6299018  3.2328711  0.5546399
   2326.0   2353.0  0.6307091  3.1792979  0.5457401
   2353.0   2381.0  0.6314138  3.1235149  0.5364680
   2381.0   2410.0  0.6333058  3.0666840  0.5271640
   2410.0   2439.0  0.6370460  3.0059791  0.5174941
   2439.0   2469.0  0.6407641  2.9427209  0.5075500
   2469.0   2500.0  0.6445172  2.8789899  0.4977055
   2500.0   2532.0  0.6482589  2.8109529  0.4873747
   2532.0   2564.0  0.6519569  2.7427840  0.4772497
   2564.0   2597.0  0.6556158  2.6745980  0.4673632
   2597.0   2632.0  0.6592895  2.6024771  0.4571604
   2632.0   2667.0  0.6625556  2.5271511  0.4467469
   2667.0   2703.0  0.6650734  2.4552000  0.4370282
   2703.0   2740.0  0.6618474  2.3323071  0.4256403
   2740.0   2778.0  0.6640211  2.2574210  0.4160188
   2778.0   2817.0  0.6662002  2.1833849  0.4068262
   2817.0   2857.0  0.6682158  2.1069119  0.3976202
   2857.0   2899.0  0.6639645  1.9863859  0.3872023
   2899.0   2941.0  0.6658371  1.9104540  0.3785660
   2941.0   2985.0  0.6671585  1.8352830  0.3702225
   2985.0   3030.0  0.6661423  1.7590680  0.3615573
   3030.0   3077.0  0.6594381  1.6516660  0.3530465
   3077.0   3125.0  0.6587651  1.5805320  0.3454818
   3125.0   3175.0  0.6579615  1.5091300  0.3380689
   3175.0   3225.0  0.6497972  1.4079660  0.3299730
   3225.0   3275.0  0.6488110  1.3421000  0.3232954
   3275.0   3325.0  0.6483369  1.2780880  0.3169686
   3325.0   3375.0  0.6481057  1.2164010  0.3109762
   3375.0   3425.0  0.6479500  1.1573050  0.3052980
   3425.0   3450.0  0.6400799  1.0904870  0.3004200
   3450.0   3550.0  0.6402348  1.0244110  0.2940640
   3550.0   3650.0  0.6470572  0.9476014  0.2852897
   3650.0   3750.0  0.6453769  0.8591080  0.2766496
   3750.0   3850.0  0.6522297  0.7948354  0.2693054
   3850.0   3950.0  0.6598389  0.7347819  0.2625069
   3950.0   4050.0  0.6684244  0.6786531  0.2561822
   4050.0   4150.0  0.6850406  0.6388481  0.2507947
   4150.0   4250.0  0.6947461  0.5896716  0.2452349
   4250.0   4350.0  0.7052300  0.5442003  0.2399992
   4350.0   4450.0  0.7168894  0.5019578  0.2350478
   4450.0   4550.0  0.7177787  0.4575562  0.2299296
   4550.0   4650.0  0.7171966  0.4186476  0.2250769
   4650.0   4750.0  0.7174796  0.3832968  0.2204503
   4750.0   4850.0  0.7122886  0.3447471  0.2156375
   4850.0   4950.0  0.7145098  0.3159833  0.2114149
   4950.0   5050.0  0.7177903  0.2897000  0.2073590
   5050.0   5150.0  0.7223333  0.2655966  0.2034550
   5150.0   5250.0  0.7282221  0.2434614  0.1996905
   5250.0   5350.0  0.7355472  0.2231083  0.1960542
   5350.0   5450.0  0.7385917  0.2005724  0.1922276
   5450.0   5550.0  0.7496300  0.1835119  0.1888297
   5550.0   5650.0  0.7629063  0.1676916  0.1855333
   5650.0   5750.0  0.7684591  0.1550146  0.1823398
   5750.0   5850.0  0.7694628  0.1443364  0.1792379
   5850.0   5950.0  0.7711062  0.1344615  0.1762178
   5950.0   6050.0  0.7679557  0.1229402  0.1730228
   6050.0   6150.0  0.7710813  0.1146111  0.1701603
   6150.0   6250.0  0.7750105  0.1068643  0.1673668
   6250.0   6350.0  0.7799183  0.0996331  0.1646390
   6350.0   6450.0  0.7856617  0.0928989  0.1619738
   6450.0   6550.0  0.7924286  0.0866053  0.1593686
   6550.0   6650.0  0.7953246  0.0791348  0.1566103
   6650.0   6750.0  0.8046281  0.0737056  0.1541231
   6750.0   6850.0  0.8153193  0.0686071  0.1516887
   6850.0   6950.0  0.8260729  0.0639265  0.1493053
   6950.0   7050.0  0.8263898  0.0603785  0.1469729
   7050.0   7150.0  0.8270303  0.0570551  0.1446877
   7150.0   7250.0  0.8278266  0.0539502  0.1424482
   7250.0   7350.0  0.8291586  0.0510232  0.1402530
   7350.0   7450.0  0.8263242  0.0472994  0.1379314
   7450.0   7550.0  0.8284805  0.0447617  0.1358252
   7550.0   7650.0  0.8308453  0.0423813  0.1337597
   7650.0   7750.0  0.8338785  0.0401247  0.1317337
   7750.0   7850.0  0.8373948  0.0379934  0.1297462
   7850.0   7950.0  0.8411719  0.0359893  0.1277963
   7950.0   8050.0  0.8457369  0.0340823  0.1258830
   8050.0   8150.0  0.8508844  0.0322760  0.1240056
   8150.0   8250.0  0.8566551  0.0305634  0.1221631
   8250.0   8350.0  0.8589240  0.0283388  0.1202184
   8350.0   8450.0  0.8662366  0.0268225  0.1184465
   8450.0   8550.0  0.8743429  0.0253806  0.1167073
