HC FRACTAL OPTICAL PROPERTIES, CHEM GRID
 rpar =      0.370000 um
 fractal properties
 rmon =     0.0500000 um
 df =       1.99981
 nmon =       405.224
  WAVMIN     WAVMAX      W0         QEXT        gf
   1754.0   1770.0  0.5095739 16.7478695  0.8626183
   1770.0   1786.0  0.5108430 16.7119999  0.8617035
   1786.0   1802.0  0.5121223 16.6760693  0.8608235
   1802.0   1818.0  0.5143622 16.7393303  0.8594883
   1818.0   1835.0  0.5157061 16.7046394  0.8586668
   1835.0   1852.0  0.5171649 16.6669693  0.8578110
   1852.0   1869.0  0.5186917 16.6276703  0.8569601
   1869.0   1887.0  0.5203659 16.5838909  0.8560532
   1887.0   1905.0  0.5221598 16.5369892  0.8551273
   1905.0   1923.0  0.5240573 16.4868507  0.8541723
   1923.0   1942.0  0.5261424 16.4302902  0.8531223
   1942.0   1961.0  0.5283201 16.3721504  0.8520771
   1961.0   1980.0  0.5306048 16.3076191  0.8509138
   1980.0   2000.0  0.5325734 16.2399006  0.8496129
   2000.0   2020.0  0.5346662 16.1674900  0.8482246
   2020.0   2041.0  0.5368808 16.0906296  0.8467453
   2041.0   2062.0  0.5393120 16.0054398  0.8450909
   2062.0   2083.0  0.5423428 16.0570698  0.8436304
   2083.0   2105.0  0.5451015 15.9615698  0.8417611
   2105.0   2128.0  0.5479771 15.8617096  0.8397806
   2128.0   2151.0  0.5510575 15.7535000  0.8375965
   2151.0   2174.0  0.5542220 15.6417503  0.8353039
   2174.0   2200.0  0.5576966 15.5172701  0.8326993
   2200.0   2222.0  0.5611011 15.3949900  0.8301005
   2222.0   2247.0  0.5644044 15.2758303  0.8275322
   2247.0   2273.0  0.5681140 15.1398697  0.8245522
   2273.0   2299.0  0.5727029 15.1523800  0.8223872
   2299.0   2326.0  0.5765175 15.0143003  0.8193356
   2326.0   2353.0  0.5804449 14.8711996  0.8161239
   2353.0   2381.0  0.5844467 14.7228298  0.8127730
   2381.0   2410.0  0.5896564 14.5633202  0.8093960
   2410.0   2439.0  0.5968761 14.3824997  0.8058743
   2439.0   2469.0  0.6043054 14.1972399  0.8022344
   2469.0   2500.0  0.6118601 14.0121803  0.7986349
   2500.0   2532.0  0.6197558 13.8181295  0.7948382
   2532.0   2564.0  0.6276851 13.6253996  0.7911548
   2564.0   2597.0  0.6356469 13.4342804  0.7875437
   2597.0   2632.0  0.6439773 13.2351799  0.7838306
   2632.0   2667.0  0.6522297 13.0309601  0.7800616
   2667.0   2703.0  0.6596405 12.8390799  0.7765648
   2703.0   2740.0  0.6647540 12.5017300  0.7721893
   2740.0   2778.0  0.6723265 12.3003798  0.7687962
   2778.0   2817.0  0.6800429 12.1048603  0.7656497
   2817.0   2857.0  0.6876799 11.8942604  0.7624332
   2857.0   2899.0  0.6926512 11.5412397  0.7585852
   2899.0   2941.0  0.7005464 11.3292303  0.7557389
   2941.0   2985.0  0.7080116 11.1175699  0.7530609
   2985.0   3030.0  0.7139895 10.9118204  0.7505848
   3030.0   3077.0  0.7166652 10.5500202  0.7474881
   3077.0   3125.0  0.7226655 10.3344698  0.7453204
   3125.0   3175.0  0.7287341 10.1120996  0.7432767
   3175.0   3225.0  0.7310282  9.7418213  0.7408136
   3225.0   3275.0  0.7368913  9.5197544  0.7391570
   3275.0   3325.0  0.7431140  9.2978468  0.7376679
   3325.0   3375.0  0.7494121  9.0774584  0.7363344
   3375.0   3425.0  0.7556127  8.8594904  0.7351492
   3425.0   3450.0  0.7561092  8.5519781  0.7338709
   3450.0   3550.0  0.7637137  8.2887697  0.7327231
   3550.0   3650.0  0.7784342  8.0216274  0.7316560
   3650.0   3750.0  0.7877405  7.6275129  0.7305212
   3750.0   3850.0  0.8009791  7.3808479  0.7300419
   3850.0   3950.0  0.8139901  7.1407251  0.7297600
   3950.0   4050.0  0.8269467  6.9101238  0.7296068
   4050.0   4150.0  0.8428810  6.8054771  0.7299517
   4150.0   4250.0  0.8547010  6.5833058  0.7300437
   4250.0   4350.0  0.8661394  6.3683162  0.7302153
   4350.0   4450.0  0.8774011  6.1598749  0.7304458
   4450.0   4550.0  0.8827964  5.8550210  0.7304792
   4550.0   4650.0  0.8869843  5.5671091  0.7305709
   4650.0   4750.0  0.8912624  5.2922521  0.7306992
   4750.0   4850.0  0.8930793  4.9298239  0.7306317
   4850.0   4950.0  0.8976569  4.6841602  0.7308137
   4950.0   5050.0  0.9023821  4.4506798  0.7310051
   5050.0   5150.0  0.9073253  4.2288289  0.7311996
   5150.0   5250.0  0.9124919  4.0181980  0.7313923
   5250.0   5350.0  0.9178848  3.8183470  0.7315786
   5350.0   5450.0  0.9215034  3.5495639  0.7315871
   5450.0   5550.0  0.9276085  3.3728249  0.7317594
   5550.0   5650.0  0.9340798  3.2051489  0.7319171
   5650.0   5750.0  0.9375356  3.0535381  0.7320643
   5750.0   5850.0  0.9393179  2.9140151  0.7321959
   5850.0   5950.0  0.9412107  2.7820771  0.7323076
   5950.0   6050.0  0.9416005  2.5959189  0.7322646
   6050.0   6150.0  0.9437872  2.4803219  0.7323389
   6150.0   6250.0  0.9461087  2.3708880  0.7323914
   6250.0   6350.0  0.9486031  2.2671790  0.7324218
   6350.0   6450.0  0.9512138  2.1689479  0.7324302
   6450.0   6550.0  0.9539787  2.0758150  0.7324167
   6550.0   6650.0  0.9556269  1.9397640  0.7322726
   6650.0   6750.0  0.9588080  1.8577390  0.7322190
   6750.0   6850.0  0.9621691  1.7798300  0.7321437
   6850.0   6950.0  0.9653718  1.7062910  0.7320474
   6950.0   7050.0  0.9660376  1.6401910  0.7319317
   7050.0   7150.0  0.9667530  1.5774200  0.7317954
   7150.0   7250.0  0.9674784  1.5178270  0.7316387
   7250.0   7350.0  0.9682961  1.4611130  0.7314622
   7350.0   7450.0  0.9681911  1.3724010  0.7311811
   7450.0   7550.0  0.9691448  1.3222880  0.7309687
   7550.0   7650.0  0.9701105  1.2746021  0.7307375
   7650.0   7750.0  0.9711806  1.2290990  0.7304883
   7750.0   7850.0  0.9723113  1.1856990  0.7302214
   7850.0   7950.0  0.9734550  1.1443330  0.7299373
   7950.0   8050.0  0.9747100  1.1047840  0.7296364
   8050.0   8150.0  0.9760334  1.0671660  0.7291054
   8150.0   8250.0  0.9774154  1.0308750  0.7289863
   8250.0   8350.0  0.9781241  0.9711905  0.7285707
   8350.0   8450.0  0.9796935  0.9389346  0.7282088
   8450.0   8550.0  0.9813355  0.9080464  0.7278323
