HC FRACTAL OPTICAL PROPERTIES, CHEM GRID, SHORTWAVE
 rpar =     0.0700000 um
 fractal properties
 rmon =     0.0500000 um
 df =       1.50493
 nmon =       2.74400
  WAVMIN     WAVMAX      W0         QEXT        gf
   1216.0   1216.0  0.4815746  4.0128312  0.7918087
   1300.0   1350.0  0.5242993  4.1919761  0.7753468
   1350.0   1400.0  0.5453351  4.2520862  0.7657247
   1400.0   1450.0  0.5547208  4.2229910  0.7540733
   1450.0   1500.0  0.5643414  4.1594110  0.7401031
   1500.0   1550.0  0.5731404  4.0779009  0.7256323
   1550.0   1600.0  0.5803211  3.9932640  0.7122996
   1600.0   1650.0  0.5856663  3.9132941  0.7010227
   1650.0   1700.0  0.5898036  3.8735330  0.6910254
   1700.0   1750.0  0.5928872  3.8389471  0.6824892
