HC FRACTAL OPTICAL PROPERTIES, CHEM GRID
 rpar =       2.00000 um
 fractal properties
 rmon =     0.0500000 um
 df =       2.40000
 nmon =       64000.0
  WAVMIN     WAVMAX      W0         QEXT        gf
   1754.0   1770.0  0.2848178 62.0802193  0.9648444
   1770.0   1786.0  0.2856120 61.8556290  0.9646717
   1786.0   1802.0  0.2866214 61.6483307  0.9644998
   1802.0   1818.0  0.2873136 61.6579285  0.9642182
   1818.0   1835.0  0.2883539 61.4495811  0.9640658
   1835.0   1852.0  0.2894875 61.2238388  0.9639090
   1852.0   1869.0  0.2910045 61.0166206  0.9637402
   1869.0   1887.0  0.2923616 60.7605705  0.9635754
   1887.0   1905.0  0.2938106 60.4860001  0.9634044
   1905.0   1923.0  0.2953488 60.1942406  0.9632272
   1923.0   1942.0  0.2970655 59.8708000  0.9630275
   1942.0   1961.0  0.2988611 59.5368385  0.9628249
   1961.0   1980.0  0.3007929 59.1779900  0.9625950
   1980.0   2000.0  0.3028316 58.8567085  0.9622800
   2000.0   2020.0  0.3047632 58.4939804  0.9619925
   2020.0   2041.0  0.3065666 58.0895500  0.9617335
   2041.0   2062.0  0.3088629 57.6696205  0.9613826
   2062.0   2083.0  0.3102088 57.5871696  0.9610969
   2083.0   2105.0  0.3127993 57.1140900  0.9606879
   2105.0   2128.0  0.3155484 56.6245193  0.9602466
   2128.0   2151.0  0.3185320 56.0995293  0.9597672
   2151.0   2174.0  0.3216386 55.5622292  0.9592538
   2174.0   2200.0  0.3251083 54.9716110  0.9586670
   2200.0   2222.0  0.3285544 54.3963585  0.9580789
   2222.0   2247.0  0.3319449 53.8409500  0.9574957
   2247.0   2273.0  0.3358288 53.2167015  0.9568171
   2273.0   2299.0  0.3387250 52.9255714  0.9563764
   2299.0   2326.0  0.3427937 52.2968788  0.9556838
   2326.0   2353.0  0.3470371 51.6515503  0.9549657
   2353.0   2381.0  0.3514696 50.9946404  0.9541948
   2381.0   2410.0  0.3569230 50.2321701  0.9534321
   2410.0   2439.0  0.3641826 49.2920914  0.9526415
   2439.0   2469.0  0.3717452 48.3353691  0.9518231
   2469.0   2500.0  0.3796052 47.3873711  0.9510175
   2500.0   2532.0  0.3875964 46.3779106  0.9501987
   2532.0   2564.0  0.3966936 45.4525986  0.9493550
   2564.0   2597.0  0.3770697 42.4750900  0.8933939
   2597.0   2632.0  0.4150636 43.5447617  0.9477473
   2632.0   2667.0  0.4248500 42.5916481  0.9469348
   2667.0   2703.0  0.4340156 41.7353592  0.9461880
   2703.0   2740.0  0.4436206 40.7192192  0.9451929
   2740.0   2778.0  0.4535101 39.8670883  0.9444926
   2778.0   2817.0  0.4636479 39.0335808  0.9438429
   2817.0   2857.0  0.4742763 38.1958809  0.9432147
   2857.0   2899.0  0.4850617 37.2362289  0.9423862
   2899.0   2941.0  0.4964477 36.4185104  0.9418543
   2941.0   2985.0  0.5076945 35.6432915  0.9413629
   2985.0   3030.0  0.5176018 34.9711914  0.9409285
   3030.0   3077.0  0.5273352 34.1851082  0.9403237
   3077.0   3125.0  0.5378535 33.5234909  0.9399847
   3125.0   3175.0  0.5487852 32.8617096  0.9396856
   3175.0   3225.0  0.5589884 32.1169090  0.9392588
   3225.0   3275.0  0.5700951 31.4938202  0.9390605
   3275.0   3325.0  0.5817692 30.8705006  0.9389014
   3325.0   3375.0  0.5936817 30.2618008  0.9387799
   3375.0   3425.0  0.6056136 29.6757908  0.9386929
   3425.0   3450.0  0.6133488 29.1594601  0.9385101
   3450.0   3550.0  0.6282567 28.4788494  0.9384761
   3550.0   3650.0  0.6518129 27.5923901  0.9386247
   3650.0   3750.0  0.6725595 26.7272606  0.9387197
   3750.0   3850.0  0.6945823 25.9984608  0.9389765
   3850.0   3950.0  0.7164536 25.3215904  0.9392613
   3950.0   4050.0  0.7383444 24.7042904  0.9378864
   4050.0   4150.0  0.7608759 24.1713505  0.9399673
   4150.0   4250.0  0.7812417 23.6362591  0.9402833
   4250.0   4350.0  0.8009021 23.1444702  0.9405997
   4350.0   4450.0  0.8200685 22.6875706  0.9409140
   4450.0   4550.0  0.8334674 22.2744503  0.9411548
   4550.0   4650.0  0.8447900 21.9121799  0.9413954
   4650.0   4750.0  0.8557552 21.5653591  0.9416310
   4750.0   4850.0  0.8653212 21.1558399  0.9417993
   4850.0   4950.0  0.8756224 20.8346004  0.9420238
   4950.0   5050.0  0.8855832 20.5259304  0.9422379
   5050.0   5150.0  0.8952707 20.2278709  0.9424412
   5150.0   5250.0  0.9046999 19.9445000  0.9426330
   5250.0   5350.0  0.9137819 19.6579304  0.9433428
   5350.0   5450.0  0.9219579 19.2989407  0.9429384
   5450.0   5550.0  0.9306599 19.0341892  0.9430974
   5550.0   5650.0  0.9391763 18.7771893  0.9432445
   5650.0   5750.0  0.9444451 18.5588207  0.9433810
   5750.0   5850.0  0.9479451 18.3622894  0.9435064
   5850.0   5950.0  0.9513367 18.1677895  0.9436200
   5950.0   6050.0  0.9541200 17.8613396  0.9436882
   6050.0   6150.0  0.9573407 17.6671009  0.9437806
   6150.0   6250.0  0.9604756 17.4743595  0.9438621
   6250.0   6350.0  0.9635540 17.2826309  0.9439330
   6350.0   6450.0  0.9665359 17.0924091  0.9439936
   6450.0   6550.0  0.9694502 16.9034595  0.9440444
   6550.0   6650.0  0.9719484 16.5862103  0.9440588
   6650.0   6750.0  0.9747756 16.3988495  0.9440917
   6750.0   6850.0  0.9775488 16.2115192  0.9441156
   6850.0   6950.0  0.9800717 16.0269508  0.9441311
   6950.0   7050.0  0.9810086 15.8552904  0.9441385
   7050.0   7150.0  0.9819225 15.6819000  0.9441381
   7150.0   7250.0  0.9827985 15.5119200  0.9441301
   7250.0   7350.0  0.9836772 15.3404903  0.9441146
   7350.0   7450.0  0.9842926 15.0232000  0.9440716
   7450.0   7550.0  0.9851506 14.8519602  0.9440430
   7550.0   7650.0  0.9859734 14.6817503  0.9440078
   7650.0   7750.0  0.9868062 14.5123701  0.9439664
   7750.0   7850.0  0.9876265 14.3423700  0.9439190
   7850.0   7950.0  0.9884167 14.1755400  0.9438658
   7950.0   8050.0  0.9892196 14.0096703  0.9438072
   8050.0   8150.0  0.9900140 13.8447399  0.9437433
   8150.0   8250.0  0.9908010 13.6810102  0.9436743
   8250.0   8350.0  0.9914038 13.3597002  0.9435846
   8350.0   8450.0  0.9921908 13.1978302  0.9435065
   8450.0   8550.0  0.9929730 13.0372896  0.9434241
