HC FRACTAL OPTICAL PROPERTIES, CHEM GRID, SHORTWAVE
 rpar =      0.270000 um
 fractal properties
 rmon =     0.0500000 um
 df =       1.74314
 nmon =       157.464
  WAVMIN     WAVMAX      W0         QEXT        gf
   1216.0   1216.0  0.4423584 14.4684095  0.8741465
   1300.0   1350.0  0.4719304 14.6453695  0.8631904
   1350.0   1400.0  0.4896245 14.6906996  0.8575364
   1400.0   1450.0  0.4993394 14.5662603  0.8507937
   1450.0   1500.0  0.5100716 14.3444700  0.8423659
   1500.0   1550.0  0.5205085 14.0792599  0.8332934
   1550.0   1600.0  0.5296248 13.8178196  0.8246638
   1600.0   1650.0  0.5370952 13.5843897  0.8171971
   1650.0   1700.0  0.5425585 13.4710798  0.8107367
   1700.0   1750.0  0.5470613 13.3821602  0.8052863
