HC FRACTAL OPTICAL PROPERTIES, CHEM GRID, SHORTWAVE
 rpar =       2.00000 um
 fractal properties
 rmon =     0.0500000 um
 df =       2.40000
 nmon =       64000.0
  WAVMIN     WAVMAX      W0         QEXT        gf
   1216.0   1216.0  0.2233145 76.9420929  0.9766349
   1300.0   1350.0  0.2345384 74.8343964  0.9747085
   1350.0   1400.0  0.2414395 73.2108231  0.9743810
   1400.0   1450.0  0.2467918 71.7149429  0.9732472
   1450.0   1500.0  0.2537982 69.7579803  0.9717440
   1500.0   1550.0  0.2614435 67.7033463  0.9698440
   1550.0   1600.0  0.2685734 65.8182602  0.9684963
   1600.0   1650.0  0.2748238 64.2275467  0.9671834
   1650.0   1700.0  0.2790717 63.3109894  0.9661672
   1700.0   1750.0  0.2824578 62.5678902  0.9653233
