HC FRACTAL OPTICAL PROPERTIES, CHEM GRID, SHORTWAVE
 rpar =      0.300000 um
 fractal properties
 rmon =     0.0500000 um
 df =       1.81571
 nmon =       216.000
  WAVMIN     WAVMAX      W0         QEXT        gf
   1216.0   1216.0  0.4331578 15.8138704  0.8867970
   1300.0   1350.0  0.4641455 16.0349998  0.8772906
   1350.0   1400.0  0.4808191 16.0449409  0.8723617
   1400.0   1450.0  0.4900044 15.8872805  0.8663352
   1450.0   1500.0  0.5003314 15.6264200  0.8587580
   1500.0   1550.0  0.5104837 15.3220901  0.8505781
   1550.0   1600.0  0.5194094 15.0256500  0.8428009
   1600.0   1650.0  0.5267840 14.7637501  0.8360930
   1650.0   1700.0  0.5320920 14.6319399  0.8303434
   1700.0   1750.0  0.5364568 14.5277996  0.8255193
