HC FRACTAL OPTICAL PROPERTIES, CHEM GRID, SHORTWAVE
 rpar =      0.900000 um
 fractal properties
 rmon =     0.0500000 um
 df =       2.39999
 nmon =       5832.00
  WAVMIN     WAVMAX      W0         QEXT        gf
   1216.0   1216.0  0.2865437 37.6924400  0.9646771
   1300.0   1350.0  0.3015623 36.9070702  0.9624271
   1350.0   1400.0  0.3108262 36.2617989  0.9612388
   1400.0   1450.0  0.3172428 35.6017113  0.9595168
   1450.0   1500.0  0.3254269 34.7243195  0.9572306
   1500.0   1550.0  0.3341694 33.7942390  0.9547114
   1550.0   1600.0  0.3423549 32.9411011  0.9523258
   1600.0   1650.0  0.3494680 32.2187500  0.9503251
   1650.0   1700.0  0.3541875 31.8036709  0.9487350
   1700.0   1750.0  0.3581150 31.4741592  0.9474817
