HC FRACTAL OPTICAL PROPERTIES, CHEM GRID, SHORTWAVE
 rpar =      0.600000 um
 fractal properties
 rmon =     0.0500000 um
 df =       2.37160
 nmon =       1728.00
  WAVMIN     WAVMAX      W0         QEXT        gf
   1216.0   1216.0  0.3201610 26.3708591  0.9562669
   1300.0   1350.0  0.3376121 25.9438000  0.9534687
   1350.0   1400.0  0.3480683 25.5555191  0.9519777
   1400.0   1450.0  0.3550100 25.1242409  0.9498281
   1450.0   1500.0  0.3637458 24.5437508  0.9469970
   1500.0   1550.0  0.3729641 23.9233894  0.9438796
   1550.0   1600.0  0.3814618 23.3491898  0.9409279
   1600.0   1650.0  0.3887837 22.8607903  0.9384497
   1650.0   1700.0  0.3937265 22.5851994  0.9364640
   1700.0   1750.0  0.3977950 22.3653603  0.9348965
