HC FRACTAL OPTICAL PROPERTIES, CHEM GRID
 rpar =      0.700000 um
 fractal properties
 rmon =     0.0500000 um
 df =       2.39628
 nmon =       2744.00
  WAVMIN     WAVMAX      W0         QEXT        gf
   1754.0   1770.0  0.3855090 25.2884693  0.9391730
   1770.0   1786.0  0.3867018 25.2179508  0.9388365
   1786.0   1802.0  0.3879034 25.1471901  0.9385158
   1802.0   1818.0  0.3892073 25.1803398  0.9380722
   1818.0   1835.0  0.3904884 25.1112995  0.9377195
   1835.0   1852.0  0.3918466 25.0349808  0.9374211
   1852.0   1869.0  0.3932699 24.9553795  0.9371254
   1869.0   1887.0  0.3948605 24.8682804  0.9368129
   1887.0   1905.0  0.3965506 24.7744102  0.9364877
   1905.0   1923.0  0.3983338 24.6741199  0.9361457
   1923.0   1942.0  0.4003490 24.5640202  0.9357679
   1942.0   1961.0  0.4024359 24.4496899  0.9353859
   1961.0   1980.0  0.4046644 24.3260899  0.9349537
   1980.0   2000.0  0.4066894 24.2058105  0.9344614
   2000.0   2020.0  0.4088565 24.0779209  0.9339280
   2020.0   2041.0  0.4111622 23.9428101  0.9333519
   2041.0   2062.0  0.4137139 23.7941208  0.9326999
   2062.0   2083.0  0.4156998 23.7944298  0.9321668
   2083.0   2105.0  0.4185902 23.6272106  0.9314222
   2105.0   2128.0  0.4216496 23.4543991  0.9306267
   2128.0   2151.0  0.4249595 23.2688198  0.9297428
   2151.0   2174.0  0.4283895 23.0785503  0.9288105
   2174.0   2200.0  0.4321929 22.8686104  0.9277464
   2200.0   2222.0  0.4359613 22.6641693  0.9266822
   2222.0   2247.0  0.4396519 22.4664898  0.9256282
   2247.0   2273.0  0.4438516 22.2436104  0.9244038
   2273.0   2299.0  0.4475293 22.1720791  0.9235852
   2299.0   2326.0  0.4518970 21.9474106  0.9223333
   2326.0   2353.0  0.4564399 21.7166309  0.9210177
   2353.0   2381.0  0.4611428 21.4807396  0.9196455
   2381.0   2410.0  0.4670078 21.2125092  0.9182665
   2410.0   2439.0  0.4747887 20.8854408  0.9171169
   2439.0   2469.0  0.4830115 20.5583401  0.9153547
   2469.0   2500.0  0.4914072 20.2315292  0.9138970
   2500.0   2532.0  0.5003039 19.8934898  0.9124558
   2532.0   2564.0  0.5093923 19.5627708  0.9108858
   2564.0   2597.0  0.5186169 19.2376003  0.9094423
   2597.0   2632.0  0.5284040 18.9035091  0.9079655
   2632.0   2667.0  0.5384439 18.5758705  0.9063318
   2667.0   2703.0  0.5474977 18.2707291  0.9051065
   2703.0   2740.0  0.5562679 17.8697205  0.9033036
   2740.0   2778.0  0.5659688 17.5688705  0.9019972
   2778.0   2817.0  0.5758418 17.2754192  0.9007734
   2817.0   2857.0  0.5860615 16.9787807  0.8995840
   2857.0   2899.0  0.5954720 16.5897694  0.8980518
   2899.0   2941.0  0.6061758 16.2979298  0.8970150
   2941.0   2985.0  0.6165867 16.0181904  0.8960580
   2985.0   3030.0  0.6255366 15.7679300  0.8951930
   3030.0   3077.0  0.6333033 15.4223804  0.8940277
   3077.0   3125.0  0.6426157 15.1726503  0.8933157
   3125.0   3175.0  0.6521881 14.9209700  0.8926661
   3175.0   3225.0  0.6600203 14.5813904  0.8917952
   3225.0   3275.0  0.6695431 14.3400602  0.8913172
   3275.0   3325.0  0.6794983 14.0992899  0.8909084
   3325.0   3375.0  0.6895704 13.8632803  0.8905649
   3375.0   3425.0  0.6995579 13.6342602  0.8902816
   3425.0   3450.0  0.7048819 13.3712196  0.8898645
   3450.0   3550.0  0.7171458 13.0999899  0.8897097
   3550.0   3650.0  0.7372089 12.7955599  0.8896426
   3650.0   3750.0  0.7535073 12.4265604  0.8895544
   3750.0   3850.0  0.7716454 12.1702604  0.8897513
   3850.0   3950.0  0.7893568 11.9298697  0.8900037
   3950.0   4050.0  0.8066758 11.7026501  0.8902940
   4050.0   4150.0  0.8253145 11.5807199  0.8907641
   4150.0   4250.0  0.8410205 11.3833599  0.8910866
   4250.0   4350.0  0.8559832 11.1987400  0.8914158
   4350.0   4450.0  0.8704019 11.0246496  0.8917435
   4450.0   4550.0  0.8796657 10.7890902  0.8919474
   4550.0   4650.0  0.8873346 10.5653200  0.8921542
   4650.0   4750.0  0.8947623 10.3455496  0.8923557
   4750.0   4850.0  0.9006195 10.0345201  0.8924429
   4850.0   4950.0  0.9076498  9.8210373  0.8926288
   4950.0   5050.0  0.9144779  9.6113014  0.8928007
   5050.0   5150.0  0.9211639  9.4050560  0.8929547
   5150.0   5250.0  0.9277776  9.2111235  0.8929651
   5250.0   5350.0  0.9341100  9.0029535  0.8932101
   5350.0   5450.0  0.9394328  8.7034883  0.8932314
   5450.0   5550.0  0.9457192  8.5102177  0.8933146
   5550.0   5650.0  0.9519565  8.3202620  0.8933778
   5650.0   5750.0  0.9556692  8.1402035  0.8934235
   5750.0   5850.0  0.9580051  7.9663692  0.8934502
   5850.0   5950.0  0.9603040  7.7951670  0.8934567
   5950.0   6050.0  0.9618590  7.5199108  0.8933830
   6050.0   6150.0  0.9641325  7.3543992  0.8933524
   6150.0   6250.0  0.9663878  7.1918082  0.8933029
   6250.0   6350.0  0.9686498  7.0321321  0.8932346
   6350.0   6450.0  0.9708830  6.8754940  0.8931481
   6450.0   6550.0  0.9731117  6.7218671  0.8930439
   6550.0   6650.0  0.9748144  6.4657741  0.8928742
   6650.0   6750.0  0.9770882  6.3189292  0.8927378
   6750.0   6850.0  0.9793708  6.1751652  0.8925852
   6850.0   6950.0  0.9814766  6.0348730  0.8924168
   6950.0   7050.0  0.9821395  5.9007230  0.8922340
   7050.0   7150.0  0.9828027  5.7695889  0.8920363
   7150.0   7250.0  0.9834459  5.6414919  0.8918244
   7250.0   7350.0  0.9841126  5.5163140  0.8915986
   7350.0   7450.0  0.9844034  5.2954588  0.8913220
   7450.0   7550.0  0.9850907  5.1772900  0.8910710
   7550.0   7650.0  0.9857612  5.0620379  0.8908075
   7650.0   7750.0  0.9864603  4.9495602  0.8905320
   7750.0   7850.0  0.9871663  4.8398309  0.8902447
   7850.0   7950.0  0.9878573  4.7328949  0.8899462
   7950.0   8050.0  0.9885792  4.6284161  0.8896369
   8050.0   8150.0  0.9893105  4.5267310  0.8893170
   8150.0   8250.0  0.9900515  4.4275770  0.8889870
   8250.0   8350.0  0.9905270  4.2431340  0.8886179
   8350.0   8450.0  0.9913082  4.1501942  0.8882693
   8450.0   8550.0  0.9921016  4.0596242  0.8879114
