HC FRACTAL OPTICAL PROPERTIES, CHEM GRID, SHORTWAVE
 rpar =      0.700000 um
 fractal properties
 rmon =     0.0500000 um
 df =       2.39628
 nmon =       2744.00
  WAVMIN     WAVMAX      W0         QEXT        gf
   1216.0   1216.0  0.3073353 30.1963291  0.9596954
   1300.0   1350.0  0.3238300 29.6508293  0.9571208
   1350.0   1400.0  0.3338385 29.1779003  0.9557418
   1400.0   1450.0  0.3405903 28.6706409  0.9537788
   1450.0   1500.0  0.3490836 27.9893608  0.9511664
   1500.0   1550.0  0.3581191 27.2651196  0.9482963
   1550.0   1600.0  0.3665161 26.5980396  0.9455753
   1600.0   1650.0  0.3737691 26.0314503  0.9432938
   1650.0   1700.0  0.3786531 25.7101803  0.9414698
   1700.0   1750.0  0.3826969 25.4547291  0.9400342
