HC FRACTAL OPTICAL PROPERTIES, CHEM GRID, SHORTWAVE
 rpar =    0.00400000 um
 fractal properties
 rmon =     0.0500000 um
 df =       3.00000
 nmon =        1
  WAVMIN     WAVMAX      W0         QEXT        gf
   1216.0   1216.0  0.0077322  0.1299498  0.0092862
   1300.0   1350.0  0.0064293  0.0973584  0.0077705
   1350.0   1400.0  0.0060029  0.0859279  0.0071988
   1400.0   1450.0  0.0053431  0.0816535  0.0066735
   1450.0   1500.0  0.0047721  0.0776758  0.0062016
   1500.0   1550.0  0.0042762  0.0739558  0.0057763
   1550.0   1600.0  0.0038435  0.0704711  0.0053918
   1600.0   1650.0  0.0034647  0.0671917  0.0050429
   1650.0   1700.0  0.0031993  0.0642249  0.0047481
   1700.0   1750.0  0.0029597  0.0615194  0.0044784
