HC FRACTAL OPTICAL PROPERTIES, CHEM GRID
 rpar =      0.600000 um
 fractal properties
 rmon =     0.0500000 um
 df =       2.37160
 nmon =       1728.00
  WAVMIN     WAVMAX      W0         QEXT        gf
   1754.0   1770.0  0.4006141 22.2220802  0.9339473
   1770.0   1786.0  0.4018281 22.1619892  0.9335778
   1786.0   1802.0  0.4030503 22.1016598  0.9332270
   1802.0   1818.0  0.4044067 22.1339493  0.9326730
   1818.0   1835.0  0.4056817 22.0742092  0.9323541
   1835.0   1852.0  0.4070680 22.0094204  0.9320249
   1852.0   1869.0  0.4085214 21.9418793  0.9316974
   1869.0   1887.0  0.4101248 21.8672600  0.9313473
   1887.0   1905.0  0.4118475 21.7875004  0.9309872
   1905.0   1923.0  0.4136787 21.7027493  0.9306118
   1923.0   1942.0  0.4157090 21.6083698  0.9301933
   1942.0   1961.0  0.4178294 21.5110092  0.9297708
   1961.0   1980.0  0.4200896 21.4055500  0.9292933
   1980.0   2000.0  0.4221342 21.3023701  0.9287499
   2000.0   2020.0  0.4243228 21.1926899  0.9281618
   2020.0   2041.0  0.4266466 21.0766506  0.9275273
   2041.0   2062.0  0.4292163 20.9488907  0.9268103
   2062.0   2083.0  0.4313142 20.9552193  0.9262215
   2083.0   2105.0  0.4342422 20.8121796  0.9254024
   2105.0   2128.0  0.4373145 20.6634502  0.9245282
   2128.0   2151.0  0.4406358 20.5036602  0.9235585
   2151.0   2174.0  0.4440752 20.3397694  0.9225357
   2174.0   2200.0  0.4478931 20.1590805  0.9213688
   2200.0   2222.0  0.4516647 19.9827709  0.9202031
   2222.0   2247.0  0.4553570 19.8122807  0.9190480
   2247.0   2273.0  0.4595529 19.6198597  0.9177066
   2273.0   2299.0  0.4633405 19.5645599  0.9168043
   2299.0   2326.0  0.4677181 19.3712196  0.9154292
   2326.0   2353.0  0.4722585 19.1721992  0.9139882
   2353.0   2381.0  0.4769385 18.9680805  0.9124850
   2381.0   2410.0  0.4827946 18.7371292  0.9109743
   2410.0   2439.0  0.4906338 18.4586792  0.9094007
   2439.0   2469.0  0.4987888 18.1761303  0.9077826
   2469.0   2500.0  0.5071760 17.8961697  0.9061851
   2500.0   2532.0  0.5160663 17.6069508  0.9045138
   2532.0   2564.0  0.5251034 17.3228302  0.9028833
   2564.0   2597.0  0.5342807 17.0439701  0.9012991
   2597.0   2632.0  0.5440026 16.7572803  0.8996772
   2632.0   2667.0  0.5538501 16.4719906  0.8980404
   2667.0   2703.0  0.5629086 16.2127895  0.8965333
   2703.0   2740.0  0.5714081 15.8579798  0.8945562
   2740.0   2778.0  0.5809706 15.5981598  0.8931150
   2778.0   2817.0  0.5906671 15.3437996  0.8917666
   2817.0   2857.0  0.6007024 15.0868502  0.8904506
   2857.0   2899.0  0.6095943 14.7341805  0.8888044
   2899.0   2941.0  0.6202573 14.4876699  0.8876081
   2941.0   2985.0  0.6304376 14.2444496  0.8865401
   2985.0   3030.0  0.6391550 14.0254498  0.8855723
   3030.0   3077.0  0.6464927 13.7123899  0.8842753
   3077.0   3125.0  0.6555287 13.4926500  0.8834694
   3125.0   3175.0  0.6647995 13.2705803  0.8827301
   3175.0   3225.0  0.6721615 12.9611998  0.8817254
   3225.0   3275.0  0.6813521 12.7469997  0.8811977
   3275.0   3325.0  0.6909528 12.5330296  0.8807192
   3325.0   3375.0  0.7006649 12.3232298  0.8803114
   3375.0   3425.0  0.7102920 12.1195097  0.8799694
   3425.0   3450.0  0.7151728 11.8751402  0.8794900
   3450.0   3550.0  0.7269843 11.6331997  0.8792072
   3550.0   3650.0  0.7464606 11.3678398  0.8791353
   3650.0   3750.0  0.7620353 11.0330496  0.8789705
   3750.0   3850.0  0.7795927 10.8077898  0.8791158
   3850.0   3950.0  0.7967113 10.5955400  0.8793219
   3950.0   4050.0  0.8134474 10.3949499  0.8795706
   4050.0   4150.0  0.8316063 10.2972097  0.8800150
   4150.0   4250.0  0.8467287 10.1205502  0.8803009
   4250.0   4350.0  0.8611258  9.9543686  0.8805946
   4350.0   4450.0  0.8749941  9.7968407  0.8808873
   4450.0   4550.0  0.8837405  9.5719204  0.8810456
   4550.0   4650.0  0.8909543  9.3565969  0.8812076
   4650.0   4750.0  0.8979527  9.1448517  0.8813640
   4750.0   4850.0  0.9033313  8.8423004  0.8813964
   4850.0   4950.0  0.9099872  8.6366329  0.8815361
   4950.0   5050.0  0.9164683  8.4345589  0.8816601
   5050.0   5150.0  0.9228337  8.2359180  0.8817664
   5150.0   5250.0  0.9290845  8.0407495  0.8818536
   5250.0   5350.0  0.9352202  7.8490610  0.8819202
   5350.0   5450.0  0.9402398  7.5608802  0.8818811
   5450.0   5550.0  0.9463185  7.3759041  0.8819095
   5550.0   5650.0  0.9523757  7.1944170  0.8819160
   5650.0   5750.0  0.9559510  7.0219512  0.8819033
   5750.0   5850.0  0.9581721  6.8555779  0.8818697
   5850.0   5950.0  0.9603677  6.6923118  0.8818139
   5950.0   6050.0  0.9617779  6.4319730  0.8816701
   6050.0   6150.0  0.9639721  6.2756939  0.8815734
   6150.0   6250.0  0.9661590  6.1227298  0.8814557
   6250.0   6350.0  0.9683638  5.9730520  0.8813171
   6350.0   6450.0  0.9705505  5.8267450  0.8811585
   6450.0   6550.0  0.9727452  5.6841140  0.8809538
   6550.0   6650.0  0.9743770  5.4474859  0.8807297
   6650.0   6750.0  0.9766395  5.3121891  0.8805153
   6750.0   6850.0  0.9789215  5.1801748  0.8802831
   6850.0   6950.0  0.9810330  5.0517688  0.8800330
   6950.0   7050.0  0.9816747  4.9294639  0.8797666
   7050.0   7150.0  0.9823200  4.8103471  0.8794836
   7150.0   7250.0  0.9829481  4.6943932  0.8791845
   7250.0   7350.0  0.9836035  4.5814619  0.8788699
   7350.0   7450.0  0.9838531  4.3842812  0.8784991
   7450.0   7550.0  0.9845365  4.2786431  0.8781559
   7550.0   7650.0  0.9852056  4.1759381  0.8777985
   7650.0   7750.0  0.9859073  4.0760078  0.8774274
   7750.0   7850.0  0.9866192  3.9788320  0.8770430
   7850.0   7950.0  0.9873185  3.8843839  0.8766457
   7950.0   8050.0  0.9880530  3.7925060  0.8762361
   8050.0   8150.0  0.9887999  3.7031741  0.8758143
   8150.0   8250.0  0.9895598  3.6163199  0.8753809
   8250.0   8350.0  0.9900321  3.4564180  0.8749040
   8350.0   8450.0  0.9908404  3.3756161  0.8744491
   8450.0   8550.0  0.9916641  3.2970741  0.8739836
