HC FRACTAL OPTICAL PROPERTIES, CHEM GRID, SHORTWAVE
 rpar =    0.00500000 um
 fractal properties
 rmon =     0.0500000 um
 df =       3.00000
 nmon =        1
  WAVMIN     WAVMAX      W0         QEXT        gf
   1216.0   1216.0  0.0147966  0.1665587  0.0144862
   1300.0   1350.0  0.0123459  0.1242367  0.0121239
   1350.0   1400.0  0.0115413  0.1094811  0.0112327
   1400.0   1450.0  0.0102865  0.1038626  0.0104138
   1450.0   1500.0  0.0091983  0.0986574  0.0096782
   1500.0   1550.0  0.0082512  0.0938089  0.0090151
   1550.0   1600.0  0.0074233  0.0892835  0.0084154
   1600.0   1650.0  0.0066973  0.0850387  0.0078714
   1650.0   1700.0  0.0061885  0.0812223  0.0074116
   1700.0   1750.0  0.0057284  0.0777468  0.0069909
