HC FRACTAL OPTICAL PROPERTIES, CHEM GRID, SHORTWAVE
 rpar =      0.470000 um
 fractal properties
 rmon =     0.0500000 um
 df =       2.22907
 nmon =       830.584
  WAVMIN     WAVMAX      W0         QEXT        gf
   1216.0   1216.0  0.3739140 22.4308491  0.9354835
   1300.0   1350.0  0.3961002 22.2910404  0.9308571
   1350.0   1400.0  0.4087563 22.0734196  0.9284282
   1400.0   1450.0  0.4164760 21.7538700  0.9251471
   1450.0   1500.0  0.4258581 21.3059807  0.9208972
   1500.0   1550.0  0.4355285 20.8172092  0.9162520
   1550.0   1600.0  0.4442934 20.3583393  0.9118425
   1600.0   1650.0  0.4517181 19.9632607  0.9080983
   1650.0   1700.0  0.4568624 19.7483997  0.9050199
   1700.0   1750.0  0.4611026 19.5777798  0.9025291
