RT.LW.01.fractal.r50nm.khare.txt
RT.LW.02.fractal.r50nm.khare.txt
RT.LW.03.fractal.r50nm.khare.txt
RT.LW.04.fractal.r50nm.khare.txt
RT.LW.05.fractal.r50nm.khare.txt
RT.LW.06.fractal.r50nm.khare.txt
RT.LW.07.fractal.r50nm.khare.txt
RT.LW.08.fractal.r50nm.khare.txt
RT.LW.09.fractal.r50nm.khare.txt
RT.LW.10.fractal.r50nm.khare.txt
RT.LW.11.fractal.r50nm.khare.txt
RT.LW.12.fractal.r50nm.khare.txt
RT.LW.13.fractal.r50nm.khare.txt
RT.LW.14.fractal.r50nm.khare.txt
RT.LW.15.fractal.r50nm.khare.txt
RT.LW.16.fractal.r50nm.khare.txt
RT.LW.17.fractal.r50nm.khare.txt
RT.LW.18.fractal.r50nm.khare.txt
RT.LW.19.fractal.r50nm.khare.txt
RT.LW.20.fractal.r50nm.khare.txt
RT.LW.21.fractal.r50nm.khare.txt
RT.LW.22.fractal.r50nm.khare.txt
RT.LW.23.fractal.r50nm.khare.txt
RT.LW.24.fractal.r50nm.khare.txt
RT.LW.25.fractal.r50nm.khare.txt
RT.LW.26.fractal.r50nm.khare.txt
RT.LW.27.fractal.r50nm.khare.txt
RT.LW.28.fractal.r50nm.khare.txt
RT.LW.29.fractal.r50nm.khare.txt
RT.LW.30.fractal.r50nm.khare.txt
RT.LW.31.fractal.r50nm.khare.txt
RT.LW.32.fractal.r50nm.khare.txt
RT.LW.33.fractal.r50nm.khare.txt
RT.LW.34.fractal.r50nm.khare.txt
RT.LW.35.fractal.r50nm.khare.txt
RT.LW.36.fractal.r50nm.khare.txt
RT.LW.37.fractal.r50nm.khare.txt
RT.LW.38.fractal.r50nm.khare.txt
RT.LW.39.fractal.r50nm.khare.txt
RT.LW.40.fractal.r50nm.khare.txt
RT.LW.41.fractal.r50nm.khare.txt
RT.LW.42.fractal.r50nm.khare.txt
RT.LW.43.fractal.r50nm.khare.txt
RT.LW.44.fractal.r50nm.khare.txt
RT.LW.45.fractal.r50nm.khare.txt
RT.LW.46.fractal.r50nm.khare.txt
