 rpar =      0.300000 um
 fractal properties
 rmon =     0.0500000 um
 df =       1.81571
 nmon =       216.000
  WAVL      QEXT        W0         gf
 500.0000   0.000361   0.000000   0.000057
 142.8571   0.002737   0.000008   0.000693
  76.9231   0.007173   0.000031   0.002389
  52.6316   0.009840   0.000092   0.005090
  40.0000   0.011436   0.000221   0.008783
  32.7869   0.012836   0.000422   0.013022
  28.1690   0.015931   0.000620   0.017568
  24.3902   0.020617   0.000834   0.023309
  21.6216   0.025397   0.001069   0.029487
  19.2308   0.031909   0.001304   0.037003
  17.2117   0.037143   0.001591   0.045791
  15.5763   0.038305   0.002048   0.055364
  14.4196   0.038870   0.002554   0.064015
  13.1579   0.036384   0.003760   0.075892
  11.9403   0.029759   0.006113   0.090626
  11.0193   0.023947   0.010248   0.104648
  10.3093   0.024904   0.012755   0.117641
   9.6852   0.028166   0.014701   0.131000
   9.2039   0.031084   0.016257   0.142767
   8.6655   0.035371   0.017967   0.157691
   8.0808   0.045843   0.018045   0.176339
   7.6190   0.055939   0.018109   0.193126
   7.1429   0.075370   0.015869   0.212578
   6.6667   0.108299   0.014384   0.234451
   6.2500   0.147680   0.009890   0.255697
   5.8824   0.064085   0.016153   0.276186
   5.5556   0.013593   0.115732   0.295834
   5.2632   0.008168   0.272163   0.314519
   5.0000   0.009025   0.303916   0.332195
   4.7059   0.019299   0.179801   0.352861
   4.3507   0.012775   0.342211   0.378983
   4.0891   0.014922   0.360459   0.398940
   3.7807   0.022921   0.309901   0.423117
   3.3996   0.050410   0.191698   0.453719
   3.0713   0.090694   0.132741   0.480490
   2.7836   0.037177   0.378650   0.504080
   2.5674   0.022907   0.837451   0.521847
   2.3337   0.026937   0.954189   0.540911
   2.1075   0.036319   0.963912   0.559115
   1.9380   0.045230   0.975904   0.572476
   1.7707   0.058911   0.986776   0.585344
   1.6240   0.074664   0.988577   0.596225
   1.4948   0.093780   0.989825   0.605399
   1.3661   0.120225   0.991050   0.614024
   1.2527   0.157059   0.991466   0.621101
   1.1652   0.192541   0.990739   0.626075
   1.0989   0.227484   0.989086   0.629511
   1.0526   0.257219   0.988163   0.631710
   0.9975   0.300449   0.985885   0.634080
   0.9251   0.384940   0.980898   0.636789
   0.8662   0.467919   0.976303   0.638483
   0.8110   0.589083   0.965078   0.639726
   0.7678   0.697135   0.958105   0.640308
   0.7202   0.869512   0.954045   0.640699
   0.6787   1.046176   0.946940   0.640625
