 rpar =     0.0300000 um
 fractal properties
 rmon =     0.0500000 um
 df =       3.00000
 nmon =        1
  WAVL      QEXT        W0         gf
 500.0000   0.000036   0.000000   0.000000
 142.8571   0.000274   0.000000   0.000000
  76.9231   0.000717   0.000000   0.000001
  52.6316   0.000984   0.000000   0.000003
  40.0000   0.001143   0.000000   0.000005
  32.7869   0.001283   0.000000   0.000008
  28.1690   0.001592   0.000001   0.000010
  24.3902   0.002060   0.000001   0.000014
  21.6216   0.002537   0.000001   0.000017
  19.2308   0.003186   0.000001   0.000022
  17.2117   0.003708   0.000002   0.000026
  15.5763   0.003822   0.000002   0.000032
  14.4196   0.003876   0.000003   0.000037
  13.1579   0.003624   0.000005   0.000044
  11.9403   0.002957   0.000008   0.000053
  11.0193   0.002369   0.000013   0.000063
  10.3093   0.002458   0.000017   0.000072
   9.6852   0.002774   0.000020   0.000082
   9.2039   0.003056   0.000023   0.000092
   8.6655   0.003471   0.000027   0.000104
   8.0808   0.004498   0.000028   0.000120
   7.6190   0.005488   0.000029   0.000135
   7.1429   0.007411   0.000027   0.000151
   6.6667   0.010663   0.000026   0.000173
   6.2500   0.014608   0.000019   0.000183
   5.8824   0.006299   0.000032   0.000198
   5.5556   0.001201   0.000272   0.000230
   5.2632   0.000594   0.000818   0.000264
   5.0000   0.000628   0.001005   0.000296
   4.7059   0.001581   0.000537   0.000337
   4.3507   0.000840   0.001382   0.000395
   4.0891   0.000953   0.001600   0.000449
   3.7807   0.001579   0.001390   0.000530
   3.3996   0.004062   0.000829   0.000655
   3.0713   0.007835   0.000604   0.000791
   2.7836   0.002304   0.002700   0.000945
   2.5674   0.000379   0.024577   0.001127
   2.3337   0.000136   0.102743   0.001371
   2.1075   0.000151   0.142855   0.001689
   1.9380   0.000138   0.219283   0.001997
   1.7707   0.000121   0.367011   0.002403
   1.6240   0.000147   0.428802   0.002856
   1.4948   0.000181   0.484001   0.003371
   1.3661   0.000231   0.544961   0.004034
   1.2527   0.000313   0.583535   0.004820
   1.1652   0.000417   0.585727   0.005569
   1.0989   0.000548   0.563184   0.006259
   1.0526   0.000660   0.556221   0.006821
   0.9975   0.000861   0.528557   0.007592
   0.9251   0.001330   0.474571   0.008866
   0.8662   0.001869   0.439865   0.010108
   0.8110   0.003023   0.362906   0.011580
   0.7678   0.004083   0.334882   0.012913
   0.7202   0.005489   0.329965   0.014739
   0.6787   0.007363   0.312430   0.016585
