 rpar =    0.00900000 um
 fractal properties
 rmon =     0.0500000 um
 df =       3.00000
 nmon =        1
  WAVL      QEXT        W0         gf
 500.0000   0.000011   0.000000   0.000000
 142.8571   0.000082   0.000000   0.000000
  76.9231   0.000215   0.000000   0.000000
  52.6316   0.000295   0.000000   0.000000
  40.0000   0.000343   0.000000   0.000000
  32.7869   0.000385   0.000000   0.000001
  28.1690   0.000478   0.000000   0.000001
  24.3902   0.000618   0.000000   0.000001
  21.6216   0.000761   0.000000   0.000001
  19.2308   0.000956   0.000000   0.000001
  17.2117   0.001112   0.000000   0.000002
  15.5763   0.001146   0.000000   0.000003
  14.4196   0.001163   0.000000   0.000003
  13.1579   0.001087   0.000000   0.000004
  11.9403   0.000887   0.000000   0.000005
  11.0193   0.000711   0.000000   0.000006
  10.3093   0.000737   0.000000   0.000006
   9.6852   0.000832   0.000001   0.000007
   9.2039   0.000917   0.000001   0.000008
   8.6655   0.001041   0.000001   0.000009
   8.0808   0.001349   0.000001   0.000011
   7.6190   0.001646   0.000001   0.000012
   7.1429   0.002222   0.000001   0.000014
   6.6667   0.003197   0.000001   0.000016
   6.2500   0.004380   0.000001   0.000016
   5.8824   0.001889   0.000001   0.000018
   5.5556   0.000360   0.000007   0.000021
   5.2632   0.000178   0.000022   0.000024
   5.0000   0.000188   0.000027   0.000027
   4.7059   0.000473   0.000015   0.000030
   4.3507   0.000251   0.000037   0.000036
   4.0891   0.000285   0.000043   0.000040
   3.7807   0.000472   0.000038   0.000048
   3.3996   0.001215   0.000022   0.000059
   3.0713   0.002343   0.000016   0.000071
   2.7836   0.000688   0.000073   0.000085
   2.5674   0.000111   0.000682   0.000101
   2.3337   0.000037   0.003092   0.000123
   2.1075   0.000039   0.004497   0.000152
   1.9380   0.000032   0.007560   0.000180
   1.7707   0.000023   0.015497   0.000216
   1.6240   0.000025   0.019993   0.000257
   1.4948   0.000028   0.024885   0.000304
   1.3661   0.000032   0.031602   0.000364
   1.2527   0.000040   0.036839   0.000435
   1.1652   0.000053   0.037221   0.000502
   1.0989   0.000073   0.034104   0.000565
   1.0526   0.000089   0.033226   0.000616
   0.9975   0.000123   0.029876   0.000685
   0.9251   0.000209   0.024277   0.000801
   0.8662   0.000311   0.021233   0.000913
   0.8110   0.000566   0.015543   0.001047
   0.7678   0.000794   0.013804   0.001168
   0.7202   0.001069   0.013560   0.001334
   0.6787   0.001462   0.012576   0.001502
