 rpar =      0.200000 um
 fractal properties
 rmon =     0.0500000 um
 df =       1.60813
 nmon =       64.0000
  WAVL      QEXT        W0         gf
 500.0000   0.000241   0.000000   0.000031
 142.8571   0.001825   0.000002   0.000375
  76.9231   0.004782   0.000009   0.001294
  52.6316   0.006559   0.000027   0.002758
  40.0000   0.007623   0.000066   0.004760
  32.7869   0.008555   0.000127   0.007061
  28.1690   0.010616   0.000187   0.009531
  24.3902   0.013737   0.000254   0.012654
  21.6216   0.016919   0.000328   0.016021
  19.2308   0.021253   0.000403   0.020126
  17.2117   0.024735   0.000496   0.024938
  15.5763   0.025501   0.000645   0.030198
  14.4196   0.025868   0.000812   0.034971
  13.1579   0.024194   0.001212   0.041555
  11.9403   0.019758   0.002004   0.049781
  11.0193   0.015855   0.003417   0.057675
  10.3093   0.016462   0.004315   0.065055
   9.6852   0.018595   0.005045   0.072716
   9.2039   0.020502   0.005649   0.079530
   8.6655   0.023304   0.006340   0.088271
   8.0808   0.030207   0.006481   0.099364
   7.6190   0.036861   0.006607   0.109531
   7.1429   0.049742   0.005887   0.121548
   6.6667   0.071550   0.005438   0.135407
   6.2500   0.097852   0.003804   0.149247
   5.8824   0.042302   0.006351   0.163006
   5.5556   0.008428   0.049231   0.176633
   5.2632   0.004559   0.130643   0.190006
   5.0000   0.004934   0.151194   0.203057
   4.7059   0.011513   0.083436   0.218853
   4.3507   0.006840   0.180947   0.239704
   4.0891   0.007912   0.195821   0.256348
   3.7807   0.012635   0.165399   0.277377
   3.3996   0.030089   0.097206   0.305379
   3.0713   0.056180   0.066628   0.331134
   2.7836   0.019884   0.225498   0.354770
   2.5674   0.008710   0.715016   0.373135
   2.3337   0.009361   0.912119   0.393337
   2.1075   0.012790   0.931681   0.413081
   1.9380   0.016054   0.954744   0.427840
   1.7707   0.021141   0.975433   0.442263
   1.6240   0.027296   0.979169   0.454616
   1.4948   0.034920   0.981783   0.465153
   1.3661   0.045683   0.984298   0.475181
   1.2527   0.060899   0.985327   0.483534
   1.1652   0.076015   0.984362   0.489504
   1.0989   0.091212   0.981854   0.493710
   1.0526   0.104304   0.980540   0.496459
   0.9975   0.123671   0.977139   0.499501
   0.9251   0.162034   0.969747   0.503157
   0.8662   0.200942   0.963212   0.505672
   0.8110   0.259182   0.947085   0.507783
   0.7678   0.312604   0.937713   0.509107
   0.7202   0.398177   0.933098   0.510418
   0.6787   0.489524   0.924403   0.511310
