 rpar =       5.00000 um
 fractal properties
 rmon =     0.0500000 um
 df =       2.40000
 nmon =   1.00000e+06
  WAVL      QEXT        W0         gf
 500.0000   0.006032   0.001998   0.010669
 142.8571   0.046858   0.026357   0.128389
  76.9231   0.126942   0.058313   0.388702
  52.6316   0.181673   0.097376   0.603824
  40.0000   0.223526   0.147464   0.708282
  32.7869   0.265939   0.195921   0.760108
  28.1690   0.340140   0.219878   0.791536
  24.3902   0.446548   0.231140   0.816262
  21.6216   0.557011   0.240901   0.833790
  19.2308   0.701000   0.242335   0.848537
  17.2117   0.819664   0.245959   0.860737
  15.5763   0.865753   0.264096   0.870474
  14.4196   0.903037   0.284441   0.877300
  13.1579   0.913271   0.338505   0.884708
  11.9403   0.851358   0.420983   0.891841
  11.0193   0.828800   0.523376   0.897243
  10.3093   0.921867   0.555503   0.901423
   9.6852   1.075301   0.569856   0.905115
   9.2039   1.207889   0.578067   0.907979
   8.6655   1.389536   0.583373   0.911203
   8.0808   1.710256   0.561311   0.914738
   7.6190   2.002175   0.542781   0.917558
   7.1429   2.407998   0.486612   0.920499
   6.6667   3.154201   0.435983   0.923480
   6.2500   3.602842   0.323590   0.926124
   5.8824   1.882642   0.441834   0.928492
   5.5556   1.447620   0.861612   0.930633
   5.2632   1.777107   0.944246   0.932577
   5.0000   2.072587   0.949482   0.934351
   4.7059   2.590538   0.898163   0.936365
   4.3507   2.878417   0.951344   0.938847
   4.0891   3.329530   0.952228   0.940715
   3.7807   4.116587   0.935959   0.942965
   3.3996   5.309650   0.872099   0.945825
   3.0713   6.410158   0.795494   0.948367
   2.7836   6.118301   0.937075   0.950661
   2.5674   7.277750   0.991473   0.952438
   2.3337   8.697986   0.997635   0.954402
   2.1075  10.431660   0.997906   0.956348
   1.9380  11.817320   0.998463   0.957832
   1.7707  13.636260   0.999048   0.959315
   1.6240  15.245230   0.999067   0.960620
   1.4948  16.821840   0.999055   0.961764
   1.3661  18.547760   0.999033   0.962884
   1.2527  20.423540   0.998906   0.963841
   1.1652  21.751940   0.998634   0.964540
   1.0989  22.786600   0.998184   0.965037
   1.0526  23.519850   0.997843   0.965361
   0.9975  24.402901   0.997104   0.965716
   0.9251  25.758341   0.995242   0.966126
   0.8662  26.704941   0.993080   0.966381
   0.8110  27.779591   0.987658   0.966555
   0.7678  28.492760   0.982916   0.966618
   0.7202  29.399731   0.977348   0.966620
   0.6787  30.119499   0.969284   0.966524
