 rpar =      0.900000 um
 fractal properties
 rmon =     0.0500000 um
 df =       2.39999
 nmon =       5832.00
  WAVL      QEXT        W0         gf
 500.0000   0.001084   0.000012   0.000147
 142.8571   0.008214   0.000211   0.001798
  76.9231   0.021535   0.000837   0.006201
  52.6316   0.029589   0.002437   0.013239
  40.0000   0.034501   0.005769   0.022904
  32.7869   0.038911   0.010802   0.034055
  28.1690   0.048518   0.015552   0.046076
  24.3902   0.063087   0.020396   0.061340
  21.6216   0.078099   0.025483   0.077860
  19.2308   0.098573   0.030140   0.098069
  17.2117   0.115342   0.035466   0.121813
  15.5763   0.119931   0.043782   0.147767
  14.4196   0.122763   0.052548   0.171246
  13.1579   0.117292   0.072895   0.203419
  11.9403   0.099577   0.108917   0.243053
  11.0193   0.085131   0.164760   0.280241
  10.3093   0.091228   0.191501   0.314043
   9.6852   0.105184   0.208474   0.347933
   9.2039   0.117649   0.220252   0.376918
   8.6655   0.135538   0.231171   0.412324
   8.0808   0.173962   0.223687   0.454140
   7.6190   0.210558   0.217423   0.489249
   7.1429   0.274136   0.188277   0.526741
   6.6667   0.384263   0.166655   0.564714
   6.2500   0.495559   0.114818   0.597509
   5.8824   0.228428   0.171954   0.625555
   5.5556   0.094893   0.619994   0.649504
   5.2632   0.099164   0.820149   0.670023
   5.0000   0.116834   0.838689   0.687759
   4.7059   0.167819   0.717038   0.706836
   4.3507   0.171599   0.853091   0.729019
   4.0891   0.203712   0.859457   0.744885
   3.7807   0.270352   0.824474   0.763164
   3.3996   0.408889   0.701045   0.785136
   3.0713   0.572197   0.587616   0.803477
   2.7836   0.449065   0.845681   0.819062
   2.5674   0.512294   0.978195   0.830478
   2.3337   0.644797   0.994259   0.842490
   2.1075   0.832743   0.995278   0.853783
   1.9380   1.002532   0.996739   0.862010
   1.7707   1.253171   0.998135   0.869923
   1.6240   1.511189   0.998307   0.876658
   1.4948   1.803160   0.998412   0.882412
   1.3661   2.176540   0.998517   0.887939
   1.2527   2.660679   0.998489   0.892607
   1.1652   3.072768   0.998259   0.896027
   1.0989   3.443240   0.997837   0.898491
   1.0526   3.737024   0.997556   0.900132
   0.9975   4.130376   0.996920   0.901985
   0.9251   4.829072   0.995432   0.904237
   0.8662   5.405345   0.993846   0.905846
   0.8110   6.135455   0.989941   0.907167
   0.7678   6.677989   0.986879   0.908009
   0.7202   7.449407   0.983908   0.908759
   0.6787   8.074727   0.979377   0.909174
