 rpar =    0.00600000 um
 fractal properties
 rmon =     0.0500000 um
 df =       3.00000
 nmon =        1
  WAVL      QEXT        W0         gf
 500.0000   0.000007   0.000000  -0.000000
 142.8571   0.000055   0.000000   0.000000
  76.9231   0.000143   0.000000   0.000000
  52.6316   0.000197   0.000000   0.000000
  40.0000   0.000229   0.000000   0.000000
  32.7869   0.000257   0.000000   0.000000
  28.1690   0.000318   0.000000   0.000000
  24.3902   0.000412   0.000000   0.000000
  21.6216   0.000507   0.000000   0.000001
  19.2308   0.000637   0.000000   0.000001
  17.2117   0.000741   0.000000   0.000001
  15.5763   0.000764   0.000000   0.000001
  14.4196   0.000775   0.000000   0.000001
  13.1579   0.000725   0.000000   0.000001
  11.9403   0.000591   0.000000   0.000002
  11.0193   0.000474   0.000000   0.000003
  10.3093   0.000491   0.000000   0.000003
   9.6852   0.000555   0.000000   0.000003
   9.2039   0.000611   0.000000   0.000004
   8.6655   0.000694   0.000000   0.000004
   8.0808   0.000899   0.000000   0.000005
   7.6190   0.001097   0.000000   0.000005
   7.1429   0.001481   0.000000   0.000006
   6.6667   0.002131   0.000000   0.000007
   6.2500   0.002920   0.000000   0.000007
   5.8824   0.001259   0.000000   0.000008
   5.5556   0.000240   0.000002   0.000009
   5.2632   0.000119   0.000007   0.000011
   5.0000   0.000125   0.000008   0.000012
   4.7059   0.000316   0.000004   0.000013
   4.3507   0.000167   0.000011   0.000016
   4.0891   0.000190   0.000013   0.000018
   3.7807   0.000315   0.000011   0.000021
   3.3996   0.000810   0.000007   0.000026
   3.0713   0.001562   0.000005   0.000032
   2.7836   0.000458   0.000022   0.000038
   2.5674   0.000074   0.000202   0.000045
   2.3337   0.000024   0.000918   0.000055
   2.1075   0.000026   0.001337   0.000068
   1.9380   0.000021   0.002253   0.000080
   1.7707   0.000015   0.004644   0.000096
   1.6240   0.000017   0.006011   0.000114
   1.4948   0.000019   0.007508   0.000135
   1.3661   0.000021   0.009581   0.000162
   1.2527   0.000026   0.011212   0.000193
   1.1652   0.000034   0.011333   0.000223
   1.0989   0.000047   0.010362   0.000251
   1.0526   0.000058   0.010089   0.000274
   0.9975   0.000080   0.009051   0.000305
   0.9251   0.000137   0.007326   0.000356
   0.8662   0.000204   0.006395   0.000406
   0.8110   0.000373   0.004663   0.000465
   0.7678   0.000523   0.004137   0.000519
   0.7202   0.000704   0.004064   0.000593
   0.6787   0.000963   0.003767   0.000668
