 rpar =     0.0900000 um
 fractal properties
 rmon =     0.0500000 um
 df =       1.51044
 nmon =       5.83200
  WAVL      QEXT        W0         gf
 0.2563   3.811572   0.682160   0.528748
 0.2795   3.203514   0.705762   0.471130
 0.2965   2.750420   0.713943   0.438408
 0.3186   2.185401   0.705198   0.405848
 0.3355   1.878958   0.707480   0.387783
 0.3650   1.425999   0.711094   0.363572
 0.4200   0.970874   0.760781   0.335757
 0.4950   0.510226   0.782713   0.308215
 0.5448   0.329708   0.807163   0.293548
 0.5581   0.294971   0.820994   0.290035
 0.5858   0.241414   0.830010   0.283054
 0.6150   0.193890   0.832827   0.275828
 0.6459   0.157947   0.846778   0.268741
 0.6790   0.124208   0.866652   0.261231
 0.7210   0.097709   0.878183   0.252284
 0.7680   0.074705   0.883157   0.242464
 0.8130   0.059458   0.898284   0.233507
 0.8670   0.044333   0.926035   0.222976
 0.9260   0.034449   0.936491   0.212020
 1.0000   0.024999   0.950203   0.198785
 1.0500   0.020824   0.955610   0.190296
 1.1000   0.017555   0.957697   0.182123
 1.1700   0.013969   0.962592   0.171220
 1.2500   0.010984   0.963374   0.159533
 1.3700   0.007710   0.959329   0.143478
 1.5000   0.005602   0.949184   0.128125
 1.6300   0.004178   0.939109   0.114663
 1.7700   0.003131   0.925466   0.102056
 1.9400   0.002337   0.860517   0.089002
 2.1100   0.001862   0.789523   0.078081
 2.3400   0.001340   0.724959   0.065986
 2.5700   0.001789   0.370705   0.056331
 2.7900   0.007773   0.057513   0.048826
 3.0800   0.023596   0.014630   0.041016
 3.4100   0.012115   0.020573   0.034136
 3.7900   0.004818   0.034217   0.028088
 4.0900   0.002971   0.039204   0.024346
 4.3600   0.002611   0.033859   0.021574
