 rpar =   0.000100000 um
 fractal properties
 rmon =     0.0500000 um
 df =       3.00000
 nmon =        1
  WAVL      QEXT        W0         gf
 0.2563   0.000801   0.000000   0.000001
 0.2795   0.000647   0.000000   0.000001
 0.2965   0.000556   0.000000   0.000001
 0.3186   0.000476   0.000000   0.000001
 0.3355   0.000413   0.000000   0.000001
 0.3650   0.000320   0.000000   0.000000
 0.4200   0.000185   0.000000   0.000000
 0.4950   0.000095   0.000000   0.000000
 0.5448   0.000057   0.000000   0.000000
 0.5581   0.000047   0.000000   0.000000
 0.5858   0.000037   0.000000   0.000000
 0.6150   0.000030   0.000000   0.000000
 0.6459   0.000023   0.000000   0.000000
 0.6790   0.000016   0.000000   0.000000
 0.7210   0.000012   0.000000   0.000000
 0.7680   0.000009   0.000000   0.000000
 0.8130   0.000006   0.000000   0.000000
 0.8670   0.000003   0.000000   0.000000
 0.9260   0.000002   0.000000   0.000000
 1.0000   0.000001   0.000000   0.000000
 1.0500   0.000001   0.000000   0.000000
 1.1000   0.000001   0.000000   0.000000
 1.1700   0.000001   0.000000   0.000000
 1.2500   0.000000   0.000000   0.000000
 1.3700   0.000000   0.000000   0.000000
 1.5000   0.000000   0.000000   0.000000
 1.6300   0.000000   0.000000   0.000000
 1.7700   0.000000   0.000000   0.000000
 1.9400   0.000000   0.000000   0.000000
 2.1100   0.000000   0.000000   0.000000
 2.3400   0.000000   0.000000   0.000000
 2.5700   0.000001   0.000000   0.000000
 2.7900   0.000008   0.000000   0.000000
 3.0800   0.000026   0.000000   0.000000
 3.4100   0.000013   0.000000   0.000000
 3.7900   0.000005   0.000000   0.000000
 4.0900   0.000003   0.000000   0.000000
 4.3600   0.000003   0.000000   0.000000
