 rpar =   0.000300000 um
 fractal properties
 rmon =     0.0500000 um
 df =       3.00000
 nmon =        1
  WAVL      QEXT        W0         gf
 0.2563   0.002402   0.000001   0.000012
 0.2795   0.001941   0.000000   0.000010
 0.2965   0.001668   0.000000   0.000009
 0.3186   0.001427   0.000000   0.000007
 0.3355   0.001240   0.000000   0.000007
 0.3650   0.000959   0.000000   0.000006
 0.4200   0.000554   0.000000   0.000004
 0.4950   0.000284   0.000000   0.000003
 0.5448   0.000170   0.000000   0.000003
 0.5581   0.000142   0.000000   0.000002
 0.5858   0.000112   0.000000   0.000002
 0.6150   0.000090   0.000000   0.000002
 0.6459   0.000069   0.000000   0.000001
 0.6790   0.000048   0.000000   0.000001
 0.7210   0.000035   0.000001   0.000001
 0.7680   0.000026   0.000001   0.000001
 0.8130   0.000018   0.000001   0.000001
 0.8670   0.000010   0.000001   0.000001
 0.9260   0.000007   0.000001   0.000001
 1.0000   0.000004   0.000001   0.000001
 1.0500   0.000003   0.000001   0.000001
 1.1000   0.000002   0.000001   0.000000
 1.1700   0.000002   0.000001   0.000000
 1.2500   0.000001   0.000001   0.000000
 1.3700   0.000001   0.000001   0.000000
 1.5000   0.000001   0.000001   0.000000
 1.6300   0.000001   0.000001   0.000000
 1.7700   0.000001   0.000001   0.000000
 1.9400   0.000001   0.000000   0.000000
 2.1100   0.000001   0.000000   0.000000
 2.3400   0.000001   0.000000   0.000000
 2.5700   0.000004   0.000000   0.000000
 2.7900   0.000024   0.000000   0.000000
 3.0800   0.000077   0.000000   0.000000
 3.4100   0.000039   0.000000   0.000000
 3.7900   0.000015   0.000000   0.000000
 4.0900   0.000009   0.000000   0.000000
 4.3600   0.000008   0.000000   0.000000
