 rpar =       10.0000 um
 fractal properties
 rmon =     0.0500000 um
 df =       2.40000
 nmon =   8.00000e+06
  WAVL      QEXT        W0         gf
 0.2563 176.701202   0.236821   0.976965
 0.2795 150.454803   0.302615   0.978240
 0.2965 130.396606   0.328355   0.974795
 0.3186 114.454399   0.373411   0.973897
 0.3355 103.881203   0.411035   0.973709
 0.3650  88.823013   0.483698   0.973749
 0.4200  69.513580   0.628085   0.974649
 0.4950  56.237919   0.780557   0.975665
 0.5448  50.970551   0.861148   0.976169
 0.5581  49.785130   0.881941   0.976286
 0.5858  48.397800   0.905613   0.976501
 0.6150  47.244499   0.923630   0.976671
 0.6459  46.185242   0.941671   0.976821
 0.6790  45.081821   0.959103   0.976925
 0.7210  44.302311   0.970093   0.976551
 0.7680  43.372971   0.977598   0.977038
 0.8130  42.632160   0.984209   0.977014
 0.8670  41.638069   0.991234   0.976923
 0.9260  40.830391   0.994035   0.976774
 1.0000  39.562840   0.996497   0.976519
 1.0500  38.848370   0.997351   0.976319
 1.1000  38.106529   0.997831   0.976101
 1.1700  37.055222   0.998430   0.975770
 1.2500  35.867210   0.998751   0.975366
 1.3700  33.730850   0.998965   0.974722
 1.5000  31.808661   0.999004   0.974002
 1.6300  29.767509   0.999049   0.973269
 1.7700  27.732870   0.999063   0.972477
 1.9400  25.073339   0.998553   0.971521
 2.1100  22.915119   0.998096   0.970580
 2.3400  19.953480   0.997944   0.969334
 2.5700  17.384720   0.992790   0.968124
 2.7900  14.980900   0.945567   0.966862
 3.0800  15.220380   0.829952   0.965568
 3.4100  13.110860   0.899260   0.964000
 3.7900  10.668950   0.951451   0.962266
 4.0900   8.911253   0.964341   0.960946
 4.3600   7.791732   0.963960   0.959793
