 rpar =       8.00000 um
 fractal properties
 rmon =     0.0500000 um
 df =       2.40000
 nmon =   4.09600e+06
  WAVL      QEXT        W0         gf
 0.2563 145.752899   0.259817   0.975155
 0.2795 121.924004   0.311538   0.972730
 0.2965 108.728500   0.355604   0.972197
 0.3186  95.330032   0.398168   0.970661
 0.3355  86.980904   0.437280   0.970462
 0.3650  74.871323   0.509991   0.970532
 0.4200  59.564621   0.652772   0.971520
 0.4950  48.960331   0.798351   0.972639
 0.5448  44.702881   0.873344   0.973193
 0.5581  43.749020   0.892522   0.973322
 0.5858  42.598572   0.914210   0.973558
 0.6150  41.596291   0.930608   0.973741
 0.6459  40.698570   0.947046   0.973906
 0.6790  39.719501   0.962866   0.974017
 0.7210  38.939079   0.972779   0.974109
 0.7680  38.072239   0.979583   0.974128
 0.8130  37.354679   0.985582   0.974095
 0.8670  36.339451   0.991964   0.973983
 0.9260  35.476822   0.994508   0.974515
 1.0000  34.176659   0.996756   0.973509
 1.0500  33.411049   0.997536   0.973277
 1.1000  32.642448   0.997974   0.973024
 1.1700  31.560381   0.998526   0.972642
 1.2500  30.316099   0.998818   0.972176
 1.3700  28.197870   0.999010   0.971435
 1.5000  26.229469   0.999034   0.970606
 1.6300  24.345619   0.999069   0.969763
 1.7700  22.432421   0.999074   0.968852
 1.9400  19.995359   0.998548   0.967751
 2.1100  18.065350   0.998068   0.966667
 2.3400  15.488550   0.997881   0.965230
 2.5700  13.318540   0.992471   0.963832
 2.7900  11.359890   0.942573   0.962530
 3.0800  11.608070   0.821628   0.960874
 3.4100   9.875627   0.893006   0.959055
 3.7900   7.918299   0.947668   0.957039
 4.0900   6.552980   0.961207   0.955092
 4.3600   5.696475   0.960563   0.954154
