 rpar =    0.00800000 um
 fractal properties
 rmon =     0.0500000 um
 df =       3.00000
 nmon =        1
  WAVL      QEXT        W0         gf
 0.2563   0.066484   0.009216   0.008252
 0.2795   0.053398   0.007793   0.006917
 0.2965   0.045717   0.006948   0.006123
 0.3186   0.038949   0.005783   0.005256
 0.3355   0.033761   0.005385   0.004743
 0.3650   0.026040   0.004927   0.004012
 0.4200   0.015018   0.005519   0.003125
 0.4950   0.007666   0.005683   0.002263
 0.5448   0.004581   0.006324   0.001860
 0.5581   0.003839   0.006848   0.001772
 0.5858   0.003035   0.007132   0.001609
 0.6150   0.002442   0.007134   0.001453
 0.6459   0.001851   0.007732   0.001317
 0.6790   0.001289   0.008888   0.001186
 0.7210   0.000941   0.009574   0.001052
 0.7680   0.000701   0.009749   0.000923
 0.8130   0.000492   0.011061   0.000823
 0.8670   0.000271   0.015143   0.000720
 0.9260   0.000183   0.017222   0.000632
 1.0000   0.000106   0.021378   0.000539
 1.0500   0.000079   0.023493   0.000489
 1.1000   0.000064   0.024135   0.000445
 1.1700   0.000046   0.026564   0.000394
 1.2500   0.000035   0.026331   0.000345
 1.3700   0.000028   0.022753   0.000286
 1.5000   0.000025   0.017432   0.000238
 1.6300   0.000022   0.013975   0.000202
 1.7700   0.000021   0.010948   0.000171
 1.9400   0.000029   0.005306   0.000142
 2.1100   0.000035   0.003152   0.000120
 2.3400   0.000032   0.002156   0.000097
 2.5700   0.000099   0.000472   0.000080
 2.7900   0.000647   0.000048   0.000067
 3.0800   0.002056   0.000011   0.000056
 3.4100   0.001050   0.000016   0.000046
 3.7900   0.000412   0.000027   0.000038
 4.0900   0.000253   0.000030   0.000032
 4.3600   0.000224   0.000026   0.000028
