 rpar =      0.400000 um
 fractal properties
 rmon =     0.0500000 um
 df =       2.07676
 nmon =       512.000
  WAVL      QEXT        W0         gf
 0.2563  14.030810   0.615547   0.818402
 0.2795  12.593440   0.666731   0.798232
 0.2965  11.610440   0.698271   0.787390
 0.3186  10.366060   0.723267   0.777637
 0.3355   9.648694   0.746360   0.773486
 0.3650   8.471427   0.783463   0.769436
 0.4200   7.305638   0.858448   0.769171
 0.4950   5.309970   0.907035   0.770130
 0.5448   4.148366   0.931757   0.770656
 0.5581   3.903736   0.939775   0.770780
 0.5858   3.463645   0.947245   0.770938
 0.6150   2.996922   0.951843   0.770807
 0.6459   2.640451   0.959190   0.770582
 0.6790   2.258613   0.967348   0.770010
 0.7210   1.931065   0.972555   0.769076
 0.7680   1.597410   0.975670   0.767551
 0.8130   1.374030   0.980402   0.765803
 0.8670   1.127509   0.987051   0.763246
 0.9260   0.948817   0.989733   0.760082
 1.0000   0.755670   0.992665   0.755536
 1.0500   0.665539   0.993816   0.752211
 1.1000   0.589959   0.994395   0.748690
 1.1700   0.502748   0.995372   0.743477
 1.2500   0.423818   0.995773   0.737175
 1.3700   0.326012   0.995717   0.727142
 1.5000   0.258281   0.995092   0.715659
 1.6300   0.208523   0.994567   0.703758
 1.7700   0.168609   0.993837   0.690458
 1.9400   0.130067   0.988840   0.673794
 2.1100   0.105044   0.983383   0.656692
 2.3400   0.078293   0.979043   0.632953
 2.5700   0.063217   0.920690   0.608638
 2.7900   0.075572   0.568379   0.584888
 3.0800   0.140631   0.263835   0.553008
 3.4100   0.083059   0.363930   0.516077
 3.7900   0.043302   0.521523   0.473340
 4.0900   0.030083   0.577479   0.440127
 4.3600   0.025378   0.557384   0.411144
