 rpar =     0.0100000 um
 fractal properties
 rmon =     0.0500000 um
 df =       3.00000
 nmon =        1
  WAVL      QEXT        W0         gf
 0.2563   0.085090   0.017643   0.012873
 0.2795   0.068089   0.014965   0.010793
 0.2965   0.058163   0.013369   0.009555
 0.3186   0.049416   0.011153   0.008204
 0.3355   0.042780   0.010395   0.007404
 0.3650   0.032940   0.009525   0.006263
 0.4200   0.018985   0.010676   0.004880
 0.4950   0.009677   0.011005   0.003534
 0.5448   0.005782   0.012246   0.002905
 0.5581   0.004847   0.013255   0.002768
 0.5858   0.003832   0.013804   0.002513
 0.6150   0.003082   0.013811   0.002269
 0.6459   0.002337   0.014964   0.002057
 0.6790   0.001628   0.017185   0.001853
 0.7210   0.001189   0.018504   0.001643
 0.7680   0.000886   0.018842   0.001441
 0.8130   0.000622   0.021354   0.001286
 0.8670   0.000345   0.029126   0.001125
 0.9260   0.000233   0.033066   0.000987
 1.0000   0.000135   0.040891   0.000842
 1.0500   0.000101   0.044850   0.000764
 1.1000   0.000082   0.046050   0.000696
 1.1700   0.000058   0.050575   0.000615
 1.2500   0.000045   0.050145   0.000539
 1.3700   0.000035   0.043480   0.000446
 1.5000   0.000032   0.033479   0.000372
 1.6300   0.000028   0.026928   0.000315
 1.7700   0.000026   0.021157   0.000267
 1.9400   0.000036   0.010309   0.000222
 2.1100   0.000043   0.006136   0.000187
 2.3400   0.000041   0.004202   0.000152
 2.5700   0.000124   0.000922   0.000125
 2.7900   0.000809   0.000094   0.000105
 3.0800   0.002571   0.000022   0.000087
 3.4100   0.001313   0.000031   0.000072
 3.7900   0.000516   0.000052   0.000059
 4.0900   0.000317   0.000059   0.000050
 4.3600   0.000280   0.000051   0.000044
