 rpar =     0.0300000 um
 fractal properties
 rmon =     0.0500000 um
 df =       3.00000
 nmon =        1
  WAVL      QEXT        W0         gf
 0.2563   0.444310   0.275541   0.117012
 0.2795   0.335195   0.250848   0.097141
 0.2965   0.274989   0.234128   0.085625
 0.3186   0.220342   0.206949   0.073290
 0.3355   0.186304   0.197848   0.066041
 0.3650   0.138930   0.187381   0.055782
 0.4200   0.080704   0.209650   0.043424
 0.4950   0.040380   0.219042   0.031495
 0.5448   0.024370   0.240273   0.025912
 0.5581   0.020763   0.255724   0.024701
 0.5858   0.016496   0.264577   0.022437
 0.6150   0.013194   0.265600   0.020271
 0.6459   0.010175   0.282587   0.018390
 0.6790   0.007341   0.312802   0.016570
 0.7210   0.005462   0.330108   0.014706
 0.7680   0.004076   0.335079   0.012907
 0.8130   0.002978   0.364809   0.011524
 0.8670   0.001853   0.442011   0.010089
 0.9260   0.001323   0.475177   0.008849
 1.0000   0.000849   0.530968   0.007555
 1.0500   0.000667   0.555304   0.006854
 1.1000   0.000547   0.562454   0.006247
 1.1700   0.000409   0.586909   0.005524
 1.2500   0.000315   0.585094   0.004841
 1.3700   0.000227   0.548827   0.004011
 1.5000   0.000180   0.481414   0.003347
 1.6300   0.000146   0.426107   0.002835
 1.7700   0.000121   0.367285   0.002405
 1.9400   0.000138   0.218755   0.001992
 2.1100   0.000151   0.142422   0.001685
 2.3400   0.000136   0.102001   0.001363
 2.5700   0.000383   0.024245   0.001125
 2.7900   0.002440   0.002526   0.000940
 3.0800   0.007734   0.000605   0.000786
 3.4100   0.003950   0.000842   0.000652
 3.7900   0.001551   0.001401   0.000528
 4.0900   0.000952   0.001600   0.000449
 4.3600   0.000842   0.001367   0.000393
