 rpar =      0.500000 um
 fractal properties
 rmon =     0.0500000 um
 df =       2.27820
 nmon =       1000.00
  WAVL      QEXT        W0         gf
 0.2563  15.612990   0.568133   0.874219
 0.2795  14.018510   0.625763   0.860747
 0.2965  13.004660   0.663274   0.853625
 0.3186  11.832360   0.696950   0.847385
 0.3355  11.149530   0.725628   0.844953
 0.3650  10.064510   0.772172   0.842856
 0.4200   9.022591   0.856731   0.843703
 0.4950   7.250728   0.914898   0.844832
 0.5448   6.086017   0.941855   0.845085
 0.5581   5.827025   0.949566   0.845098
 0.5858   5.337260   0.957205   0.845005
 0.6150   4.776531   0.962231   0.844632
 0.6459   4.333283   0.968916   0.844117
 0.6790   3.825921   0.975905   0.843271
 0.7210   3.370437   0.980345   0.841977
 0.7680   2.873743   0.983095   0.840111
 0.8130   2.530582   0.986698   0.838056
 0.8670   2.132091   0.991440   0.835196
 0.9260   1.832581   0.993355   0.831741
 1.0000   1.493625   0.995361   0.826912
 1.0500   1.331845   0.996137   0.823424
 1.1000   1.193420   0.996537   0.819764
 1.1700   1.030689   0.997178   0.814388
 1.2500   0.880142   0.997456   0.807934
 1.3700   0.687947   0.997463   0.797717
 1.5000   0.552494   0.997132   0.786084
 1.6300   0.451154   0.996861   0.773945
 1.7700   0.368521   0.996475   0.760392
 1.9400   0.286629   0.993670   0.743351
 2.1100   0.232980   0.990635   0.725769
 2.3400   0.174997   0.988280   0.701182
 2.5700   0.138631   0.954792   0.675687
 2.7900   0.138917   0.706494   0.650333
 3.0800   0.214727   0.397329   0.615324
 3.4100   0.136406   0.515862   0.573287
 3.7900   0.079072   0.672470   0.523080
 4.0900   0.057091   0.721705   0.483435
 4.3600   0.047793   0.706216   0.448732
