 rpar =    0.00300000 um
 fractal properties
 rmon =     0.0500000 um
 df =       3.00000
 nmon =        1
  WAVL      QEXT        W0         gf
 0.2563   0.024129   0.000499   0.001164
 0.2795   0.019484   0.000420   0.000975
 0.2965   0.016735   0.000374   0.000863
 0.3186   0.014313   0.000310   0.000741
 0.3355   0.012428   0.000288   0.000668
 0.3650   0.009610   0.000263   0.000565
 0.4200   0.005550   0.000295   0.000440
 0.4950   0.002840   0.000303   0.000319
 0.5448   0.001698   0.000337   0.000262
 0.5581   0.001423   0.000365   0.000249
 0.5858   0.001125   0.000380   0.000226
 0.6150   0.000906   0.000380   0.000204
 0.6459   0.000686   0.000412   0.000185
 0.6790   0.000477   0.000474   0.000167
 0.7210   0.000348   0.000511   0.000148
 0.7680   0.000260   0.000520   0.000130
 0.8130   0.000182   0.000591   0.000116
 0.8670   0.000100   0.000811   0.000101
 0.9260   0.000067   0.000925   0.000089
 1.0000   0.000039   0.001152   0.000076
 1.0500   0.000029   0.001268   0.000069
 1.1000   0.000023   0.001304   0.000063
 1.1700   0.000017   0.001438   0.000055
 1.2500   0.000013   0.001425   0.000049
 1.3700   0.000010   0.001227   0.000040
 1.5000   0.000009   0.000935   0.000034
 1.6300   0.000008   0.000747   0.000028
 1.7700   0.000008   0.000584   0.000024
 1.9400   0.000011   0.000281   0.000020
 2.1100   0.000013   0.000167   0.000017
 2.3400   0.000012   0.000114   0.000014
 2.5700   0.000037   0.000025   0.000011
 2.7900   0.000243   0.000003   0.000009
 3.0800   0.000771   0.000001   0.000008
 3.4100   0.000394   0.000001   0.000007
 3.7900   0.000155   0.000001   0.000005
 4.0900   0.000095   0.000002   0.000004
 4.3600   0.000084   0.000001   0.000004
